{
    "finite_element_0": {
        "cell_shape": 3, 
        "space_dimension": 56, 
        "value_rank": 0, 
        "evaluate_basis:_0": [-1.4694724567567263e-02], 
        "evaluate_basis:_1": [-9.3076009364260949e+02], 
        "evaluate_basis:_2": [2.4509848848191851e-02], 
        "evaluate_basis:_3": [1.8019778670428477e+02], 
        "evaluate_basis:_4": [-3.3902474068035815e-01], 
        "evaluate_basis:_5": [2.3678567141584494e+00], 
        "evaluate_basis:_6": [-1.2385757425579527e+01], 
        "evaluate_basis:_7": [9.2836437069006536e+01], 
        "evaluate_basis:_8": [3.5874079022909282e+03], 
        "evaluate_basis:_9": [-5.3855310835143373e+03], 
        "evaluate_basis:_10": [3.9123436569674018e+03], 
        "evaluate_basis:_11": [-1.3636654532905677e+03], 
        "evaluate_basis:_12": [2.1397260463226843e+02], 
        "evaluate_basis:_13": [1.6385005558779579e+01], 
        "evaluate_basis:_14": [2.2755695601422161e+00], 
        "evaluate_basis:_15": [2.9702702062209774e-01], 
        "evaluate_basis:_16": [9.3929846373112014e-01], 
        "evaluate_basis:_17": [6.2144667362890743e+01], 
        "evaluate_basis:_18": [3.7072992205931911e+02], 
        "evaluate_basis:_19": [5.3371068088239633e+02], 
        "evaluate_basis:_20": [5.6026958501469437e-02], 
        "evaluate_basis:_21": [-1.8906705532816837e-01], 
        "evaluate_basis:_22": [2.1563214162602407e-01], 
        "evaluate_basis:_23": [-1.1625175187930559e-01], 
        "evaluate_basis:_24": [-8.2298224244956764e-01], 
        "evaluate_basis:_25": [5.9722154149805775e+01], 
        "evaluate_basis:_26": [-4.9043419654898423e+02], 
        "evaluate_basis:_27": [1.2301145428507357e+03], 
        "evaluate_basis:_28": [-7.1804301489696331e+02], 
        "evaluate_basis:_29": [-4.5233576775582620e+01], 
        "evaluate_basis:_30": [-4.6373548915260159e+00], 
        "evaluate_basis:_31": [8.8678897007659680e+02], 
        "evaluate_basis:_32": [4.1237846438799437e+01], 
        "evaluate_basis:_33": [-4.7554766026454070e+02], 
        "evaluate_basis:_34": [8.2856198487265900e+00], 
        "evaluate_basis:_35": [-4.2862859852819000e+00], 
        "evaluate_basis:_36": [1.8149771133367807e+00], 
        "evaluate_basis:_37": [8.4031268690050126e+01], 
        "evaluate_basis:_38": [-1.6139657457421578e+01], 
        "evaluate_basis:_39": [1.8611962951020951e+02], 
        "evaluate_basis:_40": [-1.2170692333869668e+02], 
        "evaluate_basis:_41": [1.3539264480563513e+03], 
        "evaluate_basis:_42": [-4.1279824627995877e+03], 
        "evaluate_basis:_43": [-1.2343270070729800e+03], 
        "evaluate_basis:_44": [5.0980921284777560e+03], 
        "evaluate_basis:_45": [-2.7338925007088901e+03], 
        "evaluate_basis:_46": [-7.2592632505912045e+00], 
        "evaluate_basis:_47": [8.0755569595606985e+01], 
        "evaluate_basis:_48": [-2.4621543333123955e+02], 
        "evaluate_basis:_49": [3.7553283983986177e+00], 
        "evaluate_basis:_50": [-1.5510499244394566e+01], 
        "evaluate_basis:_51": [-1.5901411417099771e+00], 
        "evaluate_basis:_52": [-1.6457055892775082e+02], 
        "evaluate_basis:_53": [6.7971931981680746e+02], 
        "evaluate_basis:_54": [3.1608610617736318e+01], 
        "evaluate_basis:_55": [-6.1967609789867288e+02], 
        "evaluate_basis_all": [-1.4694724567567263e-02, -9.3076009364260949e+02, 2.4509848848191851e-02, 1.8019778670428477e+02, -3.3902474068035815e-01, 2.3678567141584494e+00, -1.2385757425579527e+01, 9.2836437069006536e+01, 3.5874079022909282e+03, -5.3855310835143373e+03, 3.9123436569674018e+03, -1.3636654532905677e+03, 2.1397260463226843e+02, 1.6385005558779579e+01, 2.2755695601422161e+00, 2.9702702062209774e-01, 9.3929846373112014e-01, 6.2144667362890743e+01, 3.7072992205931911e+02, 5.3371068088239633e+02, 5.6026958501469437e-02, -1.8906705532816837e-01, 2.1563214162602407e-01, -1.1625175187930559e-01, -8.2298224244956764e-01, 5.9722154149805775e+01, -4.9043419654898423e+02, 1.2301145428507357e+03, -7.1804301489696331e+02, -4.5233576775582620e+01, -4.6373548915260159e+00, 8.8678897007659680e+02, 4.1237846438799437e+01, -4.7554766026454070e+02, 8.2856198487265900e+00, -4.2862859852819000e+00, 1.8149771133367807e+00, 8.4031268690050126e+01, -1.6139657457421578e+01, 1.8611962951020951e+02, -1.2170692333869668e+02, 1.3539264480563513e+03, -4.1279824627995877e+03, -1.2343270070729800e+03, 5.0980921284777560e+03, -2.7338925007088901e+03, -7.2592632505912045e+00, 8.0755569595606985e+01, -2.4621543333123955e+02, 3.7553283983986177e+00, -1.5510499244394566e+01, -1.5901411417099771e+00, -1.6457055892775082e+02, 6.7971931981680746e+02, 3.1608610617736318e+01, -6.1967609789867288e+02, 0.0, 0.0, 0.0, 0.0, 0.0, 0.0, 0.0, 0.0, 0.0, 0.0, 0.0, 0.0, 0.0, 0.0, 0.0, 0.0, 0.0, 0.0, 0.0, 0.0, 0.0, 0.0, 0.0, 0.0, 0.0, 0.0, 0.0, 0.0, 0.0, 0.0, 0.0, 0.0, 0.0, 0.0, 0.0, 0.0, 0.0, 0.0, 0.0, 0.0, 0.0, 0.0, 0.0, 0.0, 0.0, 0.0, 0.0, 0.0, 0.0, 0.0, 0.0, 0.0, 0.0, 0.0, 0.0, 0.0, 0.0, 0.0, 0.0, 0.0, 0.0, 0.0, 0.0, 0.0, 0.0, 0.0, 0.0, 0.0, 0.0, 0.0, 0.0, 0.0, 0.0, 0.0, 0.0, 0.0, 0.0, 0.0, 0.0, 0.0, 0.0, 0.0, 0.0, 0.0, 0.0, 0.0, 0.0, 0.0, 0.0, 0.0, 0.0, 0.0, 0.0, 0.0, 0.0, 0.0, 0.0, 0.0, 0.0, 0.0, 0.0, 0.0, 0.0, 0.0, 0.0, 0.0, 0.0, 0.0, 0.0, 0.0, 0.0, 0.0, 0.0, 0.0, 0.0, 0.0, 0.0, 0.0, 0.0, 0.0, 0.0, 0.0, 0.0, 0.0, 0.0, 0.0, 0.0, 0.0, 0.0, 0.0, 0.0, 0.0, 0.0, 0.0, 0.0, 0.0, 0.0, 0.0, 0.0, 0.0, 0.0, 0.0, 0.0, 0.0, 0.0, 0.0, 0.0, 0.0, 0.0, 0.0, 0.0, 0.0, 0.0, 0.0, 0.0, 0.0, 0.0, 0.0, 0.0, 0.0, 0.0, 0.0, 0.0, 0.0, 0.0, 0.0, 0.0, 0.0, 0.0, 0.0, 0.0, 0.0, 0.0, 0.0, 0.0, 0.0, 0.0, 0.0, 0.0, 0.0, 0.0, 0.0, 0.0, 0.0, 0.0, 0.0, 0.0, 0.0, 0.0, 0.0, 0.0, 0.0, 0.0, 0.0, 0.0, 0.0, 0.0, 0.0, 0.0, 0.0, 0.0, 0.0, 0.0, 0.0, 0.0, 0.0, 0.0, 0.0, 0.0, 0.0, 0.0, 0.0, 0.0, 0.0, 0.0, 0.0, 0.0, 0.0, 0.0, 0.0, 0.0, 0.0, 0.0, 0.0, 0.0, 0.0, 0.0, 0.0, 0.0, 0.0, 0.0, 0.0, 0.0, 0.0, 0.0, 0.0, 0.0, 0.0, 0.0, 0.0, 0.0, 0.0, 0.0, 0.0, 0.0, 0.0, 0.0, 0.0, 0.0, 0.0, 0.0, 0.0, 0.0, 0.0, 0.0, 0.0, 0.0, 0.0, 0.0, 0.0, 0.0, 0.0, 0.0, 0.0, 0.0, 0.0, 0.0, 0.0, 0.0, 0.0, 0.0, 0.0, 0.0, 0.0, 0.0, 0.0, 0.0, 0.0, 0.0, 0.0, 0.0, 0.0, 0.0, 0.0, 0.0, 0.0, 0.0, 0.0, 0.0, 0.0, 0.0, 0.0, 0.0, 0.0, 0.0, 0.0, 0.0, 0.0, 0.0, 0.0, 0.0, 0.0, 0.0, 0.0, 0.0, 0.0, 0.0, 0.0, 0.0, 0.0, 0.0, 0.0, 0.0, 0.0, 0.0, 0.0, 0.0, 0.0, 0.0, 0.0, 0.0, 0.0, 0.0, 0.0, 0.0, 0.0, 0.0, 0.0, 0.0, 0.0, 0.0, 0.0, 0.0, 0.0, 0.0, 0.0, 0.0, 0.0, 0.0, 0.0, 0.0, 0.0, 0.0, 0.0, 0.0, 0.0, 0.0, 0.0, 0.0, 0.0, 0.0, 0.0, 0.0, 0.0, 0.0, 0.0, 0.0, 0.0, 0.0, 0.0, 0.0, 0.0, 0.0, 0.0, 0.0, 0.0, 0.0, 0.0, 0.0, 0.0, 0.0, 0.0, 0.0, 0.0, 0.0, 0.0, 0.0, 0.0, 0.0, 0.0, 0.0, 0.0, 0.0, 0.0, 0.0, 0.0, 0.0, 0.0, 0.0, 0.0, 0.0, 0.0, 0.0, 0.0, 0.0, 0.0, 0.0, 0.0, 0.0, 0.0, 0.0, 0.0, 0.0, 0.0, 0.0, 0.0, 0.0, 0.0, 0.0, 0.0, 0.0, 0.0, 0.0, 0.0, 0.0, 0.0, 0.0, 0.0, 0.0, 0.0, 0.0, 0.0, 0.0, 0.0, 0.0, 0.0, 0.0, 0.0, 0.0, 0.0, 0.0, 0.0, 0.0, 0.0, 0.0, 0.0, 0.0, 0.0, 0.0, 0.0, 0.0, 0.0, 0.0, 0.0, 0.0, 0.0, 0.0, 0.0], 
        "evaluate_basis_derivatives_0_0": [-1.4694724567567263e-02], 
        "evaluate_basis_derivatives_0_1": [-2.4486882406884458e-01, 6.3875905199433958e-01, -1.4657727134101822e-01], 
        "evaluate_basis_derivatives_0_2": [2.7707379488342254e-01, -7.2269108676940563e-01, 1.6589267836810506e-01, -7.2286001435614544e-01, 1.8854184366591527e+00, -4.3263847309048098e-01, 1.6587705652111362e-01, -4.3263653969772231e-01, 9.9319684459172275e-02], 
        "evaluate_basis_derivatives_1_0": [-9.3076009364260949e+02], 
        "evaluate_basis_derivatives_1_1": [2.0990646332821666e+03, 2.6330542126952691e+03, 5.0380879878856304e+03], 
        "evaluate_basis_derivatives_1_2": [-3.7685724434707245e+03, -4.7272748438059843e+03, -9.0451714434746191e+03, -4.7272748547327474e+03, -5.9298654943934753e+03, -1.1346209397341247e+04, -9.0451715492042113e+03, -1.1346209558680608e+04, -2.1709846025051265e+04], 
        "evaluate_basis_derivatives_2_0": [2.4509848848191851e-02], 
        "evaluate_basis_derivatives_2_1": [9.6830793456509877e-03, -3.1802547283753119e-01, 3.6912357597074713e-01], 
        "evaluate_basis_derivatives_2_2": [-5.5030947838967297e-03, 1.8017686995787574e-01, -2.0914203462273340e-01, 1.8018660787980539e-01, -5.9204197350077097e+00, 6.8716027314047290e+00, -2.0915306748108986e-01, 6.8715938740395694e+00, -7.9756099452643356e+00], 
        "evaluate_basis_derivatives_3_0": [1.8019778670428477e+02], 
        "evaluate_basis_derivatives_3_1": [-1.0519013654182643e+03, -2.2350100279584089e+02, -7.0356074410111216e+02], 
        "evaluate_basis_derivatives_3_2": [4.8651624367332979e+03, 1.0337173418747127e+03, 3.2540477811812780e+03, 1.0337173418747127e+03, 2.1963738246939431e+02, 6.9139842018401544e+02, 3.2540477811812780e+03, 6.9139842018401544e+02, 2.1764590802276766e+03], 
        "evaluate_basis_derivatives_4_0": [-3.3902474068035815e-01], 
        "evaluate_basis_derivatives_4_1": [1.8727001447152933e-01, 3.8029626900330507e+00, -4.1383397899064276e+00], 
        "evaluate_basis_derivatives_4_2": [2.9139417231969228e-01, -6.2339748794990637e+00, 7.3280055999998304e+00, -6.2340145631711632e+00, 9.5033407383682331e+01, -1.1334112905865219e+02, 7.3280505607559858e+00, -1.1334109296339724e+02, 1.3507845450581323e+02], 
        "evaluate_basis_derivatives_5_0": [2.3678567141584494e+00], 
        "evaluate_basis_derivatives_5_1": [-3.8558817185178063e+00, -2.0558285159729817e+01, 1.9784888112531419e+01], 
        "evaluate_basis_derivatives_5_2": [1.2049185521772090e+00, 6.1308913811181405e+01, -6.8365731751911383e+01, 6.1308973187822431e+01, -7.6546182772728889e+02, 9.2301704106930958e+02, -6.8365799024382326e+01, 9.2301698706183288e+02, -1.1079423929645736e+03], 
        "evaluate_basis_derivatives_6_0": [-1.2385757425579527e+01], 
        "evaluate_basis_derivatives_6_1": [3.5859543771928280e+01, 5.2753202533244973e+01, -2.7151330609475771e+01], 
        "evaluate_basis_derivatives_6_2": [-6.1857520608975179e+01, -2.8678442383191702e+02, 2.6865662900033811e+02, -2.8678447781234996e+02, 4.4444137227606370e+03, -5.2962780247549344e+03, 2.6865669015902012e+02, -5.2962779756557102e+03, 6.2449335257013772e+03], 
        "evaluate_basis_derivatives_7_0": [9.2836437069006536e+01], 
        "evaluate_basis_derivatives_7_1": [-4.3284310688561209e+02, 1.0102432621606183e+03, -1.5382871602002735e+03], 
        "evaluate_basis_derivatives_7_2": [1.5675913227039550e+03, -4.4101975341816824e+03, 6.4225010157610368e+03, -4.4101974737105029e+03, -1.9448676297634636e+03, -1.8079093769408405e+03, 6.4225009472484762e+03, -1.8079094319438818e+03, 7.8900658031039166e+03], 
        "evaluate_basis_derivatives_8_0": [3.5874079022909282e+03], 
        "evaluate_basis_derivatives_8_1": [-9.9464240247398066e+03, -9.1574955494987425e+03, -1.8357566601310442e+04], 
        "evaluate_basis_derivatives_8_2": [2.1520831537822141e+04, 2.0740254985809279e+04, 4.1259183014177303e+04, 2.0740255258676556e+04, 1.8169780927899807e+04, 3.6741446993942925e+04, 4.1259183509693481e+04, 3.6741446964523297e+04, 7.4080793555794458e+04], 
        "evaluate_basis_derivatives_9_0": [-5.3855310835143373e+03], 
        "evaluate_basis_derivatives_9_1": [1.8104698119343026e+04, 1.2158173802538327e+04, 2.5919953077771119e+04], 
        "evaluate_basis_derivatives_9_2": [-4.7341880273268027e+04, -3.3864145658176007e+04, -7.1220565717622987e+04, -3.3864145992344151e+04, -2.0771273373272295e+04, -4.5208613511595373e+04, -7.1220566500909481e+04, -4.5208613438730346e+04, -9.7611785497398116e+04], 
        "evaluate_basis_derivatives_10_0": [3.9123436569674018e+03], 
        "evaluate_basis_derivatives_10_1": [-1.5822111543170546e+04, -7.5960074362686664e+03, -1.7618393714970509e+04], 
        "evaluate_basis_derivatives_10_2": [4.9979860554841289e+04, 2.5537082037505781e+04, 5.8216912831338515e+04, 2.5537082222326349e+04, 1.0879501072173551e+04, 2.6142310041017656e+04, 5.8216913239874142e+04, 2.6142309893610920e+04, 6.1823766667107629e+04], 
        "evaluate_basis_derivatives_11_0": [-1.3636654532905677e+03], 
        "evaluate_basis_derivatives_11_1": [6.6167987696251821e+03, 2.1856489336473433e+03, 5.7213079849644919e+03], 
        "evaluate_basis_derivatives_11_2": [-2.5253713857068695e+04, -8.7213514680534045e+03, -2.2466726732729669e+04, -8.7213513583239564e+03, -2.5660324714621797e+03, -7.0179694213063931e+03, -2.2466726519285905e+04, -7.0179694493474599e+03, -1.8756193695172115e+04], 
        "evaluate_basis_derivatives_12_0": [2.1397260463226843e+02], 
        "evaluate_basis_derivatives_12_1": [-4.8006607711791798e+02, 2.0182602690541894e+03, -3.8974705064320933e+03], 
        "evaluate_basis_derivatives_12_2": [8.5697917398309778e+02, -3.8634431523435428e+03, 7.2304822029046964e+03, -3.8634432680658169e+03, -1.1041021252056978e+04, -2.7831479718396677e+03, 7.2304823284161348e+03, -2.7831475618478362e+03, 2.9771755803069071e+04], 
        "evaluate_basis_derivatives_13_0": [1.6385005558779579e+01], 
        "evaluate_basis_derivatives_13_1": [-2.2463865130751127e+01, -8.9767046236493698e+01, 1.0604464998310123e+01], 
        "evaluate_basis_derivatives_13_2": [1.3003373060171764e+01, 2.9583884964949169e+02, -2.6162820043504945e+02, 2.9583880630513278e+02, -5.7016505557528208e+03, 7.0719876229292086e+03, -2.6162811784612921e+02, 7.0719876884494533e+03, -8.3805107175515277e+03], 
        "evaluate_basis_derivatives_14_0": [2.2755695601422161e+00], 
        "evaluate_basis_derivatives_14_1": [-1.7900826151147555e+00, -2.1812703442099526e+01, 1.6202534612161891e+01], 
        "evaluate_basis_derivatives_14_2": [-6.6349913138307459e-01, 4.3217311386644909e+01, -4.7739734161997823e+01, 4.3217352384911081e+01, -6.9982342407746228e+02, 8.9367001287765163e+02, -4.7739710609587682e+01, 8.9366989355075680e+02, -1.1135446592994106e+03], 
        "evaluate_basis_derivatives_15_0": [2.9702702062209774e-01], 
        "evaluate_basis_derivatives_15_1": [-6.3304517390485052e-02, -3.4803362230103323e+00, 3.4109336425878096e+00], 
        "evaluate_basis_derivatives_15_2": [-1.8771891598253140e-01, 4.3007276988814898e+00, -5.2027389808742575e+00, 4.3007769685293074e+00, -7.9986899900021967e+01, 9.9770083542509141e+01, -5.2027384823679439e+00, 9.9770054802752043e+01, -1.2384544008879875e+02], 
        "evaluate_basis_derivatives_16_0": [9.3929846373112014e-01], 
        "evaluate_basis_derivatives_16_1": [1.9962065138613255e+01, -5.4424691465604170e+01, 1.1889673955667941e+01], 
        "evaluate_basis_derivatives_16_2": [1.7322097990201564e+02, -5.0394985323069142e+02, 1.0238106005605016e+02, -5.0394939696478440e+02, 1.4504656822664117e+03, -2.9824804398679453e+02, 1.0238085847639582e+02, -2.9824771978831734e+02, 6.0501220877137655e+01], 
        "evaluate_basis_derivatives_17_0": [6.2144667362890743e+01], 
        "evaluate_basis_derivatives_17_1": [2.7419601980752157e+02, -1.0449269365355631e+03, 1.5590131123088486e+02], 
        "evaluate_basis_derivatives_17_2": [1.4833511624549146e+02, -2.1524917578771619e+03, 4.4783552606687863e+01, -2.1524926339127460e+03, 1.1092124269444230e+04, -1.1518501971160090e+03, 4.4783957092852688e+01, -1.1518503190380125e+03, 1.0100458386177706e+00], 
        "evaluate_basis_derivatives_18_0": [3.7072992205931911e+02], 
        "evaluate_basis_derivatives_18_1": [1.7934627297521047e+01, -3.1899479825863532e+03, -6.7599590889447882e+01], 
        "evaluate_basis_derivatives_18_2": [-2.9113073232407332e+03, 4.2638682909526187e+03, -1.8255377596526987e+03, 4.2638692090099921e+03, 1.5247628186669906e+04, 3.2092991860285633e+03, -1.8255378862405337e+03, 3.2092986497541319e+03, -1.1313559133771055e+03], 
        "evaluate_basis_derivatives_19_0": [5.3371068088239633e+02], 
        "evaluate_basis_derivatives_19_1": [-1.6296517046801107e+03, -2.2282239617503828e+03, -1.1368897451157966e+03], 
        "evaluate_basis_derivatives_19_2": [1.6209947821660044e+03, 8.4432973356061138e+03, 1.2860382667877116e+03, 8.4432971654054872e+03, 3.5147715523003330e+03, 5.6901572340320035e+03, 1.2860381218565076e+03, 5.6901573170761103e+03, 9.9516320694535830e+02], 
        "evaluate_basis_derivatives_20_0": [5.6026958501469437e-02], 
        "evaluate_basis_derivatives_20_1": [1.2202807110285616e+00, -2.5746968761521147e+00, -2.4682591799475517e-02], 
        "evaluate_basis_derivatives_20_2": [1.1644192291517264e+01, -1.6903842866805611e+01, -9.7467628979252368e+00, -1.6903795859283015e+01, 8.9557038790530541e+00, 3.3487543014433619e+01, -9.7468027043765133e+00, 3.3487725757134363e+01, -1.5839082997634936e+01], 
        "evaluate_basis_derivatives_21_0": [-1.8906705532816837e-01], 
        "evaluate_basis_derivatives_21_1": [-1.2105989114826774e+00, 3.7880912008672465e+00, -1.5066630978621625e+00], 
        "evaluate_basis_derivatives_21_2": [-4.7913714238039766e+00, 1.4537299817462504e+01, -5.3979729645364554e+00, 1.4537276718287000e+01, 1.5044589340758725e+01, -5.7027191560735183e+01, -5.3980442002292470e+00, -5.7027001604541340e+01, 8.5011560268040554e+01], 
        "evaluate_basis_derivatives_22_0": [2.1563214162602407e-01], 
        "evaluate_basis_derivatives_22_1": [7.1285501375354787e-01, -3.5036908670429203e+00, 2.4670597293434602e+00], 
        "evaluate_basis_derivatives_22_2": [1.2384415480851136e+00, -6.2581141940678000e+00, 4.4983620198982859e+00, -6.2580741596836162e+00, -3.6080504785758798e+01, 6.1286983828132904e+01, 4.4983051109157870e+00, 6.1286829978576044e+01, -8.7923976335739752e+01], 
        "evaluate_basis_derivatives_23_0": [-1.1625175187930559e-01], 
        "evaluate_basis_derivatives_23_1": [-1.8431936576296226e-01, 1.6611334158592637e+00, -1.5750479303328193e+00], 
        "evaluate_basis_derivatives_23_2": [-6.6952394502743484e-02, 7.2343389470494346e-01, -7.2117172937517038e-01, 7.2335811610102696e-01, 2.4709561198072393e+01, -3.2572209909599302e+01, -7.2114219379824629e-01, -3.2572157057972568e+01, 4.2323441071445302e+01], 
        "evaluate_basis_derivatives_24_0": [-8.2298224244956764e-01], 
        "evaluate_basis_derivatives_24_1": [-1.7768473846785266e+01, 4.8094326010587238e+01, -9.8214670821427603e+00], 
        "evaluate_basis_derivatives_24_2": [-1.6412467017893323e+02, 4.6675085484464614e+02, -8.0220679284812036e+01, 4.6675119682790591e+02, -1.3182940988907571e+03, 2.3237768044371151e+02, -8.0220336764119963e+01, 2.3237720606295230e+02, -3.7232475029524210e+01], 
        "evaluate_basis_derivatives_25_0": [5.9722154149805775e+01], 
        "evaluate_basis_derivatives_25_1": [3.1378178522081214e+02, -1.0581474672827294e+03, 7.6047735083955786e+01], 
        "evaluate_basis_derivatives_25_2": [7.0212371447923761e+02, -3.2154337933214429e+03, -2.2519206098428913e+02, -3.2154344916632645e+03, 1.2476802630356893e+04, -1.7405846206800675e+01, -2.2519231067713281e+02, -1.7404612513272355e+01, -4.1686969755399741e+02], 
        "evaluate_basis_derivatives_26_0": [-4.9043419654898423e+02], 
        "evaluate_basis_derivatives_26_1": [-7.7126012273482911e+02, 4.8179931927956768e+03, 8.4711287737850262e+02], 
        "evaluate_basis_derivatives_26_2": [1.5105913050787622e+03, 1.8687479147962915e+03, 3.6134725300921900e+03, 1.8687484575543115e+03, -3.0690562795607042e+04, -1.0921651685476121e+04, 3.6134727047251281e+03, -1.0921652619351225e+04, 1.4651965769477811e+03], 
        "evaluate_basis_derivatives_27_0": [1.2301145428507357e+03], 
        "evaluate_basis_derivatives_27_1": [-7.8062600749495004e+02, -6.9189045175472820e+03, -4.6438186821254167e+03], 
        "evaluate_basis_derivatives_27_2": [-2.5333354189168303e+03, 8.0159798729022932e+03, -8.5977786359667130e+02, 8.0159797994246746e+03, 2.4096609909973995e+04, 2.5788348808423238e+04, -8.5977793387286067e+02, 2.5788349203271657e+04, 1.0466734130336969e+04], 
        "evaluate_basis_derivatives_28_0": [-7.1804301489696331e+02], 
        "evaluate_basis_derivatives_28_1": [1.9589842858955433e+03, -7.0006664267306942e+03, 1.2810306252922341e+04], 
        "evaluate_basis_derivatives_28_2": [-4.1565818157047470e+03, 1.6842580801179698e+04, -2.9771057208797476e+04, 1.6842581298519151e+04, 3.2522288959364025e+04, 1.0598667271920409e+04, -2.9771057724999439e+04, 1.0598666135378580e+04, -9.0638453323946422e+04], 
        "evaluate_basis_derivatives_29_0": [-4.5233576775582620e+01], 
        "evaluate_basis_derivatives_29_1": [8.2169534648440390e+01, 2.3124615213593074e+02, -5.0446037497868218e+01], 
        "evaluate_basis_derivatives_29_2": [-7.3325999854188836e+01, -9.0055729939550054e+02, 7.7637390763877045e+02, -9.0055725564661338e+02, 1.5903546634236392e+04, -1.9447504346201167e+04, 7.7637354850173381e+02, -1.9447504303285285e+04, 2.3063447469197326e+04], 
        "evaluate_basis_derivatives_30_0": [-4.6373548915260159e+00], 
        "evaluate_basis_derivatives_30_1": [5.4941044630663978e+00, 4.2476739891663797e+01, -3.5717558875675493e+01], 
        "evaluate_basis_derivatives_30_2": [2.5648907090130130e-01, -1.0404709713209603e+02, 1.1340399888549622e+02, -1.0404727839312525e+02, 1.4615947156735542e+03, -1.8133703656644125e+03, 1.1340389547799415e+02, -1.8133703119068468e+03, 2.2244967119904409e+03], 
        "evaluate_basis_derivatives_31_0": [8.8678897007659680e+02], 
        "evaluate_basis_derivatives_31_1": [-2.9071439725992714e+03, 8.9510583001905361e+03, -1.5467769283325306e+04], 
        "evaluate_basis_derivatives_31_2": [7.3633245170207429e+03, -2.6524726500417913e+04, 4.4144786161433309e+04, -2.6524727159890881e+04, -3.3875778676835842e+04, -1.4571697046242691e+04, 4.4144787376587708e+04, -1.4571695960802495e+04, 1.0009140170009574e+05], 
        "evaluate_basis_derivatives_32_0": [4.1237846438799437e+01], 
        "evaluate_basis_derivatives_32_1": [-9.5636722928614532e+01, -1.9417200104279212e+02, 6.7106373109168231e+01], 
        "evaluate_basis_derivatives_32_2": [1.2183936943974615e+02, 8.9213966024803517e+02, -7.8329195500114156e+02, 8.9213984553664375e+02, -1.4648447673813727e+04, 1.7672767787532059e+04, -7.8329137735980555e+02, 1.7672767876403988e+04, -2.0929369090785760e+04], 
        "evaluate_basis_derivatives_33_0": [-4.7554766026454070e+02], 
        "evaluate_basis_derivatives_33_1": [1.8609310786174435e+03, -4.9786708056808257e+03, 8.0933060093785862e+03], 
        "evaluate_basis_derivatives_33_2": [-5.6325386030976224e+03, 1.7955486849875429e+04, -2.8023107928789937e+04, 1.7955486953859239e+04, 1.4341257090149244e+04, 8.5625455543308071e+03, -2.8023109124181086e+04, 8.5625454460476049e+03, -4.7122367661114789e+04], 
        "evaluate_basis_derivatives_34_0": [8.2856198487265900e+00], 
        "evaluate_basis_derivatives_34_1": [4.1806983929561888e+01, -3.9830793967738678e+01, -8.7156653037663716e+01], 
        "evaluate_basis_derivatives_34_2": [7.6516019122360262e+01, 1.6356319192777994e+02, -5.6077867486295190e+02, 1.6356313571426764e+02, -1.8247917260116760e+03, 1.9542834072976291e+03, -5.6077810926931897e+02, 1.9542824426352997e+03, -6.8476686042548545e+02], 
        "evaluate_basis_derivatives_35_0": [-4.2862859852819000e+00], 
        "evaluate_basis_derivatives_35_1": [-9.7555506970555239e+00, 5.0472025669890876e+01, -2.3301028305967225e+01], 
        "evaluate_basis_derivatives_35_2": [3.3171111915483564e+00, 1.2582794815327230e+01, 1.8640689284055036e+01, 1.2582642711194108e+01, 1.1615267048776795e+03, -1.6321047796957212e+03, 1.8641195796834275e+01, -1.6321044347228376e+03, 2.0581638956920865e+03], 
        "evaluate_basis_derivatives_36_0": [1.8149771133367807e+00], 
        "evaluate_basis_derivatives_36_1": [1.1143512030919904e+00, -2.1292881848468372e+01, 1.7727580980529002e+01], 
        "evaluate_basis_derivatives_36_2": [-4.2524664959674796e+00, 1.6034175165469925e+01, -1.7321869953554511e+01, 1.6034470931649274e+01, -4.9294297887267726e+02, 6.3585435494899082e+02, -1.7321896277951240e+01, 6.3585419704046421e+02, -8.0300227406625527e+02], 
        "evaluate_basis_derivatives_37_0": [8.4031268690050126e+01], 
        "evaluate_basis_derivatives_37_1": [6.8422386208743603e+01, 2.8829697857626820e+02, -1.1026167890301620e+03], 
        "evaluate_basis_derivatives_37_2": [-5.0887523101715448e+02, 1.6146599324699496e+03, -1.6527788453728613e+03, 1.6146602136646818e+03, -1.3464709100617136e+04, 1.0399693163944848e+04, -1.6527803856296362e+03, 1.0399693864020472e+04, -1.4960263329375807e+03], 
        "evaluate_basis_derivatives_38_0": [-1.6139657457421578e+01], 
        "evaluate_basis_derivatives_38_1": [8.3987159437240440e+00, 1.1750911761513269e+02, -5.9598421110895949e+01], 
        "evaluate_basis_derivatives_38_2": [5.5106323408345659e+01, -3.0594742680407956e+02, 2.8009391113657307e+02, -3.0594772745715636e+02, 5.3993135603105229e+03, -6.6605102430226179e+03, 2.8009346420072495e+02, -6.6605102269619729e+03, 7.9950195031189969e+03], 
        "evaluate_basis_derivatives_39_0": [1.8611962951020951e+02], 
        "evaluate_basis_derivatives_39_1": [-3.9354249310919715e+02, 1.4698146200773153e+03, -2.7831474154665739e+03], 
        "evaluate_basis_derivatives_39_2": [-4.8283937707702307e+01, -1.6812533742016099e+03, 4.4176165202993252e+03, -1.6812535950992460e+03, -1.6296093686020520e+04, 8.4548698673103663e+03, 4.4176178481513580e+03, 8.4548700819354071e+03, 6.3710457692984946e+03], 
        "evaluate_basis_derivatives_40_0": [-1.2170692333869668e+02], 
        "evaluate_basis_derivatives_40_1": [-5.9100031142731632e+02, 2.1045501384804179e+03, -2.2580411211999262e+02], 
        "evaluate_basis_derivatives_40_2": [-8.7425091949535818e+02, 5.4262941427828591e+03, 1.7075151146061489e+02, 5.4262941300378261e+03, -2.3653266264762900e+04, 1.1199066811208584e+03, 1.7075088727656657e+02, 1.1199064945797643e+03, 5.0257908284230598e+02], 
        "evaluate_basis_derivatives_41_0": [1.3539264480563513e+03], 
        "evaluate_basis_derivatives_41_1": [1.5259394607053682e+03, -1.2804885622983256e+04, -1.7049223635068638e+03], 
        "evaluate_basis_derivatives_41_2": [-6.6014395301514833e+03, 1.4319862305805068e+03, -8.2973596144413877e+03, 1.4319867565112179e+03, 7.5531751891336869e+04, 2.3947592562644360e+04, -8.2973596367586470e+03, 2.3947591069267612e+04, -4.8880834451941437e+03], 
        "evaluate_basis_derivatives_42_0": [-4.1279824627995877e+03], 
        "evaluate_basis_derivatives_42_1": [4.6201887974863730e+03, 2.1908377019194588e+04, 1.4038786839833032e+04], 
        "evaluate_basis_derivatives_42_2": [7.5761592382630552e+03, -3.6837136414090797e+04, -2.3731130089986982e+03, -3.6837137406473375e+04, -6.7453179862116391e+04, -7.4955799406130696e+04, -2.3731129396063752e+03, -7.4955798248327410e+04, -2.6451632939505813e+04], 
        "evaluate_basis_derivatives_43_0": [-1.2343270070729800e+03], 
        "evaluate_basis_derivatives_43_1": [-7.7078669479465952e+02, 1.1175489802125583e+04, 9.2226374089147839e+02], 
        "evaluate_basis_derivatives_43_2": [8.0245075084887767e+03, -7.5970332958827739e+03, 6.4906938024867313e+03, -7.5970336255799311e+03, -6.0047153398384995e+04, -1.6201376295950549e+04, 6.4906945547109126e+03, -1.6201375051405923e+04, 4.5616409615008679e+03], 
        "evaluate_basis_derivatives_44_0": [5.0980921284777560e+03], 
        "evaluate_basis_derivatives_44_1": [-8.5102002326474794e+03, -2.5302577071606862e+04, -1.5308276964238896e+04], 
        "evaluate_basis_derivatives_44_2": [-5.5609556619270807e+03, 5.7633233275154169e+04, 8.1159623941557256e+03, 5.7633234492814925e+04, 6.6630034108638487e+04, 7.8821682084654734e+04, 8.1159623858230516e+03, 7.8821681182268483e+04, 2.3173246704790639e+04], 
        "evaluate_basis_derivatives_45_0": [-2.7338925007088901e+03], 
        "evaluate_basis_derivatives_45_1": [6.2995643092944947e+03, 1.2541981785855531e+04, 7.0512998384432913e+03], 
        "evaluate_basis_derivatives_45_2": [-1.1124089820308727e+03, -3.7244110392682676e+04, -6.1578976232773384e+03, -3.7244111324666344e+04, -2.6801272683550793e+04, -3.5357927271402528e+04, -6.1578980988447111e+03, -3.5357926743162418e+04, -8.1962916735532144e+03], 
        "evaluate_basis_derivatives_46_0": [-7.2592632505912045e+00], 
        "evaluate_basis_derivatives_46_1": [-3.9090656102265577e+01, 3.8524588861167018e+01, 8.1610642753961741e+01], 
        "evaluate_basis_derivatives_46_2": [-9.6261005479140636e+01, -1.1040340690419239e+02, 5.4690723045857203e+02, -1.1040344153500972e+02, 1.5652394838738358e+03, -1.7724532350062648e+03, 5.4690695714048184e+02, -1.7724535228395193e+03, 4.9572188774038835e+02], 
        "evaluate_basis_derivatives_47_0": [8.0755569595606985e+01], 
        "evaluate_basis_derivatives_47_1": [1.3373556045872419e+02, 2.0410272500202328e+02, -1.1593940902716356e+03], 
        "evaluate_basis_derivatives_47_2": [-2.2157748416094296e+02, 1.6397374784275744e+03, -2.6546655339112431e+03, 1.6397375164352761e+03, -1.3436821569318832e+04, 1.0588215198444237e+04, -2.6546652329751878e+03, 1.0588215576056891e+04, 1.1158139132446204e+03], 
        "evaluate_basis_derivatives_48_0": [-2.4621543333123955e+02], 
        "evaluate_basis_derivatives_48_1": [1.4532367401303031e+02, -1.6441584678136051e+03, 4.0621781735115746e+03], 
        "evaluate_basis_derivatives_48_2": [5.1211504851493692e+02, -8.4817905287671954e+02, -5.2157414256272205e+02, -8.4817893934046629e+02, 2.6185636072802343e+04, -1.2694428011674028e+04, -5.2157431049342892e+02, -1.2694428738027989e+04, -1.9681476940473822e+04], 
        "evaluate_basis_derivatives_49_0": [3.7553283983986177e+00], 
        "evaluate_basis_derivatives_49_1": [9.8209007391787555e+00, -4.6096508573069400e+01, 1.7698511896008398e+01], 
        "evaluate_basis_derivatives_49_2": [5.1551449690739872e+00, -3.1721793432331889e+01, -1.7243615091835267e+01, -3.1721659313831818e+01, -9.7415648368209588e+02, 1.4500841904666142e+03, -1.7243732640209018e+01, 1.4500837510697722e+03, -1.8359685407956233e+03], 
        "evaluate_basis_derivatives_50_0": [-1.5510499244394566e+01], 
        "evaluate_basis_derivatives_50_1": [-4.9856468647076326e+00, 1.2694088057296904e+02, -3.8114605030911520e+01], 
        "evaluate_basis_derivatives_50_2": [3.6439993670725364e+01, -1.8976837109559671e+02, 2.2886716187020915e+02, -1.8976839887375112e+02, 4.9841033445910234e+03, -6.4845770701377705e+03, 2.2886722286311789e+02, -6.4845769225064851e+03, 7.8372472849740243e+03], 
        "evaluate_basis_derivatives_51_0": [-1.5901411417099771e+00], 
        "evaluate_basis_derivatives_51_1": [-1.5157980577849730e+00, 1.9449973458658278e+01, -1.4381604289970582e+01], 
        "evaluate_basis_derivatives_51_2": [2.1055273836316837e+00, -6.6280656301087504e+00, 1.1314902284042216e+01, -6.6281510543890620e+00, 4.1353453662726946e+02, -5.6213081954136885e+02, 1.1314940616239383e+01, -5.6213054237040831e+02, 7.2736527426681675e+02], 
        "evaluate_basis_derivatives_52_0": [-1.6457055892775082e+02], 
        "evaluate_basis_derivatives_52_1": [-2.0702342614605277e+02, -4.8602573358380016e+02, 2.2669390785383366e+03], 
        "evaluate_basis_derivatives_52_2": [7.3273490373480149e+02, -3.2861583960976354e+03, 4.3408365334801420e+03, -3.2861586732534247e+03, 2.6942267209450882e+04, -2.0954660357969311e+04, 4.3408369571691746e+03, -2.0954659271608689e+04, 2.5084664265111303e+02], 
        "evaluate_basis_derivatives_53_0": [6.7971931981680746e+02], 
        "evaluate_basis_derivatives_53_1": [-7.0404556885784586e+02, 4.7879862511114625e+03, -1.0896201301987901e+04], 
        "evaluate_basis_derivatives_53_2": [-1.3242756322304303e+03, 1.1427247922496713e+02, 6.0679052755720113e+03, 1.1427206921647621e+02, -6.8687839163777637e+04, 3.3502230979448883e+04, 6.0679050812475107e+03, 3.3502232218082601e+04, 4.4512479266153729e+04], 
        "evaluate_basis_derivatives_54_0": [3.1608610617736318e+01], 
        "evaluate_basis_derivatives_54_1": [-2.4229603337608339e+00, -2.4522930199645106e+02, 9.6068025073660721e+01], 
        "evaluate_basis_derivatives_54_2": [-9.4679587834660111e+01, 4.9289794788153500e+02, -4.9719778873994869e+02, 4.9289797751741156e+02, -1.0360826252366907e+04, 1.3124488136599732e+04, -4.9719784692832434e+02, 1.3124487820312097e+04, -1.5837742060084280e+04], 
        "evaluate_basis_derivatives_55_0": [-6.1967609789867288e+02], 
        "evaluate_basis_derivatives_55_1": [9.5329536367671062e+02, -4.6151885955664111e+03, 9.6163682457053201e+03], 
        "evaluate_basis_derivatives_55_2": [8.6728752066406923e+02, 2.4175867524280757e+03, -9.9850121561586129e+03, 2.4175875089342462e+03, 5.8788658630687270e+04, -2.9257116031501697e+04, -9.9850122595804605e+03, -2.9257118161043971e+04, -3.1153360865188442e+04], 
        "evaluate_basis_derivatives_all_0": [-1.4694724567567263e-02, -9.3076009364260949e+02, 2.4509848848191851e-02, 1.8019778670428477e+02, -3.3902474068035815e-01, 2.3678567141584494e+00, -1.2385757425579527e+01, 9.2836437069006536e+01, 3.5874079022909282e+03, -5.3855310835143373e+03, 3.9123436569674018e+03, -1.3636654532905677e+03, 2.1397260463226843e+02, 1.6385005558779579e+01, 2.2755695601422161e+00, 2.9702702062209774e-01, 9.3929846373112014e-01, 6.2144667362890743e+01, 3.7072992205931911e+02, 5.3371068088239633e+02, 5.6026958501469437e-02, -1.8906705532816837e-01, 2.1563214162602407e-01, -1.1625175187930559e-01, -8.2298224244956764e-01, 5.9722154149805775e+01, -4.9043419654898423e+02, 1.2301145428507357e+03, -7.1804301489696331e+02, -4.5233576775582620e+01, -4.6373548915260159e+00, 8.8678897007659680e+02, 4.1237846438799437e+01, -4.7554766026454070e+02, 8.2856198487265900e+00, -4.2862859852819000e+00, 1.8149771133367807e+00, 8.4031268690050126e+01, -1.6139657457421578e+01, 1.8611962951020951e+02, -1.2170692333869668e+02, 1.3539264480563513e+03, -4.1279824627995877e+03, -1.2343270070729800e+03, 5.0980921284777560e+03, -2.7338925007088901e+03, -7.2592632505912045e+00, 8.0755569595606985e+01, -2.4621543333123955e+02, 3.7553283983986177e+00, -1.5510499244394566e+01, -1.5901411417099771e+00, -1.6457055892775082e+02, 6.7971931981680746e+02, 3.1608610617736318e+01, -6.1967609789867288e+02], 
        "evaluate_basis_derivatives_all_1": [-2.4486882406884458e-01, 6.3875905199433958e-01, -1.4657727134101822e-01, 2.0990646332821666e+03, 2.6330542126952691e+03, 5.0380879878856304e+03, 9.6830793456509877e-03, -3.1802547283753119e-01, 3.6912357597074713e-01, -1.0519013654182643e+03, -2.2350100279584089e+02, -7.0356074410111216e+02, 1.8727001447152933e-01, 3.8029626900330507e+00, -4.1383397899064276e+00, -3.8558817185178063e+00, -2.0558285159729817e+01, 1.9784888112531419e+01, 3.5859543771928280e+01, 5.2753202533244973e+01, -2.7151330609475771e+01, -4.3284310688561209e+02, 1.0102432621606183e+03, -1.5382871602002735e+03, -9.9464240247398066e+03, -9.1574955494987425e+03, -1.8357566601310442e+04, 1.8104698119343026e+04, 1.2158173802538327e+04, 2.5919953077771119e+04, -1.5822111543170546e+04, -7.5960074362686664e+03, -1.7618393714970509e+04, 6.6167987696251821e+03, 2.1856489336473433e+03, 5.7213079849644919e+03, -4.8006607711791798e+02, 2.0182602690541894e+03, -3.8974705064320933e+03, -2.2463865130751127e+01, -8.9767046236493698e+01, 1.0604464998310123e+01, -1.7900826151147555e+00, -2.1812703442099526e+01, 1.6202534612161891e+01, -6.3304517390485052e-02, -3.4803362230103323e+00, 3.4109336425878096e+00, 1.9962065138613255e+01, -5.4424691465604170e+01, 1.1889673955667941e+01, 2.7419601980752157e+02, -1.0449269365355631e+03, 1.5590131123088486e+02, 1.7934627297521047e+01, -3.1899479825863532e+03, -6.7599590889447882e+01, -1.6296517046801107e+03, -2.2282239617503828e+03, -1.1368897451157966e+03, 1.2202807110285616e+00, -2.5746968761521147e+00, -2.4682591799475517e-02, -1.2105989114826774e+00, 3.7880912008672465e+00, -1.5066630978621625e+00, 7.1285501375354787e-01, -3.5036908670429203e+00, 2.4670597293434602e+00, -1.8431936576296226e-01, 1.6611334158592637e+00, -1.5750479303328193e+00, -1.7768473846785266e+01, 4.8094326010587238e+01, -9.8214670821427603e+00, 3.1378178522081214e+02, -1.0581474672827294e+03, 7.6047735083955786e+01, -7.7126012273482911e+02, 4.8179931927956768e+03, 8.4711287737850262e+02, -7.8062600749495004e+02, -6.9189045175472820e+03, -4.6438186821254167e+03, 1.9589842858955433e+03, -7.0006664267306942e+03, 1.2810306252922341e+04, 8.2169534648440390e+01, 2.3124615213593074e+02, -5.0446037497868218e+01, 5.4941044630663978e+00, 4.2476739891663797e+01, -3.5717558875675493e+01, -2.9071439725992714e+03, 8.9510583001905361e+03, -1.5467769283325306e+04, -9.5636722928614532e+01, -1.9417200104279212e+02, 6.7106373109168231e+01, 1.8609310786174435e+03, -4.9786708056808257e+03, 8.0933060093785862e+03, 4.1806983929561888e+01, -3.9830793967738678e+01, -8.7156653037663716e+01, -9.7555506970555239e+00, 5.0472025669890876e+01, -2.3301028305967225e+01, 1.1143512030919904e+00, -2.1292881848468372e+01, 1.7727580980529002e+01, 6.8422386208743603e+01, 2.8829697857626820e+02, -1.1026167890301620e+03, 8.3987159437240440e+00, 1.1750911761513269e+02, -5.9598421110895949e+01, -3.9354249310919715e+02, 1.4698146200773153e+03, -2.7831474154665739e+03, -5.9100031142731632e+02, 2.1045501384804179e+03, -2.2580411211999262e+02, 1.5259394607053682e+03, -1.2804885622983256e+04, -1.7049223635068638e+03, 4.6201887974863730e+03, 2.1908377019194588e+04, 1.4038786839833032e+04, -7.7078669479465952e+02, 1.1175489802125583e+04, 9.2226374089147839e+02, -8.5102002326474794e+03, -2.5302577071606862e+04, -1.5308276964238896e+04, 6.2995643092944947e+03, 1.2541981785855531e+04, 7.0512998384432913e+03, -3.9090656102265577e+01, 3.8524588861167018e+01, 8.1610642753961741e+01, 1.3373556045872419e+02, 2.0410272500202328e+02, -1.1593940902716356e+03, 1.4532367401303031e+02, -1.6441584678136051e+03, 4.0621781735115746e+03, 9.8209007391787555e+00, -4.6096508573069400e+01, 1.7698511896008398e+01, -4.9856468647076326e+00, 1.2694088057296904e+02, -3.8114605030911520e+01, -1.5157980577849730e+00, 1.9449973458658278e+01, -1.4381604289970582e+01, -2.0702342614605277e+02, -4.8602573358380016e+02, 2.2669390785383366e+03, -7.0404556885784586e+02, 4.7879862511114625e+03, -1.0896201301987901e+04, -2.4229603337608339e+00, -2.4522930199645106e+02, 9.6068025073660721e+01, 9.5329536367671062e+02, -4.6151885955664111e+03, 9.6163682457053201e+03], 
        "evaluate_basis_derivatives_all_2": [2.7707379488342254e-01, -7.2269108676940563e-01, 1.6589267836810506e-01, -7.2286001435614544e-01, 1.8854184366591527e+00, -4.3263847309048098e-01, 1.6587705652111362e-01, -4.3263653969772231e-01, 9.9319684459172275e-02, -3.7685724434707245e+03, -4.7272748438059843e+03, -9.0451714434746191e+03, -4.7272748547327474e+03, -5.9298654943934753e+03, -1.1346209397341247e+04, -9.0451715492042113e+03, -1.1346209558680608e+04, -2.1709846025051265e+04, -5.5030947838967297e-03, 1.8017686995787574e-01, -2.0914203462273340e-01, 1.8018660787980539e-01, -5.9204197350077097e+00, 6.8716027314047290e+00, -2.0915306748108986e-01, 6.8715938740395694e+00, -7.9756099452643356e+00, 4.8651624367332979e+03, 1.0337173418747127e+03, 3.2540477811812780e+03, 1.0337173418747127e+03, 2.1963738246939431e+02, 6.9139842018401544e+02, 3.2540477811812780e+03, 6.9139842018401544e+02, 2.1764590802276766e+03, 2.9139417231969228e-01, -6.2339748794990637e+00, 7.3280055999998304e+00, -6.2340145631711632e+00, 9.5033407383682331e+01, -1.1334112905865219e+02, 7.3280505607559858e+00, -1.1334109296339724e+02, 1.3507845450581323e+02, 1.2049185521772090e+00, 6.1308913811181405e+01, -6.8365731751911383e+01, 6.1308973187822431e+01, -7.6546182772728889e+02, 9.2301704106930958e+02, -6.8365799024382326e+01, 9.2301698706183288e+02, -1.1079423929645736e+03, -6.1857520608975179e+01, -2.8678442383191702e+02, 2.6865662900033811e+02, -2.8678447781234996e+02, 4.4444137227606370e+03, -5.2962780247549344e+03, 2.6865669015902012e+02, -5.2962779756557102e+03, 6.2449335257013772e+03, 1.5675913227039550e+03, -4.4101975341816824e+03, 6.4225010157610368e+03, -4.4101974737105029e+03, -1.9448676297634636e+03, -1.8079093769408405e+03, 6.4225009472484762e+03, -1.8079094319438818e+03, 7.8900658031039166e+03, 2.1520831537822141e+04, 2.0740254985809279e+04, 4.1259183014177303e+04, 2.0740255258676556e+04, 1.8169780927899807e+04, 3.6741446993942925e+04, 4.1259183509693481e+04, 3.6741446964523297e+04, 7.4080793555794458e+04, -4.7341880273268027e+04, -3.3864145658176007e+04, -7.1220565717622987e+04, -3.3864145992344151e+04, -2.0771273373272295e+04, -4.5208613511595373e+04, -7.1220566500909481e+04, -4.5208613438730346e+04, -9.7611785497398116e+04, 4.9979860554841289e+04, 2.5537082037505781e+04, 5.8216912831338515e+04, 2.5537082222326349e+04, 1.0879501072173551e+04, 2.6142310041017656e+04, 5.8216913239874142e+04, 2.6142309893610920e+04, 6.1823766667107629e+04, -2.5253713857068695e+04, -8.7213514680534045e+03, -2.2466726732729669e+04, -8.7213513583239564e+03, -2.5660324714621797e+03, -7.0179694213063931e+03, -2.2466726519285905e+04, -7.0179694493474599e+03, -1.8756193695172115e+04, 8.5697917398309778e+02, -3.8634431523435428e+03, 7.2304822029046964e+03, -3.8634432680658169e+03, -1.1041021252056978e+04, -2.7831479718396677e+03, 7.2304823284161348e+03, -2.7831475618478362e+03, 2.9771755803069071e+04, 1.3003373060171764e+01, 2.9583884964949169e+02, -2.6162820043504945e+02, 2.9583880630513278e+02, -5.7016505557528208e+03, 7.0719876229292086e+03, -2.6162811784612921e+02, 7.0719876884494533e+03, -8.3805107175515277e+03, -6.6349913138307459e-01, 4.3217311386644909e+01, -4.7739734161997823e+01, 4.3217352384911081e+01, -6.9982342407746228e+02, 8.9367001287765163e+02, -4.7739710609587682e+01, 8.9366989355075680e+02, -1.1135446592994106e+03, -1.8771891598253140e-01, 4.3007276988814898e+00, -5.2027389808742575e+00, 4.3007769685293074e+00, -7.9986899900021967e+01, 9.9770083542509141e+01, -5.2027384823679439e+00, 9.9770054802752043e+01, -1.2384544008879875e+02, 1.7322097990201564e+02, -5.0394985323069142e+02, 1.0238106005605016e+02, -5.0394939696478440e+02, 1.4504656822664117e+03, -2.9824804398679453e+02, 1.0238085847639582e+02, -2.9824771978831734e+02, 6.0501220877137655e+01, 1.4833511624549146e+02, -2.1524917578771619e+03, 4.4783552606687863e+01, -2.1524926339127460e+03, 1.1092124269444230e+04, -1.1518501971160090e+03, 4.4783957092852688e+01, -1.1518503190380125e+03, 1.0100458386177706e+00, -2.9113073232407332e+03, 4.2638682909526187e+03, -1.8255377596526987e+03, 4.2638692090099921e+03, 1.5247628186669906e+04, 3.2092991860285633e+03, -1.8255378862405337e+03, 3.2092986497541319e+03, -1.1313559133771055e+03, 1.6209947821660044e+03, 8.4432973356061138e+03, 1.2860382667877116e+03, 8.4432971654054872e+03, 3.5147715523003330e+03, 5.6901572340320035e+03, 1.2860381218565076e+03, 5.6901573170761103e+03, 9.9516320694535830e+02, 1.1644192291517264e+01, -1.6903842866805611e+01, -9.7467628979252368e+00, -1.6903795859283015e+01, 8.9557038790530541e+00, 3.3487543014433619e+01, -9.7468027043765133e+00, 3.3487725757134363e+01, -1.5839082997634936e+01, -4.7913714238039766e+00, 1.4537299817462504e+01, -5.3979729645364554e+00, 1.4537276718287000e+01, 1.5044589340758725e+01, -5.7027191560735183e+01, -5.3980442002292470e+00, -5.7027001604541340e+01, 8.5011560268040554e+01, 1.2384415480851136e+00, -6.2581141940678000e+00, 4.4983620198982859e+00, -6.2580741596836162e+00, -3.6080504785758798e+01, 6.1286983828132904e+01, 4.4983051109157870e+00, 6.1286829978576044e+01, -8.7923976335739752e+01, -6.6952394502743484e-02, 7.2343389470494346e-01, -7.2117172937517038e-01, 7.2335811610102696e-01, 2.4709561198072393e+01, -3.2572209909599302e+01, -7.2114219379824629e-01, -3.2572157057972568e+01, 4.2323441071445302e+01, -1.6412467017893323e+02, 4.6675085484464614e+02, -8.0220679284812036e+01, 4.6675119682790591e+02, -1.3182940988907571e+03, 2.3237768044371151e+02, -8.0220336764119963e+01, 2.3237720606295230e+02, -3.7232475029524210e+01, 7.0212371447923761e+02, -3.2154337933214429e+03, -2.2519206098428913e+02, -3.2154344916632645e+03, 1.2476802630356893e+04, -1.7405846206800675e+01, -2.2519231067713281e+02, -1.7404612513272355e+01, -4.1686969755399741e+02, 1.5105913050787622e+03, 1.8687479147962915e+03, 3.6134725300921900e+03, 1.8687484575543115e+03, -3.0690562795607042e+04, -1.0921651685476121e+04, 3.6134727047251281e+03, -1.0921652619351225e+04, 1.4651965769477811e+03, -2.5333354189168303e+03, 8.0159798729022932e+03, -8.5977786359667130e+02, 8.0159797994246746e+03, 2.4096609909973995e+04, 2.5788348808423238e+04, -8.5977793387286067e+02, 2.5788349203271657e+04, 1.0466734130336969e+04, -4.1565818157047470e+03, 1.6842580801179698e+04, -2.9771057208797476e+04, 1.6842581298519151e+04, 3.2522288959364025e+04, 1.0598667271920409e+04, -2.9771057724999439e+04, 1.0598666135378580e+04, -9.0638453323946422e+04, -7.3325999854188836e+01, -9.0055729939550054e+02, 7.7637390763877045e+02, -9.0055725564661338e+02, 1.5903546634236392e+04, -1.9447504346201167e+04, 7.7637354850173381e+02, -1.9447504303285285e+04, 2.3063447469197326e+04, 2.5648907090130130e-01, -1.0404709713209603e+02, 1.1340399888549622e+02, -1.0404727839312525e+02, 1.4615947156735542e+03, -1.8133703656644125e+03, 1.1340389547799415e+02, -1.8133703119068468e+03, 2.2244967119904409e+03, 7.3633245170207429e+03, -2.6524726500417913e+04, 4.4144786161433309e+04, -2.6524727159890881e+04, -3.3875778676835842e+04, -1.4571697046242691e+04, 4.4144787376587708e+04, -1.4571695960802495e+04, 1.0009140170009574e+05, 1.2183936943974615e+02, 8.9213966024803517e+02, -7.8329195500114156e+02, 8.9213984553664375e+02, -1.4648447673813727e+04, 1.7672767787532059e+04, -7.8329137735980555e+02, 1.7672767876403988e+04, -2.0929369090785760e+04, -5.6325386030976224e+03, 1.7955486849875429e+04, -2.8023107928789937e+04, 1.7955486953859239e+04, 1.4341257090149244e+04, 8.5625455543308071e+03, -2.8023109124181086e+04, 8.5625454460476049e+03, -4.7122367661114789e+04, 7.6516019122360262e+01, 1.6356319192777994e+02, -5.6077867486295190e+02, 1.6356313571426764e+02, -1.8247917260116760e+03, 1.9542834072976291e+03, -5.6077810926931897e+02, 1.9542824426352997e+03, -6.8476686042548545e+02, 3.3171111915483564e+00, 1.2582794815327230e+01, 1.8640689284055036e+01, 1.2582642711194108e+01, 1.1615267048776795e+03, -1.6321047796957212e+03, 1.8641195796834275e+01, -1.6321044347228376e+03, 2.0581638956920865e+03, -4.2524664959674796e+00, 1.6034175165469925e+01, -1.7321869953554511e+01, 1.6034470931649274e+01, -4.9294297887267726e+02, 6.3585435494899082e+02, -1.7321896277951240e+01, 6.3585419704046421e+02, -8.0300227406625527e+02, -5.0887523101715448e+02, 1.6146599324699496e+03, -1.6527788453728613e+03, 1.6146602136646818e+03, -1.3464709100617136e+04, 1.0399693163944848e+04, -1.6527803856296362e+03, 1.0399693864020472e+04, -1.4960263329375807e+03, 5.5106323408345659e+01, -3.0594742680407956e+02, 2.8009391113657307e+02, -3.0594772745715636e+02, 5.3993135603105229e+03, -6.6605102430226179e+03, 2.8009346420072495e+02, -6.6605102269619729e+03, 7.9950195031189969e+03, -4.8283937707702307e+01, -1.6812533742016099e+03, 4.4176165202993252e+03, -1.6812535950992460e+03, -1.6296093686020520e+04, 8.4548698673103663e+03, 4.4176178481513580e+03, 8.4548700819354071e+03, 6.3710457692984946e+03, -8.7425091949535818e+02, 5.4262941427828591e+03, 1.7075151146061489e+02, 5.4262941300378261e+03, -2.3653266264762900e+04, 1.1199066811208584e+03, 1.7075088727656657e+02, 1.1199064945797643e+03, 5.0257908284230598e+02, -6.6014395301514833e+03, 1.4319862305805068e+03, -8.2973596144413877e+03, 1.4319867565112179e+03, 7.5531751891336869e+04, 2.3947592562644360e+04, -8.2973596367586470e+03, 2.3947591069267612e+04, -4.8880834451941437e+03, 7.5761592382630552e+03, -3.6837136414090797e+04, -2.3731130089986982e+03, -3.6837137406473375e+04, -6.7453179862116391e+04, -7.4955799406130696e+04, -2.3731129396063752e+03, -7.4955798248327410e+04, -2.6451632939505813e+04, 8.0245075084887767e+03, -7.5970332958827739e+03, 6.4906938024867313e+03, -7.5970336255799311e+03, -6.0047153398384995e+04, -1.6201376295950549e+04, 6.4906945547109126e+03, -1.6201375051405923e+04, 4.5616409615008679e+03, -5.5609556619270807e+03, 5.7633233275154169e+04, 8.1159623941557256e+03, 5.7633234492814925e+04, 6.6630034108638487e+04, 7.8821682084654734e+04, 8.1159623858230516e+03, 7.8821681182268483e+04, 2.3173246704790639e+04, -1.1124089820308727e+03, -3.7244110392682676e+04, -6.1578976232773384e+03, -3.7244111324666344e+04, -2.6801272683550793e+04, -3.5357927271402528e+04, -6.1578980988447111e+03, -3.5357926743162418e+04, -8.1962916735532144e+03, -9.6261005479140636e+01, -1.1040340690419239e+02, 5.4690723045857203e+02, -1.1040344153500972e+02, 1.5652394838738358e+03, -1.7724532350062648e+03, 5.4690695714048184e+02, -1.7724535228395193e+03, 4.9572188774038835e+02, -2.2157748416094296e+02, 1.6397374784275744e+03, -2.6546655339112431e+03, 1.6397375164352761e+03, -1.3436821569318832e+04, 1.0588215198444237e+04, -2.6546652329751878e+03, 1.0588215576056891e+04, 1.1158139132446204e+03, 5.1211504851493692e+02, -8.4817905287671954e+02, -5.2157414256272205e+02, -8.4817893934046629e+02, 2.6185636072802343e+04, -1.2694428011674028e+04, -5.2157431049342892e+02, -1.2694428738027989e+04, -1.9681476940473822e+04, 5.1551449690739872e+00, -3.1721793432331889e+01, -1.7243615091835267e+01, -3.1721659313831818e+01, -9.7415648368209588e+02, 1.4500841904666142e+03, -1.7243732640209018e+01, 1.4500837510697722e+03, -1.8359685407956233e+03, 3.6439993670725364e+01, -1.8976837109559671e+02, 2.2886716187020915e+02, -1.8976839887375112e+02, 4.9841033445910234e+03, -6.4845770701377705e+03, 2.2886722286311789e+02, -6.4845769225064851e+03, 7.8372472849740243e+03, 2.1055273836316837e+00, -6.6280656301087504e+00, 1.1314902284042216e+01, -6.6281510543890620e+00, 4.1353453662726946e+02, -5.6213081954136885e+02, 1.1314940616239383e+01, -5.6213054237040831e+02, 7.2736527426681675e+02, 7.3273490373480149e+02, -3.2861583960976354e+03, 4.3408365334801420e+03, -3.2861586732534247e+03, 2.6942267209450882e+04, -2.0954660357969311e+04, 4.3408369571691746e+03, -2.0954659271608689e+04, 2.5084664265111303e+02, -1.3242756322304303e+03, 1.1427247922496713e+02, 6.0679052755720113e+03, 1.1427206921647621e+02, -6.8687839163777637e+04, 3.3502230979448883e+04, 6.0679050812475107e+03, 3.3502232218082601e+04, 4.4512479266153729e+04, -9.4679587834660111e+01, 4.9289794788153500e+02, -4.9719778873994869e+02, 4.9289797751741156e+02, -1.0360826252366907e+04, 1.3124488136599732e+04, -4.9719784692832434e+02, 1.3124487820312097e+04, -1.5837742060084280e+04, 8.6728752066406923e+02, 2.4175867524280757e+03, -9.9850121561586129e+03, 2.4175875089342462e+03, 5.8788658630687270e+04, -2.9257116031501697e+04, -9.9850122595804605e+03, -2.9257118161043971e+04, -3.1153360865188442e+04], 
        "evaluate_dof_0": 1.4072081100000003e-01, 
        "evaluate_dof_1": 3.5842907099999999e-01, 
        "evaluate_dof_2": 1.4760881100000001e-01, 
        "evaluate_dof_3": 4.6025001000000010e-02, 
        "evaluate_dof_4": 1.7211155594400004e-01, 
        "evaluate_dof_5": 1.6982211823200000e-01, 
        "evaluate_dof_6": 1.4512292704800001e-01, 
        "evaluate_dof_7": 1.0239641157600003e-01, 
        "evaluate_dof_8": 2.7480625725600005e-01, 
        "evaluate_dof_9": 2.0247338008800003e-01, 
        "evaluate_dof_10": 1.4071150279200001e-01, 
        "evaluate_dof_11": 8.8801688664000011e-02, 
        "evaluate_dof_12": 3.5068170290400008e-01, 
        "evaluate_dof_13": 3.2593603471200000e-01, 
        "evaluate_dof_14": 2.8398202456799998e-01, 
        "evaluate_dof_15": 2.2460963061600006e-01, 
        "evaluate_dof_16": 1.4350990500000005e-01, 
        "evaluate_dof_17": 1.3716459900000003e-01, 
        "evaluate_dof_18": 1.1995516500000000e-01, 
        "evaluate_dof_19": 9.0151875000000034e-02, 
        "evaluate_dof_20": 1.5948570405600004e-01, 
        "evaluate_dof_21": 1.7003100088800002e-01, 
        "evaluate_dof_22": 1.7188265119200002e-01, 
        "evaluate_dof_23": 1.6456660466400005e-01, 
        "evaluate_dof_24": 1.8930700994400002e-01, 
        "evaluate_dof_25": 2.3800038463200002e-01, 
        "evaluate_dof_26": 2.8417148584800000e-01, 
        "evaluate_dof_27": 3.2519086437600009e-01, 
        "evaluate_dof_28": 2.7340710516000005e-01, 
        "evaluate_dof_29": 2.5596496548000014e-01, 
        "evaluate_dof_30": 2.2226979635999997e-01, 
        "evaluate_dof_31": 2.0674731516000011e-01, 
        "evaluate_dof_32": 1.9593357516000007e-01, 
        "evaluate_dof_33": 1.4998339620000001e-01, 
        "evaluate_dof_34": 1.6119366573600000e-01, 
        "evaluate_dof_35": 1.7217122800800003e-01, 
        "evaluate_dof_36": 1.7596854151200003e-01, 
        "evaluate_dof_37": 1.5340125621600006e-01, 
        "evaluate_dof_38": 1.6444511272800005e-01, 
        "evaluate_dof_39": 1.3437874749600001e-01, 
        "evaluate_dof_40": 1.8321442682399999e-01, 
        "evaluate_dof_41": 2.2008495895200009e-01, 
        "evaluate_dof_42": 2.5149205216799997e-01, 
        "evaluate_dof_43": 1.6558583090400009e-01, 
        "evaluate_dof_44": 1.8823190767200004e-01, 
        "evaluate_dof_45": 1.3469149418400003e-01, 
        "evaluate_dof_46": 2.0986448075999994e-01, 
        "evaluate_dof_47": 2.6027637228000011e-01, 
        "evaluate_dof_48": 3.0809192940000002e-01, 
        "evaluate_dof_49": 2.2291677468000010e-01, 
        "evaluate_dof_50": 2.7576160236000008e-01, 
        "evaluate_dof_51": 2.2798984140000000e-01, 
        "evaluate_dof_52": 2.0238267924000009e-01, 
        "evaluate_dof_53": 2.4066364212000008e-01, 
        "evaluate_dof_54": 2.1555915252000005e-01, 
        "evaluate_dof_55": 1.8299889372000008e-01, 
        "evaluate_dofs": [1.4072081100000003e-01, 3.5842907099999999e-01, 1.4760881100000001e-01, 4.6025001000000010e-02, 1.7211155594400004e-01, 1.6982211823200000e-01, 1.4512292704800001e-01, 1.0239641157600003e-01, 2.7480625725600005e-01, 2.0247338008800003e-01, 1.4071150279200001e-01, 8.8801688664000011e-02, 3.5068170290400008e-01, 3.2593603471200000e-01, 2.8398202456799998e-01, 2.2460963061600006e-01, 1.4350990500000005e-01, 1.3716459900000003e-01, 1.1995516500000000e-01, 9.0151875000000034e-02, 1.5948570405600004e-01, 1.7003100088800002e-01, 1.7188265119200002e-01, 1.6456660466400005e-01, 1.8930700994400002e-01, 2.3800038463200002e-01, 2.8417148584800000e-01, 3.2519086437600009e-01, 2.7340710516000005e-01, 2.5596496548000014e-01, 2.2226979635999997e-01, 2.0674731516000011e-01, 1.9593357516000007e-01, 1.4998339620000001e-01, 1.6119366573600000e-01, 1.7217122800800003e-01, 1.7596854151200003e-01, 1.5340125621600006e-01, 1.6444511272800005e-01, 1.3437874749600001e-01, 1.8321442682399999e-01, 2.2008495895200009e-01, 2.5149205216799997e-01, 1.6558583090400009e-01, 1.8823190767200004e-01, 1.3469149418400003e-01, 2.0986448075999994e-01, 2.6027637228000011e-01, 3.0809192940000002e-01, 2.2291677468000010e-01, 2.7576160236000008e-01, 2.2798984140000000e-01, 2.0238267924000009e-01, 2.4066364212000008e-01, 2.1555915252000005e-01, 1.8299889372000008e-01], 
        "interpolate_vertex_values": [1.4072081100000003e-01, 3.5842907099999999e-01, 1.4760881100000001e-01, 4.6025001000000010e-02], 
        "tabulate_dof_coordinates": [9.0300000000000002e-01, 3.4100000000000003e-01, 4.5700000000000002e-01, 5.6100000000000005e-01, 7.6700000000000002e-01, 8.3299999999999996e-01, 9.8699999999999999e-01, 7.8300000000000003e-01, 1.9100000000000000e-01, 1.2300000000000000e-01, 5.6100000000000005e-01, 6.6700000000000004e-01, 8.1420000000000003e-01, 7.3860000000000015e-01, 2.8620000000000001e-01, 6.4139999999999997e-01, 6.9420000000000004e-01, 3.8140000000000002e-01, 4.6860000000000002e-01, 6.4980000000000004e-01, 4.7660000000000002e-01, 2.9580000000000001e-01, 6.0540000000000016e-01, 5.7180000000000009e-01, 4.7340000000000010e-01, 7.2580000000000000e-01, 7.9980000000000007e-01, 3.8580000000000003e-01, 6.8460000000000010e-01, 7.6659999999999995e-01, 2.9820000000000002e-01, 6.4339999999999997e-01, 7.3340000000000005e-01, 2.1060000000000001e-01, 6.0220000000000007e-01, 7.0020000000000004e-01, 6.4620000000000011e-01, 7.7020000000000000e-01, 7.0460000000000000e-01, 7.3140000000000005e-01, 7.7340000000000009e-01, 5.7619999999999993e-01, 8.1659999999999999e-01, 7.7659999999999996e-01, 4.4779999999999998e-01, 9.0180000000000016e-01, 7.7980000000000005e-01, 3.1940000000000002e-01, 7.4700000000000000e-01, 3.8500000000000006e-01, 4.9900000000000005e-01, 5.9099999999999997e-01, 4.2900000000000005e-01, 5.4100000000000004e-01, 4.3500000000000000e-01, 4.7300000000000003e-01, 5.8299999999999996e-01, 2.7900000000000003e-01, 5.1700000000000013e-01, 6.2500000000000011e-01, 9.1980000000000006e-01, 4.2940000000000006e-01, 4.0380000000000005e-01, 9.3659999999999999e-01, 5.1780000000000004e-01, 3.5060000000000002e-01, 9.5340000000000003e-01, 6.0620000000000007e-01, 2.9740000000000000e-01, 9.7020000000000006e-01, 6.9460000000000011e-01, 2.4420000000000003e-01, 8.3460000000000001e-01, 4.2620000000000002e-01, 5.3220000000000001e-01, 7.6619999999999999e-01, 5.1140000000000008e-01, 6.0739999999999994e-01, 6.9779999999999998e-01, 5.9660000000000002e-01, 6.8259999999999998e-01, 6.2940000000000007e-01, 6.8180000000000007e-01, 7.5780000000000003e-01, 5.5859999999999999e-01, 7.2900000000000009e-01, 6.7140000000000000e-01, 6.4380000000000004e-01, 7.3220000000000018e-01, 5.4300000000000004e-01, 7.2899999999999987e-01, 7.3540000000000005e-01, 4.1460000000000002e-01, 4.7100000000000009e-01, 6.8780000000000008e-01, 6.3820000000000010e-01, 5.5620000000000014e-01, 6.9100000000000006e-01, 5.0980000000000003e-01, 3.8340000000000002e-01, 6.4660000000000006e-01, 6.0499999999999998e-01, 7.6379999999999992e-01, 4.7340000000000004e-01, 4.4580000000000003e-01, 7.8059999999999996e-01, 5.6180000000000008e-01, 3.9260000000000006e-01, 7.9739999999999989e-01, 6.5020000000000011e-01, 3.3940000000000003e-01, 6.0780000000000001e-01, 5.1740000000000008e-01, 4.8780000000000007e-01, 6.2460000000000004e-01, 6.0580000000000012e-01, 4.3460000000000004e-01, 4.5179999999999998e-01, 5.6140000000000001e-01, 5.2980000000000005e-01, 6.7859999999999987e-01, 4.7020000000000001e-01, 5.7420000000000004e-01, 6.1020000000000008e-01, 5.5540000000000012e-01, 6.4939999999999998e-01, 5.4179999999999995e-01, 6.4060000000000006e-01, 7.2459999999999991e-01, 5.2260000000000006e-01, 5.1420000000000010e-01, 6.1620000000000008e-01, 4.5420000000000005e-01, 5.9940000000000004e-01, 6.9140000000000001e-01, 3.6660000000000004e-01, 5.5820000000000003e-01, 6.5820000000000001e-01, 8.5139999999999993e-01, 5.1459999999999995e-01, 4.7899999999999998e-01, 7.8300000000000014e-01, 5.9980000000000011e-01, 5.5420000000000003e-01, 7.1460000000000001e-01, 6.8500000000000005e-01, 6.2939999999999996e-01, 8.6820000000000008e-01, 6.0300000000000009e-01, 4.2580000000000007e-01, 7.9980000000000007e-01, 6.8820000000000003e-01, 5.0100000000000000e-01, 8.8500000000000001e-01, 6.9140000000000001e-01, 3.7259999999999999e-01, 6.9540000000000002e-01, 5.5860000000000010e-01, 5.2100000000000013e-01, 6.2700000000000000e-01, 6.4380000000000015e-01, 5.9620000000000006e-01, 7.1220000000000006e-01, 6.4700000000000002e-01, 4.6780000000000005e-01, 5.3940000000000010e-01, 6.0260000000000002e-01, 5.6300000000000006e-01], 
        "num_sub_elements": 0, 
    },
}
