{
    "finite_element_0": {
        "cell_shape": 1, 
        "space_dimension": 3, 
        "value_rank": 0, 
        "evaluate_basis:_0": [1.1711548919854349e+00], 
        "evaluate_basis:_1": [3.1483042736603489e-01], 
        "evaluate_basis:_2": [-4.8598529644994226e-01], 
        "evaluate_basis_all": [1.1711548919854349e+00, 3.1483042736603489e-01, -4.8598529644994226e-01, 0.0, 0.0, 0.0, 0.0, 0.0, 0.0, 0.0, 0.0, 0.0, 0.0, 0.0, 0.0, 0.0, 0.0, 0.0, 0.0, 0.0, 0.0, 0.0, 0.0, 0.0, 0.0, 0.0, 0.0], 
        "evaluate_basis_derivatives_0_0": [1.1711548919854349e+00], 
        "evaluate_basis_derivatives_0_1": [3.5264010173782212e-01, -2.2219664705216262e+00, 1.7861873459359412e-01], 
        "evaluate_basis_derivatives_0_2": [0.0, 0.0, 0.0, 0.0, 0.0, 0.0, 0.0, 0.0, 0.0], 
        "evaluate_basis_derivatives_1_0": [3.1483042736603489e-01], 
        "evaluate_basis_derivatives_1_1": [-8.4414409792568124e-01, 7.7231405274773224e-01, 1.0167471251814886e+00], 
        "evaluate_basis_derivatives_1_2": [0.0, 0.0, 0.0, 0.0, 0.0, 0.0, 0.0, 0.0, 0.0], 
        "evaluate_basis_derivatives_2_0": [-4.8598529644994226e-01], 
        "evaluate_basis_derivatives_2_1": [4.9150398144273955e-01, 1.4496523742843226e+00, -1.1953658239141081e+00], 
        "evaluate_basis_derivatives_2_2": [0.0, 0.0, 0.0, 0.0, 0.0, 0.0, 0.0, 0.0, 0.0], 
        "evaluate_basis_derivatives_all_0": [1.1711548919854349e+00, 3.1483042736603489e-01, -4.8598529644994226e-01], 
        "evaluate_basis_derivatives_all_1": [3.5264010173782212e-01, -2.2219664705216262e+00, 1.7861873459359412e-01, -8.4414409792568124e-01, 7.7231405274773224e-01, 1.0167471251814886e+00, 4.9150398144273955e-01, 1.4496523742843226e+00, -1.1953658239141081e+00], 
        "evaluate_basis_derivatives_all_2": [0.0, 0.0, 0.0, 0.0, 0.0, 0.0, 0.0, 0.0, 0.0, 0.0, 0.0, 0.0, 0.0, 0.0, 0.0, 0.0, 0.0, 0.0, 0.0, 0.0, 0.0, 0.0, 0.0, 0.0, 0.0, 0.0, 0.0], 
        "evaluate_dof_0": 1.4072081100000003e-01, 
        "evaluate_dof_1": 3.5842907099999999e-01, 
        "evaluate_dof_2": 1.4760881100000001e-01, 
        "evaluate_dofs": [1.4072081100000003e-01, 3.5842907099999999e-01, 1.4760881100000001e-01], 
        "interpolate_vertex_values": [1.4072081100000003e-01, 3.5842907099999999e-01, 1.4760881100000001e-01], 
        "tabulate_dof_coordinates": [9.0300000000000002e-01, 3.4100000000000003e-01, 4.5700000000000002e-01, 5.6100000000000005e-01, 7.6700000000000002e-01, 8.3299999999999996e-01, 9.8699999999999999e-01, 7.8300000000000003e-01, 1.9100000000000000e-01], 
        "num_sub_elements": 0, 
    },
    "finite_element_1": {
        "cell_shape": 1, 
        "space_dimension": 9, 
        "value_rank": 1, 
        "value_dimension_0": 3, 
        "evaluate_basis:_0": [1.1711548919854349e+00, 0.0, 0.0], 
        "evaluate_basis:_1": [3.1483042736603489e-01, 0.0, 0.0], 
        "evaluate_basis:_2": [-4.8598529644994226e-01, 0.0, 0.0], 
        "evaluate_basis:_3": [0.0, 1.1711548919854349e+00, 0.0], 
        "evaluate_basis:_4": [0.0, 3.1483042736603489e-01, 0.0], 
        "evaluate_basis:_5": [0.0, -4.8598529644994226e-01, 0.0], 
        "evaluate_basis:_6": [0.0, 0.0, 1.1711548919854349e+00], 
        "evaluate_basis:_7": [0.0, 0.0, 3.1483042736603489e-01], 
        "evaluate_basis:_8": [0.0, 0.0, -4.8598529644994226e-01], 
        "evaluate_basis_all": [1.1711548919854349e+00, 0.0, 0.0, 3.1483042736603489e-01, 0.0, 0.0, -4.8598529644994226e-01, 0.0, 0.0, 0.0, 1.1711548919854349e+00, 0.0, 0.0, 3.1483042736603489e-01, 0.0, 0.0, -4.8598529644994226e-01, 0.0, 0.0, 0.0, 1.1711548919854349e+00, 0.0, 0.0, 3.1483042736603489e-01, 0.0, 0.0, -4.8598529644994226e-01, 0.0, 0.0, 0.0, 0.0, 0.0, 0.0, 0.0, 0.0, 0.0, 0.0, 0.0, 0.0, 0.0, 0.0, 0.0, 0.0, 0.0, 0.0, 0.0, 0.0, 0.0, 0.0, 0.0, 0.0, 0.0, 0.0, 0.0, 0.0, 0.0, 0.0, 0.0, 0.0, 0.0, 0.0, 0.0, 0.0, 0.0, 0.0, 0.0, 0.0, 0.0, 0.0, 0.0, 0.0, 0.0, 0.0, 0.0, 0.0, 0.0, 0.0, 0.0, 0.0, 0.0, 0.0, 0.0, 0.0, 0.0, 0.0, 0.0, 0.0, 0.0, 0.0, 0.0, 0.0, 0.0, 0.0, 0.0, 0.0, 0.0, 0.0, 0.0, 0.0, 0.0, 0.0, 0.0, 0.0, 0.0, 0.0, 0.0, 0.0, 0.0, 0.0, 0.0, 0.0, 0.0, 0.0, 0.0, 0.0, 0.0, 0.0, 0.0, 0.0, 0.0, 0.0, 0.0, 0.0, 0.0, 0.0, 0.0, 0.0, 0.0, 0.0, 0.0, 0.0, 0.0, 0.0, 0.0, 0.0, 0.0, 0.0, 0.0, 0.0, 0.0, 0.0, 0.0, 0.0, 0.0, 0.0, 0.0, 0.0, 0.0, 0.0, 0.0, 0.0, 0.0, 0.0, 0.0, 0.0, 0.0, 0.0, 0.0, 0.0, 0.0, 0.0, 0.0, 0.0, 0.0, 0.0, 0.0, 0.0, 0.0, 0.0, 0.0, 0.0, 0.0, 0.0, 0.0, 0.0, 0.0, 0.0, 0.0, 0.0, 0.0, 0.0, 0.0, 0.0, 0.0, 0.0, 0.0, 0.0, 0.0, 0.0, 0.0, 0.0, 0.0, 0.0, 0.0, 0.0, 0.0, 0.0, 0.0, 0.0, 0.0, 0.0, 0.0, 0.0, 0.0, 0.0, 0.0, 0.0, 0.0, 0.0, 0.0, 0.0, 0.0, 0.0, 0.0, 0.0, 0.0, 0.0, 0.0, 0.0, 0.0, 0.0, 0.0, 0.0, 0.0, 0.0, 0.0, 0.0, 0.0, 0.0, 0.0, 0.0, 0.0, 0.0, 0.0, 0.0, 0.0, 0.0, 0.0, 0.0, 0.0, 0.0, 0.0, 0.0], 
        "evaluate_basis_derivatives_0_0": [1.1711548919854349e+00, 0.0, 0.0], 
        "evaluate_basis_derivatives_0_1": [3.5264010173782212e-01, -2.2219664705216262e+00, 1.7861873459359412e-01, 0.0, 0.0, 0.0, 0.0, 0.0, 0.0], 
        "evaluate_basis_derivatives_0_2": [0.0, 0.0, 0.0, 0.0, 0.0, 0.0, 0.0, 0.0, 0.0, 0.0, 0.0, 0.0, 0.0, 0.0, 0.0, 0.0, 0.0, 0.0, 0.0, 0.0, 0.0, 0.0, 0.0, 0.0, 0.0, 0.0, 0.0], 
        "evaluate_basis_derivatives_1_0": [3.1483042736603489e-01, 0.0, 0.0], 
        "evaluate_basis_derivatives_1_1": [-8.4414409792568124e-01, 7.7231405274773224e-01, 1.0167471251814886e+00, 0.0, 0.0, 0.0, 0.0, 0.0, 0.0], 
        "evaluate_basis_derivatives_1_2": [0.0, 0.0, 0.0, 0.0, 0.0, 0.0, 0.0, 0.0, 0.0, 0.0, 0.0, 0.0, 0.0, 0.0, 0.0, 0.0, 0.0, 0.0, 0.0, 0.0, 0.0, 0.0, 0.0, 0.0, 0.0, 0.0, 0.0], 
        "evaluate_basis_derivatives_2_0": [-4.8598529644994226e-01, 0.0, 0.0], 
        "evaluate_basis_derivatives_2_1": [4.9150398144273955e-01, 1.4496523742843226e+00, -1.1953658239141081e+00, 0.0, 0.0, 0.0, 0.0, 0.0, 0.0], 
        "evaluate_basis_derivatives_2_2": [0.0, 0.0, 0.0, 0.0, 0.0, 0.0, 0.0, 0.0, 0.0, 0.0, 0.0, 0.0, 0.0, 0.0, 0.0, 0.0, 0.0, 0.0, 0.0, 0.0, 0.0, 0.0, 0.0, 0.0, 0.0, 0.0, 0.0], 
        "evaluate_basis_derivatives_3_0": [0.0, 1.1711548919854349e+00, 0.0], 
        "evaluate_basis_derivatives_3_1": [0.0, 0.0, 0.0, 3.5264010173782212e-01, -2.2219664705216262e+00, 1.7861873459359412e-01, 0.0, 0.0, 0.0], 
        "evaluate_basis_derivatives_3_2": [0.0, 0.0, 0.0, 0.0, 0.0, 0.0, 0.0, 0.0, 0.0, 0.0, 0.0, 0.0, 0.0, 0.0, 0.0, 0.0, 0.0, 0.0, 0.0, 0.0, 0.0, 0.0, 0.0, 0.0, 0.0, 0.0, 0.0], 
        "evaluate_basis_derivatives_4_0": [0.0, 3.1483042736603489e-01, 0.0], 
        "evaluate_basis_derivatives_4_1": [0.0, 0.0, 0.0, -8.4414409792568124e-01, 7.7231405274773224e-01, 1.0167471251814886e+00, 0.0, 0.0, 0.0], 
        "evaluate_basis_derivatives_4_2": [0.0, 0.0, 0.0, 0.0, 0.0, 0.0, 0.0, 0.0, 0.0, 0.0, 0.0, 0.0, 0.0, 0.0, 0.0, 0.0, 0.0, 0.0, 0.0, 0.0, 0.0, 0.0, 0.0, 0.0, 0.0, 0.0, 0.0], 
        "evaluate_basis_derivatives_5_0": [0.0, -4.8598529644994226e-01, 0.0], 
        "evaluate_basis_derivatives_5_1": [0.0, 0.0, 0.0, 4.9150398144273955e-01, 1.4496523742843226e+00, -1.1953658239141081e+00, 0.0, 0.0, 0.0], 
        "evaluate_basis_derivatives_5_2": [0.0, 0.0, 0.0, 0.0, 0.0, 0.0, 0.0, 0.0, 0.0, 0.0, 0.0, 0.0, 0.0, 0.0, 0.0, 0.0, 0.0, 0.0, 0.0, 0.0, 0.0, 0.0, 0.0, 0.0, 0.0, 0.0, 0.0], 
        "evaluate_basis_derivatives_6_0": [0.0, 0.0, 1.1711548919854349e+00], 
        "evaluate_basis_derivatives_6_1": [0.0, 0.0, 0.0, 0.0, 0.0, 0.0, 3.5264010173782212e-01, -2.2219664705216262e+00, 1.7861873459359412e-01], 
        "evaluate_basis_derivatives_6_2": [0.0, 0.0, 0.0, 0.0, 0.0, 0.0, 0.0, 0.0, 0.0, 0.0, 0.0, 0.0, 0.0, 0.0, 0.0, 0.0, 0.0, 0.0, 0.0, 0.0, 0.0, 0.0, 0.0, 0.0, 0.0, 0.0, 0.0], 
        "evaluate_basis_derivatives_7_0": [0.0, 0.0, 3.1483042736603489e-01], 
        "evaluate_basis_derivatives_7_1": [0.0, 0.0, 0.0, 0.0, 0.0, 0.0, -8.4414409792568124e-01, 7.7231405274773224e-01, 1.0167471251814886e+00], 
        "evaluate_basis_derivatives_7_2": [0.0, 0.0, 0.0, 0.0, 0.0, 0.0, 0.0, 0.0, 0.0, 0.0, 0.0, 0.0, 0.0, 0.0, 0.0, 0.0, 0.0, 0.0, 0.0, 0.0, 0.0, 0.0, 0.0, 0.0, 0.0, 0.0, 0.0], 
        "evaluate_basis_derivatives_8_0": [0.0, 0.0, -4.8598529644994226e-01], 
        "evaluate_basis_derivatives_8_1": [0.0, 0.0, 0.0, 0.0, 0.0, 0.0, 4.9150398144273955e-01, 1.4496523742843226e+00, -1.1953658239141081e+00], 
        "evaluate_basis_derivatives_8_2": [0.0, 0.0, 0.0, 0.0, 0.0, 0.0, 0.0, 0.0, 0.0, 0.0, 0.0, 0.0, 0.0, 0.0, 0.0, 0.0, 0.0, 0.0, 0.0, 0.0, 0.0, 0.0, 0.0, 0.0, 0.0, 0.0, 0.0], 
        "evaluate_basis_derivatives_all_0": [1.1711548919854349e+00, 0.0, 0.0, 3.1483042736603489e-01, 0.0, 0.0, -4.8598529644994226e-01, 0.0, 0.0, 0.0, 1.1711548919854349e+00, 0.0, 0.0, 3.1483042736603489e-01, 0.0, 0.0, -4.8598529644994226e-01, 0.0, 0.0, 0.0, 1.1711548919854349e+00, 0.0, 0.0, 3.1483042736603489e-01, 0.0, 0.0, -4.8598529644994226e-01], 
        "evaluate_basis_derivatives_all_1": [3.5264010173782212e-01, -2.2219664705216262e+00, 1.7861873459359412e-01, 0.0, 0.0, 0.0, 0.0, 0.0, 0.0, -8.4414409792568124e-01, 7.7231405274773224e-01, 1.0167471251814886e+00, 0.0, 0.0, 0.0, 0.0, 0.0, 0.0, 4.9150398144273955e-01, 1.4496523742843226e+00, -1.1953658239141081e+00, 0.0, 0.0, 0.0, 0.0, 0.0, 0.0, 0.0, 0.0, 0.0, 3.5264010173782212e-01, -2.2219664705216262e+00, 1.7861873459359412e-01, 0.0, 0.0, 0.0, 0.0, 0.0, 0.0, -8.4414409792568124e-01, 7.7231405274773224e-01, 1.0167471251814886e+00, 0.0, 0.0, 0.0, 0.0, 0.0, 0.0, 4.9150398144273955e-01, 1.4496523742843226e+00, -1.1953658239141081e+00, 0.0, 0.0, 0.0, 0.0, 0.0, 0.0, 0.0, 0.0, 0.0, 3.5264010173782212e-01, -2.2219664705216262e+00, 1.7861873459359412e-01, 0.0, 0.0, 0.0, 0.0, 0.0, 0.0, -8.4414409792568124e-01, 7.7231405274773224e-01, 1.0167471251814886e+00, 0.0, 0.0, 0.0, 0.0, 0.0, 0.0, 4.9150398144273955e-01, 1.4496523742843226e+00, -1.1953658239141081e+00], 
        "evaluate_basis_derivatives_all_2": [0.0, 0.0, 0.0, 0.0, 0.0, 0.0, 0.0, 0.0, 0.0, 0.0, 0.0, 0.0, 0.0, 0.0, 0.0, 0.0, 0.0, 0.0, 0.0, 0.0, 0.0, 0.0, 0.0, 0.0, 0.0, 0.0, 0.0, 0.0, 0.0, 0.0, 0.0, 0.0, 0.0, 0.0, 0.0, 0.0, 0.0, 0.0, 0.0, 0.0, 0.0, 0.0, 0.0, 0.0, 0.0, 0.0, 0.0, 0.0, 0.0, 0.0, 0.0, 0.0, 0.0, 0.0, 0.0, 0.0, 0.0, 0.0, 0.0, 0.0, 0.0, 0.0, 0.0, 0.0, 0.0, 0.0, 0.0, 0.0, 0.0, 0.0, 0.0, 0.0, 0.0, 0.0, 0.0, 0.0, 0.0, 0.0, 0.0, 0.0, 0.0, 0.0, 0.0, 0.0, 0.0, 0.0, 0.0, 0.0, 0.0, 0.0, 0.0, 0.0, 0.0, 0.0, 0.0, 0.0, 0.0, 0.0, 0.0, 0.0, 0.0, 0.0, 0.0, 0.0, 0.0, 0.0, 0.0, 0.0, 0.0, 0.0, 0.0, 0.0, 0.0, 0.0, 0.0, 0.0, 0.0, 0.0, 0.0, 0.0, 0.0, 0.0, 0.0, 0.0, 0.0, 0.0, 0.0, 0.0, 0.0, 0.0, 0.0, 0.0, 0.0, 0.0, 0.0, 0.0, 0.0, 0.0, 0.0, 0.0, 0.0, 0.0, 0.0, 0.0, 0.0, 0.0, 0.0, 0.0, 0.0, 0.0, 0.0, 0.0, 0.0, 0.0, 0.0, 0.0, 0.0, 0.0, 0.0, 0.0, 0.0, 0.0, 0.0, 0.0, 0.0, 0.0, 0.0, 0.0, 0.0, 0.0, 0.0, 0.0, 0.0, 0.0, 0.0, 0.0, 0.0, 0.0, 0.0, 0.0, 0.0, 0.0, 0.0, 0.0, 0.0, 0.0, 0.0, 0.0, 0.0, 0.0, 0.0, 0.0, 0.0, 0.0, 0.0, 0.0, 0.0, 0.0, 0.0, 0.0, 0.0, 0.0, 0.0, 0.0, 0.0, 0.0, 0.0, 0.0, 0.0, 0.0, 0.0, 0.0, 0.0, 0.0, 0.0, 0.0, 0.0, 0.0, 0.0, 0.0, 0.0, 0.0, 0.0, 0.0, 0.0, 0.0, 0.0, 0.0, 0.0, 0.0, 0.0, 0.0, 0.0, 0.0, 0.0, 0.0, 0.0, 0.0, 0.0, 0.0, 0.0, 0.0, 0.0], 
        "evaluate_dof_0": 1.4072081100000003e-01, 
        "evaluate_dof_1": 3.5842907099999999e-01, 
        "evaluate_dof_2": 1.4760881100000001e-01, 
        "evaluate_dof_3": 1.1257664880000002e+00, 
        "evaluate_dof_4": 2.8674325679999999e+00, 
        "evaluate_dof_5": 1.1808704880000001e+00, 
        "evaluate_dof_6": 3.7994618970000009e+00, 
        "evaluate_dof_7": 9.6775849170000008e+00, 
        "evaluate_dof_8": 3.9854378969999997e+00, 
        "evaluate_dofs": [1.4072081100000003e-01, 3.5842907099999999e-01, 1.4760881100000001e-01, 1.1257664880000002e+00, 2.8674325679999999e+00, 1.1808704880000001e+00, 3.7994618970000009e+00, 9.6775849170000008e+00, 3.9854378969999997e+00], 
        "interpolate_vertex_values": [1.4072081100000003e-01, 1.1257664880000002e+00, 3.7994618970000009e+00, 3.5842907099999999e-01, 2.8674325679999999e+00, 9.6775849170000008e+00, 1.4760881100000001e-01, 1.1808704880000001e+00, 3.9854378969999997e+00], 
        "tabulate_dof_coordinates": [9.0300000000000002e-01, 3.4100000000000003e-01, 4.5700000000000002e-01, 5.6100000000000005e-01, 7.6700000000000002e-01, 8.3299999999999996e-01, 9.8699999999999999e-01, 7.8300000000000003e-01, 1.9100000000000000e-01, 9.0300000000000002e-01, 3.4100000000000003e-01, 4.5700000000000002e-01, 5.6100000000000005e-01, 7.6700000000000002e-01, 8.3299999999999996e-01, 9.8699999999999999e-01, 7.8300000000000003e-01, 1.9100000000000000e-01, 9.0300000000000002e-01, 3.4100000000000003e-01, 4.5700000000000002e-01, 5.6100000000000005e-01, 7.6700000000000002e-01, 8.3299999999999996e-01, 9.8699999999999999e-01, 7.8300000000000003e-01, 1.9100000000000000e-01], 
        "num_sub_elements": 3, 
        "finite_element_0": {
            "cell_shape": 1, 
            "space_dimension": 3, 
            "value_rank": 0, 
            "evaluate_basis:_0": [1.1711548919854349e+00], 
            "evaluate_basis:_1": [3.1483042736603489e-01], 
            "evaluate_basis:_2": [-4.8598529644994226e-01], 
            "evaluate_basis_all": [1.1711548919854349e+00, 3.1483042736603489e-01, -4.8598529644994226e-01, 0.0, 0.0, 0.0, 0.0, 0.0, 0.0, 0.0, 0.0, 0.0, 0.0, 0.0, 0.0, 0.0, 0.0, 0.0, 0.0, 0.0, 0.0, 0.0, 0.0, 0.0, 0.0, 0.0, 0.0], 
            "evaluate_basis_derivatives_0_0": [1.1711548919854349e+00], 
            "evaluate_basis_derivatives_0_1": [3.5264010173782212e-01, -2.2219664705216262e+00, 1.7861873459359412e-01], 
            "evaluate_basis_derivatives_0_2": [0.0, 0.0, 0.0, 0.0, 0.0, 0.0, 0.0, 0.0, 0.0], 
            "evaluate_basis_derivatives_1_0": [3.1483042736603489e-01], 
            "evaluate_basis_derivatives_1_1": [-8.4414409792568124e-01, 7.7231405274773224e-01, 1.0167471251814886e+00], 
            "evaluate_basis_derivatives_1_2": [0.0, 0.0, 0.0, 0.0, 0.0, 0.0, 0.0, 0.0, 0.0], 
            "evaluate_basis_derivatives_2_0": [-4.8598529644994226e-01], 
            "evaluate_basis_derivatives_2_1": [4.9150398144273955e-01, 1.4496523742843226e+00, -1.1953658239141081e+00], 
            "evaluate_basis_derivatives_2_2": [0.0, 0.0, 0.0, 0.0, 0.0, 0.0, 0.0, 0.0, 0.0], 
            "evaluate_basis_derivatives_all_0": [1.1711548919854349e+00, 3.1483042736603489e-01, -4.8598529644994226e-01], 
            "evaluate_basis_derivatives_all_1": [3.5264010173782212e-01, -2.2219664705216262e+00, 1.7861873459359412e-01, -8.4414409792568124e-01, 7.7231405274773224e-01, 1.0167471251814886e+00, 4.9150398144273955e-01, 1.4496523742843226e+00, -1.1953658239141081e+00], 
            "evaluate_basis_derivatives_all_2": [0.0, 0.0, 0.0, 0.0, 0.0, 0.0, 0.0, 0.0, 0.0, 0.0, 0.0, 0.0, 0.0, 0.0, 0.0, 0.0, 0.0, 0.0, 0.0, 0.0, 0.0, 0.0, 0.0, 0.0, 0.0, 0.0, 0.0], 
            "evaluate_dof_0": 1.4072081100000003e-01, 
            "evaluate_dof_1": 3.5842907099999999e-01, 
            "evaluate_dof_2": 1.4760881100000001e-01, 
            "evaluate_dofs": [1.4072081100000003e-01, 3.5842907099999999e-01, 1.4760881100000001e-01], 
            "interpolate_vertex_values": [1.4072081100000003e-01, 3.5842907099999999e-01, 1.4760881100000001e-01], 
            "tabulate_dof_coordinates": [9.0300000000000002e-01, 3.4100000000000003e-01, 4.5700000000000002e-01, 5.6100000000000005e-01, 7.6700000000000002e-01, 8.3299999999999996e-01, 9.8699999999999999e-01, 7.8300000000000003e-01, 1.9100000000000000e-01], 
            "num_sub_elements": 0, 
        },
        "finite_element_1": {
            "cell_shape": 1, 
            "space_dimension": 3, 
            "value_rank": 0, 
            "evaluate_basis:_0": [1.1711548919854349e+00], 
            "evaluate_basis:_1": [3.1483042736603489e-01], 
            "evaluate_basis:_2": [-4.8598529644994226e-01], 
            "evaluate_basis_all": [1.1711548919854349e+00, 3.1483042736603489e-01, -4.8598529644994226e-01, 0.0, 0.0, 0.0, 0.0, 0.0, 0.0, 0.0, 0.0, 0.0, 0.0, 0.0, 0.0, 0.0, 0.0, 0.0, 0.0, 0.0, 0.0, 0.0, 0.0, 0.0, 0.0, 0.0, 0.0], 
            "evaluate_basis_derivatives_0_0": [1.1711548919854349e+00], 
            "evaluate_basis_derivatives_0_1": [3.5264010173782212e-01, -2.2219664705216262e+00, 1.7861873459359412e-01], 
            "evaluate_basis_derivatives_0_2": [0.0, 0.0, 0.0, 0.0, 0.0, 0.0, 0.0, 0.0, 0.0], 
            "evaluate_basis_derivatives_1_0": [3.1483042736603489e-01], 
            "evaluate_basis_derivatives_1_1": [-8.4414409792568124e-01, 7.7231405274773224e-01, 1.0167471251814886e+00], 
            "evaluate_basis_derivatives_1_2": [0.0, 0.0, 0.0, 0.0, 0.0, 0.0, 0.0, 0.0, 0.0], 
            "evaluate_basis_derivatives_2_0": [-4.8598529644994226e-01], 
            "evaluate_basis_derivatives_2_1": [4.9150398144273955e-01, 1.4496523742843226e+00, -1.1953658239141081e+00], 
            "evaluate_basis_derivatives_2_2": [0.0, 0.0, 0.0, 0.0, 0.0, 0.0, 0.0, 0.0, 0.0], 
            "evaluate_basis_derivatives_all_0": [1.1711548919854349e+00, 3.1483042736603489e-01, -4.8598529644994226e-01], 
            "evaluate_basis_derivatives_all_1": [3.5264010173782212e-01, -2.2219664705216262e+00, 1.7861873459359412e-01, -8.4414409792568124e-01, 7.7231405274773224e-01, 1.0167471251814886e+00, 4.9150398144273955e-01, 1.4496523742843226e+00, -1.1953658239141081e+00], 
            "evaluate_basis_derivatives_all_2": [0.0, 0.0, 0.0, 0.0, 0.0, 0.0, 0.0, 0.0, 0.0, 0.0, 0.0, 0.0, 0.0, 0.0, 0.0, 0.0, 0.0, 0.0, 0.0, 0.0, 0.0, 0.0, 0.0, 0.0, 0.0, 0.0, 0.0], 
            "evaluate_dof_0": 1.4072081100000003e-01, 
            "evaluate_dof_1": 3.5842907099999999e-01, 
            "evaluate_dof_2": 1.4760881100000001e-01, 
            "evaluate_dofs": [1.4072081100000003e-01, 3.5842907099999999e-01, 1.4760881100000001e-01], 
            "interpolate_vertex_values": [1.4072081100000003e-01, 3.5842907099999999e-01, 1.4760881100000001e-01], 
            "tabulate_dof_coordinates": [9.0300000000000002e-01, 3.4100000000000003e-01, 4.5700000000000002e-01, 5.6100000000000005e-01, 7.6700000000000002e-01, 8.3299999999999996e-01, 9.8699999999999999e-01, 7.8300000000000003e-01, 1.9100000000000000e-01], 
            "num_sub_elements": 0, 
        },
        "finite_element_2": {
            "cell_shape": 1, 
            "space_dimension": 3, 
            "value_rank": 0, 
            "evaluate_basis:_0": [1.1711548919854349e+00], 
            "evaluate_basis:_1": [3.1483042736603489e-01], 
            "evaluate_basis:_2": [-4.8598529644994226e-01], 
            "evaluate_basis_all": [1.1711548919854349e+00, 3.1483042736603489e-01, -4.8598529644994226e-01, 0.0, 0.0, 0.0, 0.0, 0.0, 0.0, 0.0, 0.0, 0.0, 0.0, 0.0, 0.0, 0.0, 0.0, 0.0, 0.0, 0.0, 0.0, 0.0, 0.0, 0.0, 0.0, 0.0, 0.0], 
            "evaluate_basis_derivatives_0_0": [1.1711548919854349e+00], 
            "evaluate_basis_derivatives_0_1": [3.5264010173782212e-01, -2.2219664705216262e+00, 1.7861873459359412e-01], 
            "evaluate_basis_derivatives_0_2": [0.0, 0.0, 0.0, 0.0, 0.0, 0.0, 0.0, 0.0, 0.0], 
            "evaluate_basis_derivatives_1_0": [3.1483042736603489e-01], 
            "evaluate_basis_derivatives_1_1": [-8.4414409792568124e-01, 7.7231405274773224e-01, 1.0167471251814886e+00], 
            "evaluate_basis_derivatives_1_2": [0.0, 0.0, 0.0, 0.0, 0.0, 0.0, 0.0, 0.0, 0.0], 
            "evaluate_basis_derivatives_2_0": [-4.8598529644994226e-01], 
            "evaluate_basis_derivatives_2_1": [4.9150398144273955e-01, 1.4496523742843226e+00, -1.1953658239141081e+00], 
            "evaluate_basis_derivatives_2_2": [0.0, 0.0, 0.0, 0.0, 0.0, 0.0, 0.0, 0.0, 0.0], 
            "evaluate_basis_derivatives_all_0": [1.1711548919854349e+00, 3.1483042736603489e-01, -4.8598529644994226e-01], 
            "evaluate_basis_derivatives_all_1": [3.5264010173782212e-01, -2.2219664705216262e+00, 1.7861873459359412e-01, -8.4414409792568124e-01, 7.7231405274773224e-01, 1.0167471251814886e+00, 4.9150398144273955e-01, 1.4496523742843226e+00, -1.1953658239141081e+00], 
            "evaluate_basis_derivatives_all_2": [0.0, 0.0, 0.0, 0.0, 0.0, 0.0, 0.0, 0.0, 0.0, 0.0, 0.0, 0.0, 0.0, 0.0, 0.0, 0.0, 0.0, 0.0, 0.0, 0.0, 0.0, 0.0, 0.0, 0.0, 0.0, 0.0, 0.0], 
            "evaluate_dof_0": 1.4072081100000003e-01, 
            "evaluate_dof_1": 3.5842907099999999e-01, 
            "evaluate_dof_2": 1.4760881100000001e-01, 
            "evaluate_dofs": [1.4072081100000003e-01, 3.5842907099999999e-01, 1.4760881100000001e-01], 
            "interpolate_vertex_values": [1.4072081100000003e-01, 3.5842907099999999e-01, 1.4760881100000001e-01], 
            "tabulate_dof_coordinates": [9.0300000000000002e-01, 3.4100000000000003e-01, 4.5700000000000002e-01, 5.6100000000000005e-01, 7.6700000000000002e-01, 8.3299999999999996e-01, 9.8699999999999999e-01, 7.8300000000000003e-01, 1.9100000000000000e-01], 
            "num_sub_elements": 0, 
        },
    },
}
