{
    "form_0": {
        "rank": 2, 
        "num_coefficients": 0, 
        "has_cell_integrals": 0, 
        "has_exterior_facet_integrals": 1, 
        "has_interior_facet_integrals": 1, 
        "has_vertex_integrals": 0, 
        "max_cell_subdomain_id": 0, 
        "max_exterior_facet_subdomain_id": 0, 
        "max_interior_facet_subdomain_id": 0, 
        "max_vertex_subdomain_id": 0, 
        "finite_element_0": {
            "cell_shape": 1, 
            "space_dimension": 3, 
            "value_rank": 0, 
            "evaluate_basis:_0": [1.4718852622922434e+00], 
            "evaluate_basis:_1": [2.0266705413493233e+00], 
            "evaluate_basis:_2": [-2.4985557203629258e+00], 
            "evaluate_basis_all": [1.4718852622922434e+00, 2.0266705413493233e+00, -2.4985557203629258e+00, 0.0, 0.0, 0.0, 0.0, 0.0, 0.0, 0.0, 0.0, 0.0], 
            "evaluate_basis_derivatives_0_0": [1.4718852622922434e+00], 
            "evaluate_basis_derivatives_0_1": [8.5585277568607676e-02, -2.2787085025842555e+00], 
            "evaluate_basis_derivatives_0_2": [0.0, 0.0, 0.0, 0.0], 
            "evaluate_basis_derivatives_1_0": [2.0266705413493233e+00], 
            "evaluate_basis_derivatives_1_1": [-2.3642938479375970e+00, 4.4932274890774304e-01], 
            "evaluate_basis_derivatives_1_2": [0.0, 0.0, 0.0, 0.0], 
            "evaluate_basis_derivatives_2_0": [-2.4985557203629258e+00], 
            "evaluate_basis_derivatives_2_1": [2.2787085020077340e+00, 1.8293856987949413e+00], 
            "evaluate_basis_derivatives_2_2": [0.0, 0.0, 0.0, 0.0], 
            "evaluate_basis_derivatives_all_0": [1.4718852622922434e+00, 2.0266705413493233e+00, -2.4985557203629258e+00], 
            "evaluate_basis_derivatives_all_1": [8.5585277568607676e-02, -2.2787085025842555e+00, -2.3642938479375970e+00, 4.4932274890774304e-01, 2.2787085020077340e+00, 1.8293856987949413e+00], 
            "evaluate_basis_derivatives_all_2": [0.0, 0.0, 0.0, 0.0, 0.0, 0.0, 0.0, 0.0, 0.0, 0.0, 0.0, 0.0], 
            "evaluate_dof_0": 3.0792300000000006e-01, 
            "evaluate_dof_1": 4.3028700000000003e-01, 
            "evaluate_dof_2": 7.7282099999999998e-01, 
            "evaluate_dofs": [3.0792300000000006e-01, 4.3028700000000003e-01, 7.7282099999999998e-01], 
            "interpolate_vertex_values": [3.0792300000000006e-01, 4.3028700000000003e-01, 7.7282099999999998e-01], 
            "tabulate_dof_coordinates": [9.0300000000000002e-01, 3.4100000000000003e-01, 5.6100000000000005e-01, 7.6700000000000002e-01, 9.8699999999999999e-01, 7.8300000000000003e-01], 
            "num_sub_elements": 0, 
        },
        "finite_element_1": {
            "cell_shape": 1, 
            "space_dimension": 3, 
            "value_rank": 0, 
            "evaluate_basis:_0": [1.4718852622922434e+00], 
            "evaluate_basis:_1": [2.0266705413493233e+00], 
            "evaluate_basis:_2": [-2.4985557203629258e+00], 
            "evaluate_basis_all": [1.4718852622922434e+00, 2.0266705413493233e+00, -2.4985557203629258e+00, 0.0, 0.0, 0.0, 0.0, 0.0, 0.0, 0.0, 0.0, 0.0], 
            "evaluate_basis_derivatives_0_0": [1.4718852622922434e+00], 
            "evaluate_basis_derivatives_0_1": [8.5585277568607676e-02, -2.2787085025842555e+00], 
            "evaluate_basis_derivatives_0_2": [0.0, 0.0, 0.0, 0.0], 
            "evaluate_basis_derivatives_1_0": [2.0266705413493233e+00], 
            "evaluate_basis_derivatives_1_1": [-2.3642938479375970e+00, 4.4932274890774304e-01], 
            "evaluate_basis_derivatives_1_2": [0.0, 0.0, 0.0, 0.0], 
            "evaluate_basis_derivatives_2_0": [-2.4985557203629258e+00], 
            "evaluate_basis_derivatives_2_1": [2.2787085020077340e+00, 1.8293856987949413e+00], 
            "evaluate_basis_derivatives_2_2": [0.0, 0.0, 0.0, 0.0], 
            "evaluate_basis_derivatives_all_0": [1.4718852622922434e+00, 2.0266705413493233e+00, -2.4985557203629258e+00], 
            "evaluate_basis_derivatives_all_1": [8.5585277568607676e-02, -2.2787085025842555e+00, -2.3642938479375970e+00, 4.4932274890774304e-01, 2.2787085020077340e+00, 1.8293856987949413e+00], 
            "evaluate_basis_derivatives_all_2": [0.0, 0.0, 0.0, 0.0, 0.0, 0.0, 0.0, 0.0, 0.0, 0.0, 0.0, 0.0], 
            "evaluate_dof_0": 3.0792300000000006e-01, 
            "evaluate_dof_1": 4.3028700000000003e-01, 
            "evaluate_dof_2": 7.7282099999999998e-01, 
            "evaluate_dofs": [3.0792300000000006e-01, 4.3028700000000003e-01, 7.7282099999999998e-01], 
            "interpolate_vertex_values": [3.0792300000000006e-01, 4.3028700000000003e-01, 7.7282099999999998e-01], 
            "tabulate_dof_coordinates": [9.0300000000000002e-01, 3.4100000000000003e-01, 5.6100000000000005e-01, 7.6700000000000002e-01, 9.8699999999999999e-01, 7.8300000000000003e-01], 
            "num_sub_elements": 0, 
        },
        "dofmap_0": {
            "needs_mesh_entities_0": 0, 
            "needs_mesh_entities_1": 0, 
            "needs_mesh_entities_2": 1, 
            "global_dimension": 30009, 
            "num_element_dofs": 3, 
            "num_facet_dofs": 0, 
            "num_entity_dofs_0": 0, 
            "num_entity_dofs_1": 0, 
            "num_entity_dofs_2": 3, 
            "tabulate_dofs": [0, 1, 2], 
            "tabulate_facet_dofs_0": [], 
            "tabulate_facet_dofs_1": [], 
            "tabulate_facet_dofs_2": [], 
            "tabulate_entity_dofs_0_0": [], 
            "tabulate_entity_dofs_0_1": [], 
            "tabulate_entity_dofs_0_2": [], 
            "tabulate_entity_dofs_1_0": [], 
            "tabulate_entity_dofs_1_1": [], 
            "tabulate_entity_dofs_1_2": [], 
            "tabulate_entity_dofs_2_0": [0, 1, 2], 
            "num_sub_dofmaps": 0, 
        },
        "dofmap_1": {
            "needs_mesh_entities_0": 0, 
            "needs_mesh_entities_1": 0, 
            "needs_mesh_entities_2": 1, 
            "global_dimension": 30009, 
            "num_element_dofs": 3, 
            "num_facet_dofs": 0, 
            "num_entity_dofs_0": 0, 
            "num_entity_dofs_1": 0, 
            "num_entity_dofs_2": 3, 
            "tabulate_dofs": [0, 1, 2], 
            "tabulate_facet_dofs_0": [], 
            "tabulate_facet_dofs_1": [], 
            "tabulate_facet_dofs_2": [], 
            "tabulate_entity_dofs_0_0": [], 
            "tabulate_entity_dofs_0_1": [], 
            "tabulate_entity_dofs_0_2": [], 
            "tabulate_entity_dofs_1_0": [], 
            "tabulate_entity_dofs_1_1": [], 
            "tabulate_entity_dofs_1_2": [], 
            "tabulate_entity_dofs_2_0": [0, 1, 2], 
            "num_sub_dofmaps": 0, 
        },
        "default_cell_integral": 0, 
        "default_exterior_facet_integral": 1, 
        "exterior_facet_integral": {
            "tabulate_tensor_0": [0.0, 0.0, 0.0, 0.0, 1.4210012006695613e-01, 7.1050061729822978e-02, 0.0, 7.1050061729822978e-02, 1.4210012006695613e-01], 
            "tabulate_tensor_1": [1.4997036624987742e-01, 0.0, 7.4985184915236064e-02, 0.0, 0.0, 0.0, 7.4985184915236064e-02, 0.0, 1.4997036624987742e-01], 
            "tabulate_tensor_2": [1.8209887279221595e-01, 9.1049438569944963e-02, 0.0, 9.1049438569944963e-02, 1.8209887279221595e-01, 0.0, 0.0, 0.0, 0.0], 
        },
        "default_interior_facet_integral": 1, 
        "interior_facet_integral": {
            "tabulate_tensor_0_0": [0.0, -2.4302479833964521e-01, -2.4302479833964521e-01, 0.0, 2.4302479833964521e-01, 2.4302479833964521e-01, -2.4302479833964521e-01, 1.1462010826540005e-01, 2.4302479833964521e-01, 2.4302479833964519e-01, -2.4302479833964513e-01, -1.1462010826539998e-01, -2.4302479833964521e-01, 2.4302479833964521e-01, 3.7142948841389040e-01, 2.4302479833964519e-01, -3.7142948841389045e-01, -2.4302479833964527e-01, 0.0, 2.4302479833964519e-01, 2.4302479833964519e-01, 0.0, -2.4302479833964513e-01, -2.4302479833964513e-01, 2.4302479833964521e-01, -1.0092467827268900e-01, -3.0037942668406747e-01, -2.4302479833964513e-01, 3.7142948841389040e-01, 2.4302479833964513e-01, 2.4302479833964521e-01, -4.3570046535576994e-02, -1.0092467827268914e-01, -2.4302479833964513e-01, 2.4302479833964513e-01, 1.1462010826539988e-01], 
            "tabulate_tensor_0_1": [0.0, -2.4302479833964521e-01, -2.4302479833964521e-01, 2.4302479833964521e-01, 0.0, 2.4302479833964521e-01, -2.4302479833964521e-01, 1.1462010826540005e-01, 2.4302479833964521e-01, -2.4302479833964513e-01, 2.4302479833964519e-01, -1.1462010826540001e-01, -2.4302479833964521e-01, 2.4302479833964521e-01, 3.7142948841389040e-01, -3.7142948841389040e-01, 2.4302479833964519e-01, -2.4302479833964524e-01, 2.4302479833964521e-01, -1.0092467827268900e-01, -3.0037942668406742e-01, 3.7142948841389040e-01, -2.4302479833964519e-01, 2.4302479833964519e-01, 0.0, 2.4302479833964519e-01, 2.4302479833964519e-01, -2.4302479833964519e-01, 0.0, -2.4302479833964519e-01, 2.4302479833964521e-01, -4.3570046535577035e-02, -1.0092467827268911e-01, 2.4302479833964519e-01, -2.4302479833964519e-01, 1.1462010826539998e-01], 
            "tabulate_tensor_0_2": [0.0, -2.4302479833964521e-01, -2.4302479833964521e-01, 2.4302479833964521e-01, 2.4302479833964521e-01, 0.0, -2.4302479833964521e-01, 1.1462010826540005e-01, 2.4302479833964521e-01, -2.4302479833964516e-01, -1.1462010826540001e-01, 2.4302479833964519e-01, -2.4302479833964521e-01, 2.4302479833964521e-01, 3.7142948841389040e-01, -3.7142948841389040e-01, -2.4302479833964524e-01, 2.4302479833964519e-01, 2.4302479833964521e-01, -1.0092467827268903e-01, -3.0037942668406742e-01, 3.7142948841389040e-01, 2.4302479833964519e-01, -2.4302479833964519e-01, 2.4302479833964521e-01, -4.3570046535577028e-02, -1.0092467827268911e-01, 2.4302479833964519e-01, 1.1462010826539998e-01, -2.4302479833964519e-01, 0.0, 2.4302479833964519e-01, 2.4302479833964519e-01, -2.4302479833964519e-01, -2.4302479833964519e-01, 0.0], 
            "tabulate_tensor_1_0": [1.1462010826539998e-01, -2.7069024541583758e-01, 2.7069024541583758e-01, 2.7069024541583742e-01, -2.7069024541583742e-01, -1.1462010826540003e-01, -2.7069024541583758e-01, 0.0, -2.7069024541583758e-01, 0.0, 2.7069024541583758e-01, 2.7069024541583758e-01, 2.7069024541583758e-01, -2.7069024541583758e-01, 4.2676038256627519e-01, 2.7069024541583742e-01, -4.2676038256627497e-01, -2.7069024541583758e-01, 2.7069024541583742e-01, 0.0, 2.7069024541583742e-01, 0.0, -2.7069024541583747e-01, -2.7069024541583747e-01, -1.2071987916596000e-01, 2.7069024541583758e-01, -3.5177519765103893e-01, -2.7069024541583747e-01, 4.2676038256627480e-01, 2.7069024541583747e-01, -3.9634923350163942e-02, 2.7069024541583758e-01, -1.2071987916596016e-01, -2.7069024541583747e-01, 2.7069024541583747e-01, 1.1462010826540012e-01], 
            "tabulate_tensor_1_1": [1.1462010826539998e-01, -2.7069024541583758e-01, 2.7069024541583758e-01, -2.7069024541583742e-01, 2.7069024541583747e-01, -1.1462010826540001e-01, -2.7069024541583758e-01, 0.0, -2.7069024541583758e-01, 2.7069024541583758e-01, 0.0, 2.7069024541583758e-01, 2.7069024541583758e-01, -2.7069024541583758e-01, 4.2676038256627519e-01, -4.2676038256627502e-01, 2.7069024541583747e-01, -2.7069024541583764e-01, -1.2071987916596000e-01, 2.7069024541583758e-01, -3.5177519765103898e-01, 4.2676038256627491e-01, -2.7069024541583747e-01, 2.7069024541583747e-01, 2.7069024541583747e-01, 0.0, 2.7069024541583747e-01, -2.7069024541583747e-01, 0.0, -2.7069024541583747e-01, -3.9634923350163942e-02, 2.7069024541583758e-01, -1.2071987916596019e-01, 2.7069024541583747e-01, -2.7069024541583747e-01, 1.1462010826540003e-01], 
            "tabulate_tensor_1_2": [1.1462010826539998e-01, -2.7069024541583758e-01, 2.7069024541583758e-01, -2.7069024541583742e-01, -1.1462010826540001e-01, 2.7069024541583747e-01, -2.7069024541583758e-01, 0.0, -2.7069024541583758e-01, 2.7069024541583758e-01, 2.7069024541583758e-01, 0.0, 2.7069024541583758e-01, -2.7069024541583758e-01, 4.2676038256627519e-01, -4.2676038256627508e-01, -2.7069024541583764e-01, 2.7069024541583747e-01, -1.2071987916596000e-01, 2.7069024541583758e-01, -3.5177519765103898e-01, 4.2676038256627491e-01, 2.7069024541583747e-01, -2.7069024541583747e-01, -3.9634923350163942e-02, 2.7069024541583758e-01, -1.2071987916596019e-01, 2.7069024541583747e-01, 1.1462010826540003e-01, -2.7069024541583747e-01, 2.7069024541583747e-01, 0.0, 2.7069024541583747e-01, -2.7069024541583747e-01, -2.7069024541583747e-01, 0.0], 
            "tabulate_tensor_2_0": [3.7142948841389034e-01, 3.9909493549008279e-01, -3.9909493549008279e-01, 3.9909493549008268e-01, -3.9909493549008263e-01, -3.7142948841389040e-01, 3.9909493549008279e-01, 4.2676038256627524e-01, -3.9909493549008279e-01, 3.9909493549008268e-01, -4.2676038256627508e-01, -3.9909493549008285e-01, -3.9909493549008279e-01, -3.9909493549008279e-01, 0.0, 0.0, 3.9909493549008279e-01, 3.9909493549008279e-01, 3.9909493549008268e-01, 3.9909493549008268e-01, 0.0, 0.0, -3.9909493549008268e-01, -3.9909493549008268e-01, -2.1699606269786667e-01, -3.3571094399633011e-01, 3.9909493549008279e-01, -3.9909493549008268e-01, 4.2676038256627491e-01, 3.9909493549008268e-01, -2.8038004984394543e-01, -2.1699606269786689e-01, 3.9909493549008279e-01, -3.9909493549008268e-01, 3.9909493549008268e-01, 3.7142948841389051e-01], 
            "tabulate_tensor_2_1": [3.7142948841389034e-01, 3.9909493549008279e-01, -3.9909493549008279e-01, -3.9909493549008268e-01, 3.9909493549008268e-01, -3.7142948841389045e-01, 3.9909493549008279e-01, 4.2676038256627524e-01, -3.9909493549008279e-01, -4.2676038256627513e-01, 3.9909493549008268e-01, -3.9909493549008290e-01, -3.9909493549008279e-01, -3.9909493549008279e-01, 0.0, 3.9909493549008290e-01, 0.0, 3.9909493549008290e-01, -2.1699606269786675e-01, -3.3571094399633017e-01, 3.9909493549008290e-01, 4.2676038256627502e-01, -3.9909493549008279e-01, 3.9909493549008279e-01, 3.9909493549008268e-01, 3.9909493549008268e-01, 0.0, -3.9909493549008279e-01, 0.0, -3.9909493549008279e-01, -2.8038004984394549e-01, -2.1699606269786692e-01, 3.9909493549008290e-01, 3.9909493549008279e-01, -3.9909493549008279e-01, 3.7142948841389056e-01], 
            "tabulate_tensor_2_2": [3.7142948841389034e-01, 3.9909493549008279e-01, -3.9909493549008279e-01, -3.9909493549008268e-01, -3.7142948841389045e-01, 3.9909493549008268e-01, 3.9909493549008279e-01, 4.2676038256627524e-01, -3.9909493549008279e-01, -4.2676038256627513e-01, -3.9909493549008290e-01, 3.9909493549008268e-01, -3.9909493549008279e-01, -3.9909493549008279e-01, 0.0, 3.9909493549008290e-01, 3.9909493549008290e-01, 0.0, -2.1699606269786675e-01, -3.3571094399633017e-01, 3.9909493549008290e-01, 4.2676038256627502e-01, 3.9909493549008279e-01, -3.9909493549008279e-01, -2.8038004984394549e-01, -2.1699606269786695e-01, 3.9909493549008290e-01, 3.9909493549008279e-01, 3.7142948841389056e-01, -3.9909493549008279e-01, 3.9909493549008268e-01, 3.9909493549008268e-01, 0.0, -3.9909493549008279e-01, -3.9909493549008279e-01, 0.0], 
        },
        "default_vertex_integral": 0, 
    },
}
