{
    "form_0": {
        "rank": 2, 
        "num_coefficients": 0, 
        "has_cell_integrals": 1, 
        "has_exterior_facet_integrals": 0, 
        "has_interior_facet_integrals": 0, 
        "has_vertex_integrals": 0, 
        "max_cell_subdomain_id": 0, 
        "max_exterior_facet_subdomain_id": 0, 
        "max_interior_facet_subdomain_id": 0, 
        "max_vertex_subdomain_id": 0, 
        "finite_element_0": {
            "cell_shape": 1, 
            "space_dimension": 6, 
            "value_rank": 1, 
            "value_dimension_0": 2, 
            "evaluate_basis:_0": [1.4718852622922434e+00, 0.0], 
            "evaluate_basis:_1": [2.0266705413493233e+00, 0.0], 
            "evaluate_basis:_2": [-2.4985557203629258e+00, 0.0], 
            "evaluate_basis:_3": [0.0, 1.4718852622922434e+00], 
            "evaluate_basis:_4": [0.0, 2.0266705413493233e+00], 
            "evaluate_basis:_5": [0.0, -2.4985557203629258e+00], 
            "evaluate_basis_all": [1.4718852622922434e+00, 0.0, 2.0266705413493233e+00, 0.0, -2.4985557203629258e+00, 0.0, 0.0, 1.4718852622922434e+00, 0.0, 2.0266705413493233e+00, 0.0, -2.4985557203629258e+00, 0.0, 0.0, 0.0, 0.0, 0.0, 0.0, 0.0, 0.0, 0.0, 0.0, 0.0, 0.0, 0.0, 0.0, 0.0, 0.0, 0.0, 0.0, 0.0, 0.0, 0.0, 0.0, 0.0, 0.0, 0.0, 0.0, 0.0, 0.0, 0.0, 0.0, 0.0, 0.0, 0.0, 0.0, 0.0, 0.0], 
            "evaluate_basis_derivatives_0_0": [1.4718852622922434e+00, 0.0], 
            "evaluate_basis_derivatives_0_1": [8.5585277568607676e-02, -2.2787085025842555e+00, 0.0, 0.0], 
            "evaluate_basis_derivatives_0_2": [0.0, 0.0, 0.0, 0.0, 0.0, 0.0, 0.0, 0.0], 
            "evaluate_basis_derivatives_1_0": [2.0266705413493233e+00, 0.0], 
            "evaluate_basis_derivatives_1_1": [-2.3642938479375970e+00, 4.4932274890774304e-01, 0.0, 0.0], 
            "evaluate_basis_derivatives_1_2": [0.0, 0.0, 0.0, 0.0, 0.0, 0.0, 0.0, 0.0], 
            "evaluate_basis_derivatives_2_0": [-2.4985557203629258e+00, 0.0], 
            "evaluate_basis_derivatives_2_1": [2.2787085020077340e+00, 1.8293856987949413e+00, 0.0, 0.0], 
            "evaluate_basis_derivatives_2_2": [0.0, 0.0, 0.0, 0.0, 0.0, 0.0, 0.0, 0.0], 
            "evaluate_basis_derivatives_3_0": [0.0, 1.4718852622922434e+00], 
            "evaluate_basis_derivatives_3_1": [0.0, 0.0, 8.5585277568607676e-02, -2.2787085025842555e+00], 
            "evaluate_basis_derivatives_3_2": [0.0, 0.0, 0.0, 0.0, 0.0, 0.0, 0.0, 0.0], 
            "evaluate_basis_derivatives_4_0": [0.0, 2.0266705413493233e+00], 
            "evaluate_basis_derivatives_4_1": [0.0, 0.0, -2.3642938479375970e+00, 4.4932274890774304e-01], 
            "evaluate_basis_derivatives_4_2": [0.0, 0.0, 0.0, 0.0, 0.0, 0.0, 0.0, 0.0], 
            "evaluate_basis_derivatives_5_0": [0.0, -2.4985557203629258e+00], 
            "evaluate_basis_derivatives_5_1": [0.0, 0.0, 2.2787085020077340e+00, 1.8293856987949413e+00], 
            "evaluate_basis_derivatives_5_2": [0.0, 0.0, 0.0, 0.0, 0.0, 0.0, 0.0, 0.0], 
            "evaluate_basis_derivatives_all_0": [1.4718852622922434e+00, 0.0, 2.0266705413493233e+00, 0.0, -2.4985557203629258e+00, 0.0, 0.0, 1.4718852622922434e+00, 0.0, 2.0266705413493233e+00, 0.0, -2.4985557203629258e+00], 
            "evaluate_basis_derivatives_all_1": [8.5585277568607676e-02, -2.2787085025842555e+00, 0.0, 0.0, -2.3642938479375970e+00, 4.4932274890774304e-01, 0.0, 0.0, 2.2787085020077340e+00, 1.8293856987949413e+00, 0.0, 0.0, 0.0, 0.0, 8.5585277568607676e-02, -2.2787085025842555e+00, 0.0, 0.0, -2.3642938479375970e+00, 4.4932274890774304e-01, 0.0, 0.0, 2.2787085020077340e+00, 1.8293856987949413e+00], 
            "evaluate_basis_derivatives_all_2": [0.0, 0.0, 0.0, 0.0, 0.0, 0.0, 0.0, 0.0, 0.0, 0.0, 0.0, 0.0, 0.0, 0.0, 0.0, 0.0, 0.0, 0.0, 0.0, 0.0, 0.0, 0.0, 0.0, 0.0, 0.0, 0.0, 0.0, 0.0, 0.0, 0.0, 0.0, 0.0, 0.0, 0.0, 0.0, 0.0, 0.0, 0.0, 0.0, 0.0, 0.0, 0.0, 0.0, 0.0, 0.0, 0.0, 0.0, 0.0], 
            "evaluate_dof_0": 3.0792300000000006e-01, 
            "evaluate_dof_1": 4.3028700000000003e-01, 
            "evaluate_dof_2": 7.7282099999999998e-01, 
            "evaluate_dof_3": 1.2316920000000002e+00, 
            "evaluate_dof_4": 1.7211480000000001e+00, 
            "evaluate_dof_5": 3.0912839999999999e+00, 
            "evaluate_dofs": [3.0792300000000006e-01, 4.3028700000000003e-01, 7.7282099999999998e-01, 1.2316920000000002e+00, 1.7211480000000001e+00, 3.0912839999999999e+00], 
            "interpolate_vertex_values": [3.0792300000000006e-01, 1.2316920000000002e+00, 4.3028700000000003e-01, 1.7211480000000001e+00, 7.7282099999999998e-01, 3.0912839999999999e+00], 
            "tabulate_dof_coordinates": [9.0300000000000002e-01, 3.4100000000000003e-01, 5.6100000000000005e-01, 7.6700000000000002e-01, 9.8699999999999999e-01, 7.8300000000000003e-01, 9.0300000000000002e-01, 3.4100000000000003e-01, 5.6100000000000005e-01, 7.6700000000000002e-01, 9.8699999999999999e-01, 7.8300000000000003e-01], 
            "num_sub_elements": 2, 
            "finite_element_0": {
                "cell_shape": 1, 
                "space_dimension": 3, 
                "value_rank": 0, 
                "evaluate_basis:_0": [1.4718852622922434e+00], 
                "evaluate_basis:_1": [2.0266705413493233e+00], 
                "evaluate_basis:_2": [-2.4985557203629258e+00], 
                "evaluate_basis_all": [1.4718852622922434e+00, 2.0266705413493233e+00, -2.4985557203629258e+00, 0.0, 0.0, 0.0, 0.0, 0.0, 0.0, 0.0, 0.0, 0.0], 
                "evaluate_basis_derivatives_0_0": [1.4718852622922434e+00], 
                "evaluate_basis_derivatives_0_1": [8.5585277568607676e-02, -2.2787085025842555e+00], 
                "evaluate_basis_derivatives_0_2": [0.0, 0.0, 0.0, 0.0], 
                "evaluate_basis_derivatives_1_0": [2.0266705413493233e+00], 
                "evaluate_basis_derivatives_1_1": [-2.3642938479375970e+00, 4.4932274890774304e-01], 
                "evaluate_basis_derivatives_1_2": [0.0, 0.0, 0.0, 0.0], 
                "evaluate_basis_derivatives_2_0": [-2.4985557203629258e+00], 
                "evaluate_basis_derivatives_2_1": [2.2787085020077340e+00, 1.8293856987949413e+00], 
                "evaluate_basis_derivatives_2_2": [0.0, 0.0, 0.0, 0.0], 
                "evaluate_basis_derivatives_all_0": [1.4718852622922434e+00, 2.0266705413493233e+00, -2.4985557203629258e+00], 
                "evaluate_basis_derivatives_all_1": [8.5585277568607676e-02, -2.2787085025842555e+00, -2.3642938479375970e+00, 4.4932274890774304e-01, 2.2787085020077340e+00, 1.8293856987949413e+00], 
                "evaluate_basis_derivatives_all_2": [0.0, 0.0, 0.0, 0.0, 0.0, 0.0, 0.0, 0.0, 0.0, 0.0, 0.0, 0.0], 
                "evaluate_dof_0": 3.0792300000000006e-01, 
                "evaluate_dof_1": 4.3028700000000003e-01, 
                "evaluate_dof_2": 7.7282099999999998e-01, 
                "evaluate_dofs": [3.0792300000000006e-01, 4.3028700000000003e-01, 7.7282099999999998e-01], 
                "interpolate_vertex_values": [3.0792300000000006e-01, 4.3028700000000003e-01, 7.7282099999999998e-01], 
                "tabulate_dof_coordinates": [9.0300000000000002e-01, 3.4100000000000003e-01, 5.6100000000000005e-01, 7.6700000000000002e-01, 9.8699999999999999e-01, 7.8300000000000003e-01], 
                "num_sub_elements": 0, 
            },
            "finite_element_1": {
                "cell_shape": 1, 
                "space_dimension": 3, 
                "value_rank": 0, 
                "evaluate_basis:_0": [1.4718852622922434e+00], 
                "evaluate_basis:_1": [2.0266705413493233e+00], 
                "evaluate_basis:_2": [-2.4985557203629258e+00], 
                "evaluate_basis_all": [1.4718852622922434e+00, 2.0266705413493233e+00, -2.4985557203629258e+00, 0.0, 0.0, 0.0, 0.0, 0.0, 0.0, 0.0, 0.0, 0.0], 
                "evaluate_basis_derivatives_0_0": [1.4718852622922434e+00], 
                "evaluate_basis_derivatives_0_1": [8.5585277568607676e-02, -2.2787085025842555e+00], 
                "evaluate_basis_derivatives_0_2": [0.0, 0.0, 0.0, 0.0], 
                "evaluate_basis_derivatives_1_0": [2.0266705413493233e+00], 
                "evaluate_basis_derivatives_1_1": [-2.3642938479375970e+00, 4.4932274890774304e-01], 
                "evaluate_basis_derivatives_1_2": [0.0, 0.0, 0.0, 0.0], 
                "evaluate_basis_derivatives_2_0": [-2.4985557203629258e+00], 
                "evaluate_basis_derivatives_2_1": [2.2787085020077340e+00, 1.8293856987949413e+00], 
                "evaluate_basis_derivatives_2_2": [0.0, 0.0, 0.0, 0.0], 
                "evaluate_basis_derivatives_all_0": [1.4718852622922434e+00, 2.0266705413493233e+00, -2.4985557203629258e+00], 
                "evaluate_basis_derivatives_all_1": [8.5585277568607676e-02, -2.2787085025842555e+00, -2.3642938479375970e+00, 4.4932274890774304e-01, 2.2787085020077340e+00, 1.8293856987949413e+00], 
                "evaluate_basis_derivatives_all_2": [0.0, 0.0, 0.0, 0.0, 0.0, 0.0, 0.0, 0.0, 0.0, 0.0, 0.0, 0.0], 
                "evaluate_dof_0": 3.0792300000000006e-01, 
                "evaluate_dof_1": 4.3028700000000003e-01, 
                "evaluate_dof_2": 7.7282099999999998e-01, 
                "evaluate_dofs": [3.0792300000000006e-01, 4.3028700000000003e-01, 7.7282099999999998e-01], 
                "interpolate_vertex_values": [3.0792300000000006e-01, 4.3028700000000003e-01, 7.7282099999999998e-01], 
                "tabulate_dof_coordinates": [9.0300000000000002e-01, 3.4100000000000003e-01, 5.6100000000000005e-01, 7.6700000000000002e-01, 9.8699999999999999e-01, 7.8300000000000003e-01], 
                "num_sub_elements": 0, 
            },
        },
        "finite_element_1": {
            "cell_shape": 1, 
            "space_dimension": 6, 
            "value_rank": 1, 
            "value_dimension_0": 2, 
            "evaluate_basis:_0": [1.4718852622922434e+00, 0.0], 
            "evaluate_basis:_1": [2.0266705413493233e+00, 0.0], 
            "evaluate_basis:_2": [-2.4985557203629258e+00, 0.0], 
            "evaluate_basis:_3": [0.0, 1.4718852622922434e+00], 
            "evaluate_basis:_4": [0.0, 2.0266705413493233e+00], 
            "evaluate_basis:_5": [0.0, -2.4985557203629258e+00], 
            "evaluate_basis_all": [1.4718852622922434e+00, 0.0, 2.0266705413493233e+00, 0.0, -2.4985557203629258e+00, 0.0, 0.0, 1.4718852622922434e+00, 0.0, 2.0266705413493233e+00, 0.0, -2.4985557203629258e+00, 0.0, 0.0, 0.0, 0.0, 0.0, 0.0, 0.0, 0.0, 0.0, 0.0, 0.0, 0.0, 0.0, 0.0, 0.0, 0.0, 0.0, 0.0, 0.0, 0.0, 0.0, 0.0, 0.0, 0.0, 0.0, 0.0, 0.0, 0.0, 0.0, 0.0, 0.0, 0.0, 0.0, 0.0, 0.0, 0.0], 
            "evaluate_basis_derivatives_0_0": [1.4718852622922434e+00, 0.0], 
            "evaluate_basis_derivatives_0_1": [8.5585277568607676e-02, -2.2787085025842555e+00, 0.0, 0.0], 
            "evaluate_basis_derivatives_0_2": [0.0, 0.0, 0.0, 0.0, 0.0, 0.0, 0.0, 0.0], 
            "evaluate_basis_derivatives_1_0": [2.0266705413493233e+00, 0.0], 
            "evaluate_basis_derivatives_1_1": [-2.3642938479375970e+00, 4.4932274890774304e-01, 0.0, 0.0], 
            "evaluate_basis_derivatives_1_2": [0.0, 0.0, 0.0, 0.0, 0.0, 0.0, 0.0, 0.0], 
            "evaluate_basis_derivatives_2_0": [-2.4985557203629258e+00, 0.0], 
            "evaluate_basis_derivatives_2_1": [2.2787085020077340e+00, 1.8293856987949413e+00, 0.0, 0.0], 
            "evaluate_basis_derivatives_2_2": [0.0, 0.0, 0.0, 0.0, 0.0, 0.0, 0.0, 0.0], 
            "evaluate_basis_derivatives_3_0": [0.0, 1.4718852622922434e+00], 
            "evaluate_basis_derivatives_3_1": [0.0, 0.0, 8.5585277568607676e-02, -2.2787085025842555e+00], 
            "evaluate_basis_derivatives_3_2": [0.0, 0.0, 0.0, 0.0, 0.0, 0.0, 0.0, 0.0], 
            "evaluate_basis_derivatives_4_0": [0.0, 2.0266705413493233e+00], 
            "evaluate_basis_derivatives_4_1": [0.0, 0.0, -2.3642938479375970e+00, 4.4932274890774304e-01], 
            "evaluate_basis_derivatives_4_2": [0.0, 0.0, 0.0, 0.0, 0.0, 0.0, 0.0, 0.0], 
            "evaluate_basis_derivatives_5_0": [0.0, -2.4985557203629258e+00], 
            "evaluate_basis_derivatives_5_1": [0.0, 0.0, 2.2787085020077340e+00, 1.8293856987949413e+00], 
            "evaluate_basis_derivatives_5_2": [0.0, 0.0, 0.0, 0.0, 0.0, 0.0, 0.0, 0.0], 
            "evaluate_basis_derivatives_all_0": [1.4718852622922434e+00, 0.0, 2.0266705413493233e+00, 0.0, -2.4985557203629258e+00, 0.0, 0.0, 1.4718852622922434e+00, 0.0, 2.0266705413493233e+00, 0.0, -2.4985557203629258e+00], 
            "evaluate_basis_derivatives_all_1": [8.5585277568607676e-02, -2.2787085025842555e+00, 0.0, 0.0, -2.3642938479375970e+00, 4.4932274890774304e-01, 0.0, 0.0, 2.2787085020077340e+00, 1.8293856987949413e+00, 0.0, 0.0, 0.0, 0.0, 8.5585277568607676e-02, -2.2787085025842555e+00, 0.0, 0.0, -2.3642938479375970e+00, 4.4932274890774304e-01, 0.0, 0.0, 2.2787085020077340e+00, 1.8293856987949413e+00], 
            "evaluate_basis_derivatives_all_2": [0.0, 0.0, 0.0, 0.0, 0.0, 0.0, 0.0, 0.0, 0.0, 0.0, 0.0, 0.0, 0.0, 0.0, 0.0, 0.0, 0.0, 0.0, 0.0, 0.0, 0.0, 0.0, 0.0, 0.0, 0.0, 0.0, 0.0, 0.0, 0.0, 0.0, 0.0, 0.0, 0.0, 0.0, 0.0, 0.0, 0.0, 0.0, 0.0, 0.0, 0.0, 0.0, 0.0, 0.0, 0.0, 0.0, 0.0, 0.0], 
            "evaluate_dof_0": 3.0792300000000006e-01, 
            "evaluate_dof_1": 4.3028700000000003e-01, 
            "evaluate_dof_2": 7.7282099999999998e-01, 
            "evaluate_dof_3": 1.2316920000000002e+00, 
            "evaluate_dof_4": 1.7211480000000001e+00, 
            "evaluate_dof_5": 3.0912839999999999e+00, 
            "evaluate_dofs": [3.0792300000000006e-01, 4.3028700000000003e-01, 7.7282099999999998e-01, 1.2316920000000002e+00, 1.7211480000000001e+00, 3.0912839999999999e+00], 
            "interpolate_vertex_values": [3.0792300000000006e-01, 1.2316920000000002e+00, 4.3028700000000003e-01, 1.7211480000000001e+00, 7.7282099999999998e-01, 3.0912839999999999e+00], 
            "tabulate_dof_coordinates": [9.0300000000000002e-01, 3.4100000000000003e-01, 5.6100000000000005e-01, 7.6700000000000002e-01, 9.8699999999999999e-01, 7.8300000000000003e-01, 9.0300000000000002e-01, 3.4100000000000003e-01, 5.6100000000000005e-01, 7.6700000000000002e-01, 9.8699999999999999e-01, 7.8300000000000003e-01], 
            "num_sub_elements": 2, 
            "finite_element_0": {
                "cell_shape": 1, 
                "space_dimension": 3, 
                "value_rank": 0, 
                "evaluate_basis:_0": [1.4718852622922434e+00], 
                "evaluate_basis:_1": [2.0266705413493233e+00], 
                "evaluate_basis:_2": [-2.4985557203629258e+00], 
                "evaluate_basis_all": [1.4718852622922434e+00, 2.0266705413493233e+00, -2.4985557203629258e+00, 0.0, 0.0, 0.0, 0.0, 0.0, 0.0, 0.0, 0.0, 0.0], 
                "evaluate_basis_derivatives_0_0": [1.4718852622922434e+00], 
                "evaluate_basis_derivatives_0_1": [8.5585277568607676e-02, -2.2787085025842555e+00], 
                "evaluate_basis_derivatives_0_2": [0.0, 0.0, 0.0, 0.0], 
                "evaluate_basis_derivatives_1_0": [2.0266705413493233e+00], 
                "evaluate_basis_derivatives_1_1": [-2.3642938479375970e+00, 4.4932274890774304e-01], 
                "evaluate_basis_derivatives_1_2": [0.0, 0.0, 0.0, 0.0], 
                "evaluate_basis_derivatives_2_0": [-2.4985557203629258e+00], 
                "evaluate_basis_derivatives_2_1": [2.2787085020077340e+00, 1.8293856987949413e+00], 
                "evaluate_basis_derivatives_2_2": [0.0, 0.0, 0.0, 0.0], 
                "evaluate_basis_derivatives_all_0": [1.4718852622922434e+00, 2.0266705413493233e+00, -2.4985557203629258e+00], 
                "evaluate_basis_derivatives_all_1": [8.5585277568607676e-02, -2.2787085025842555e+00, -2.3642938479375970e+00, 4.4932274890774304e-01, 2.2787085020077340e+00, 1.8293856987949413e+00], 
                "evaluate_basis_derivatives_all_2": [0.0, 0.0, 0.0, 0.0, 0.0, 0.0, 0.0, 0.0, 0.0, 0.0, 0.0, 0.0], 
                "evaluate_dof_0": 3.0792300000000006e-01, 
                "evaluate_dof_1": 4.3028700000000003e-01, 
                "evaluate_dof_2": 7.7282099999999998e-01, 
                "evaluate_dofs": [3.0792300000000006e-01, 4.3028700000000003e-01, 7.7282099999999998e-01], 
                "interpolate_vertex_values": [3.0792300000000006e-01, 4.3028700000000003e-01, 7.7282099999999998e-01], 
                "tabulate_dof_coordinates": [9.0300000000000002e-01, 3.4100000000000003e-01, 5.6100000000000005e-01, 7.6700000000000002e-01, 9.8699999999999999e-01, 7.8300000000000003e-01], 
                "num_sub_elements": 0, 
            },
            "finite_element_1": {
                "cell_shape": 1, 
                "space_dimension": 3, 
                "value_rank": 0, 
                "evaluate_basis:_0": [1.4718852622922434e+00], 
                "evaluate_basis:_1": [2.0266705413493233e+00], 
                "evaluate_basis:_2": [-2.4985557203629258e+00], 
                "evaluate_basis_all": [1.4718852622922434e+00, 2.0266705413493233e+00, -2.4985557203629258e+00, 0.0, 0.0, 0.0, 0.0, 0.0, 0.0, 0.0, 0.0, 0.0], 
                "evaluate_basis_derivatives_0_0": [1.4718852622922434e+00], 
                "evaluate_basis_derivatives_0_1": [8.5585277568607676e-02, -2.2787085025842555e+00], 
                "evaluate_basis_derivatives_0_2": [0.0, 0.0, 0.0, 0.0], 
                "evaluate_basis_derivatives_1_0": [2.0266705413493233e+00], 
                "evaluate_basis_derivatives_1_1": [-2.3642938479375970e+00, 4.4932274890774304e-01], 
                "evaluate_basis_derivatives_1_2": [0.0, 0.0, 0.0, 0.0], 
                "evaluate_basis_derivatives_2_0": [-2.4985557203629258e+00], 
                "evaluate_basis_derivatives_2_1": [2.2787085020077340e+00, 1.8293856987949413e+00], 
                "evaluate_basis_derivatives_2_2": [0.0, 0.0, 0.0, 0.0], 
                "evaluate_basis_derivatives_all_0": [1.4718852622922434e+00, 2.0266705413493233e+00, -2.4985557203629258e+00], 
                "evaluate_basis_derivatives_all_1": [8.5585277568607676e-02, -2.2787085025842555e+00, -2.3642938479375970e+00, 4.4932274890774304e-01, 2.2787085020077340e+00, 1.8293856987949413e+00], 
                "evaluate_basis_derivatives_all_2": [0.0, 0.0, 0.0, 0.0, 0.0, 0.0, 0.0, 0.0, 0.0, 0.0, 0.0, 0.0], 
                "evaluate_dof_0": 3.0792300000000006e-01, 
                "evaluate_dof_1": 4.3028700000000003e-01, 
                "evaluate_dof_2": 7.7282099999999998e-01, 
                "evaluate_dofs": [3.0792300000000006e-01, 4.3028700000000003e-01, 7.7282099999999998e-01], 
                "interpolate_vertex_values": [3.0792300000000006e-01, 4.3028700000000003e-01, 7.7282099999999998e-01], 
                "tabulate_dof_coordinates": [9.0300000000000002e-01, 3.4100000000000003e-01, 5.6100000000000005e-01, 7.6700000000000002e-01, 9.8699999999999999e-01, 7.8300000000000003e-01], 
                "num_sub_elements": 0, 
            },
        },
        "dofmap_0": {
            "needs_mesh_entities_0": 1, 
            "needs_mesh_entities_1": 0, 
            "needs_mesh_entities_2": 0, 
            "global_dimension": 20002, 
            "num_element_dofs": 6, 
            "num_facet_dofs": 4, 
            "num_entity_dofs_0": 2, 
            "num_entity_dofs_1": 0, 
            "num_entity_dofs_2": 0, 
            "tabulate_dofs": [0, 0, 0, 10001, 10001, 10001], 
            "tabulate_facet_dofs_0": [1, 2, 4, 5], 
            "tabulate_facet_dofs_1": [0, 2, 3, 5], 
            "tabulate_facet_dofs_2": [0, 1, 3, 4], 
            "tabulate_entity_dofs_0_0": [0, 3], 
            "tabulate_entity_dofs_0_1": [1, 4], 
            "tabulate_entity_dofs_0_2": [2, 5], 
            "tabulate_entity_dofs_1_0": [], 
            "tabulate_entity_dofs_1_1": [], 
            "tabulate_entity_dofs_1_2": [], 
            "tabulate_entity_dofs_2_0": [], 
            "num_sub_dofmaps": 2, 
            "dofmap_0": {
                "needs_mesh_entities_0": 1, 
                "needs_mesh_entities_1": 0, 
                "needs_mesh_entities_2": 0, 
                "global_dimension": 10001, 
                "num_element_dofs": 3, 
                "num_facet_dofs": 2, 
                "num_entity_dofs_0": 1, 
                "num_entity_dofs_1": 0, 
                "num_entity_dofs_2": 0, 
                "tabulate_dofs": [0, 0, 0], 
                "tabulate_facet_dofs_0": [1, 2], 
                "tabulate_facet_dofs_1": [0, 2], 
                "tabulate_facet_dofs_2": [0, 1], 
                "tabulate_entity_dofs_0_0": [0], 
                "tabulate_entity_dofs_0_1": [1], 
                "tabulate_entity_dofs_0_2": [2], 
                "tabulate_entity_dofs_1_0": [], 
                "tabulate_entity_dofs_1_1": [], 
                "tabulate_entity_dofs_1_2": [], 
                "tabulate_entity_dofs_2_0": [], 
                "num_sub_dofmaps": 0, 
            },
            "dofmap_1": {
                "needs_mesh_entities_0": 1, 
                "needs_mesh_entities_1": 0, 
                "needs_mesh_entities_2": 0, 
                "global_dimension": 10001, 
                "num_element_dofs": 3, 
                "num_facet_dofs": 2, 
                "num_entity_dofs_0": 1, 
                "num_entity_dofs_1": 0, 
                "num_entity_dofs_2": 0, 
                "tabulate_dofs": [0, 0, 0], 
                "tabulate_facet_dofs_0": [1, 2], 
                "tabulate_facet_dofs_1": [0, 2], 
                "tabulate_facet_dofs_2": [0, 1], 
                "tabulate_entity_dofs_0_0": [0], 
                "tabulate_entity_dofs_0_1": [1], 
                "tabulate_entity_dofs_0_2": [2], 
                "tabulate_entity_dofs_1_0": [], 
                "tabulate_entity_dofs_1_1": [], 
                "tabulate_entity_dofs_1_2": [], 
                "tabulate_entity_dofs_2_0": [], 
                "num_sub_dofmaps": 0, 
            },
        },
        "dofmap_1": {
            "needs_mesh_entities_0": 1, 
            "needs_mesh_entities_1": 0, 
            "needs_mesh_entities_2": 0, 
            "global_dimension": 20002, 
            "num_element_dofs": 6, 
            "num_facet_dofs": 4, 
            "num_entity_dofs_0": 2, 
            "num_entity_dofs_1": 0, 
            "num_entity_dofs_2": 0, 
            "tabulate_dofs": [0, 0, 0, 10001, 10001, 10001], 
            "tabulate_facet_dofs_0": [1, 2, 4, 5], 
            "tabulate_facet_dofs_1": [0, 2, 3, 5], 
            "tabulate_facet_dofs_2": [0, 1, 3, 4], 
            "tabulate_entity_dofs_0_0": [0, 3], 
            "tabulate_entity_dofs_0_1": [1, 4], 
            "tabulate_entity_dofs_0_2": [2, 5], 
            "tabulate_entity_dofs_1_0": [], 
            "tabulate_entity_dofs_1_1": [], 
            "tabulate_entity_dofs_1_2": [], 
            "tabulate_entity_dofs_2_0": [], 
            "num_sub_dofmaps": 2, 
            "dofmap_0": {
                "needs_mesh_entities_0": 1, 
                "needs_mesh_entities_1": 0, 
                "needs_mesh_entities_2": 0, 
                "global_dimension": 10001, 
                "num_element_dofs": 3, 
                "num_facet_dofs": 2, 
                "num_entity_dofs_0": 1, 
                "num_entity_dofs_1": 0, 
                "num_entity_dofs_2": 0, 
                "tabulate_dofs": [0, 0, 0], 
                "tabulate_facet_dofs_0": [1, 2], 
                "tabulate_facet_dofs_1": [0, 2], 
                "tabulate_facet_dofs_2": [0, 1], 
                "tabulate_entity_dofs_0_0": [0], 
                "tabulate_entity_dofs_0_1": [1], 
                "tabulate_entity_dofs_0_2": [2], 
                "tabulate_entity_dofs_1_0": [], 
                "tabulate_entity_dofs_1_1": [], 
                "tabulate_entity_dofs_1_2": [], 
                "tabulate_entity_dofs_2_0": [], 
                "num_sub_dofmaps": 0, 
            },
            "dofmap_1": {
                "needs_mesh_entities_0": 1, 
                "needs_mesh_entities_1": 0, 
                "needs_mesh_entities_2": 0, 
                "global_dimension": 10001, 
                "num_element_dofs": 3, 
                "num_facet_dofs": 2, 
                "num_entity_dofs_0": 1, 
                "num_entity_dofs_1": 0, 
                "num_entity_dofs_2": 0, 
                "tabulate_dofs": [0, 0, 0], 
                "tabulate_facet_dofs_0": [1, 2], 
                "tabulate_facet_dofs_1": [0, 2], 
                "tabulate_facet_dofs_2": [0, 1], 
                "tabulate_entity_dofs_0_0": [0], 
                "tabulate_entity_dofs_0_1": [1], 
                "tabulate_entity_dofs_0_2": [2], 
                "tabulate_entity_dofs_1_0": [], 
                "tabulate_entity_dofs_1_1": [], 
                "tabulate_entity_dofs_1_2": [], 
                "tabulate_entity_dofs_2_0": [], 
                "num_sub_dofmaps": 0, 
            },
        },
        "default_cell_integral": 1, 
        "cell_integral": {
            "tabulate_tensor": [4.8604959667929037e-01, -1.1462010826539998e-01, -3.7142948841389040e-01, 0.0, 0.0, 0.0, -1.1462010826539998e-01, 5.4138049083167528e-01, -4.2676038256627530e-01, 0.0, 0.0, 0.0, -3.7142948841389040e-01, -4.2676038256627530e-01, 7.9818987098016569e-01, 0.0, 0.0, 0.0, 0.0, 0.0, 0.0, 4.8604959667929037e-01, -1.1462010826539998e-01, -3.7142948841389040e-01, 0.0, 0.0, 0.0, -1.1462010826539998e-01, 5.4138049083167528e-01, -4.2676038256627530e-01, 0.0, 0.0, 0.0, -3.7142948841389040e-01, -4.2676038256627530e-01, 7.9818987098016569e-01], 
        },
        "default_exterior_facet_integral": 0, 
        "default_interior_facet_integral": 0, 
        "default_vertex_integral": 0, 
    },
    "form_1": {
        "rank": 1, 
        "num_coefficients": 2, 
        "has_cell_integrals": 1, 
        "has_exterior_facet_integrals": 1, 
        "has_interior_facet_integrals": 0, 
        "has_vertex_integrals": 0, 
        "max_cell_subdomain_id": 0, 
        "max_exterior_facet_subdomain_id": 0, 
        "max_interior_facet_subdomain_id": 0, 
        "max_vertex_subdomain_id": 0, 
        "finite_element_0": {
            "cell_shape": 1, 
            "space_dimension": 6, 
            "value_rank": 1, 
            "value_dimension_0": 2, 
            "evaluate_basis:_0": [1.4718852622922434e+00, 0.0], 
            "evaluate_basis:_1": [2.0266705413493233e+00, 0.0], 
            "evaluate_basis:_2": [-2.4985557203629258e+00, 0.0], 
            "evaluate_basis:_3": [0.0, 1.4718852622922434e+00], 
            "evaluate_basis:_4": [0.0, 2.0266705413493233e+00], 
            "evaluate_basis:_5": [0.0, -2.4985557203629258e+00], 
            "evaluate_basis_all": [1.4718852622922434e+00, 0.0, 2.0266705413493233e+00, 0.0, -2.4985557203629258e+00, 0.0, 0.0, 1.4718852622922434e+00, 0.0, 2.0266705413493233e+00, 0.0, -2.4985557203629258e+00, 0.0, 0.0, 0.0, 0.0, 0.0, 0.0, 0.0, 0.0, 0.0, 0.0, 0.0, 0.0, 0.0, 0.0, 0.0, 0.0, 0.0, 0.0, 0.0, 0.0, 0.0, 0.0, 0.0, 0.0, 0.0, 0.0, 0.0, 0.0, 0.0, 0.0, 0.0, 0.0, 0.0, 0.0, 0.0, 0.0], 
            "evaluate_basis_derivatives_0_0": [1.4718852622922434e+00, 0.0], 
            "evaluate_basis_derivatives_0_1": [8.5585277568607676e-02, -2.2787085025842555e+00, 0.0, 0.0], 
            "evaluate_basis_derivatives_0_2": [0.0, 0.0, 0.0, 0.0, 0.0, 0.0, 0.0, 0.0], 
            "evaluate_basis_derivatives_1_0": [2.0266705413493233e+00, 0.0], 
            "evaluate_basis_derivatives_1_1": [-2.3642938479375970e+00, 4.4932274890774304e-01, 0.0, 0.0], 
            "evaluate_basis_derivatives_1_2": [0.0, 0.0, 0.0, 0.0, 0.0, 0.0, 0.0, 0.0], 
            "evaluate_basis_derivatives_2_0": [-2.4985557203629258e+00, 0.0], 
            "evaluate_basis_derivatives_2_1": [2.2787085020077340e+00, 1.8293856987949413e+00, 0.0, 0.0], 
            "evaluate_basis_derivatives_2_2": [0.0, 0.0, 0.0, 0.0, 0.0, 0.0, 0.0, 0.0], 
            "evaluate_basis_derivatives_3_0": [0.0, 1.4718852622922434e+00], 
            "evaluate_basis_derivatives_3_1": [0.0, 0.0, 8.5585277568607676e-02, -2.2787085025842555e+00], 
            "evaluate_basis_derivatives_3_2": [0.0, 0.0, 0.0, 0.0, 0.0, 0.0, 0.0, 0.0], 
            "evaluate_basis_derivatives_4_0": [0.0, 2.0266705413493233e+00], 
            "evaluate_basis_derivatives_4_1": [0.0, 0.0, -2.3642938479375970e+00, 4.4932274890774304e-01], 
            "evaluate_basis_derivatives_4_2": [0.0, 0.0, 0.0, 0.0, 0.0, 0.0, 0.0, 0.0], 
            "evaluate_basis_derivatives_5_0": [0.0, -2.4985557203629258e+00], 
            "evaluate_basis_derivatives_5_1": [0.0, 0.0, 2.2787085020077340e+00, 1.8293856987949413e+00], 
            "evaluate_basis_derivatives_5_2": [0.0, 0.0, 0.0, 0.0, 0.0, 0.0, 0.0, 0.0], 
            "evaluate_basis_derivatives_all_0": [1.4718852622922434e+00, 0.0, 2.0266705413493233e+00, 0.0, -2.4985557203629258e+00, 0.0, 0.0, 1.4718852622922434e+00, 0.0, 2.0266705413493233e+00, 0.0, -2.4985557203629258e+00], 
            "evaluate_basis_derivatives_all_1": [8.5585277568607676e-02, -2.2787085025842555e+00, 0.0, 0.0, -2.3642938479375970e+00, 4.4932274890774304e-01, 0.0, 0.0, 2.2787085020077340e+00, 1.8293856987949413e+00, 0.0, 0.0, 0.0, 0.0, 8.5585277568607676e-02, -2.2787085025842555e+00, 0.0, 0.0, -2.3642938479375970e+00, 4.4932274890774304e-01, 0.0, 0.0, 2.2787085020077340e+00, 1.8293856987949413e+00], 
            "evaluate_basis_derivatives_all_2": [0.0, 0.0, 0.0, 0.0, 0.0, 0.0, 0.0, 0.0, 0.0, 0.0, 0.0, 0.0, 0.0, 0.0, 0.0, 0.0, 0.0, 0.0, 0.0, 0.0, 0.0, 0.0, 0.0, 0.0, 0.0, 0.0, 0.0, 0.0, 0.0, 0.0, 0.0, 0.0, 0.0, 0.0, 0.0, 0.0, 0.0, 0.0, 0.0, 0.0, 0.0, 0.0, 0.0, 0.0, 0.0, 0.0, 0.0, 0.0], 
            "evaluate_dof_0": 3.0792300000000006e-01, 
            "evaluate_dof_1": 4.3028700000000003e-01, 
            "evaluate_dof_2": 7.7282099999999998e-01, 
            "evaluate_dof_3": 1.2316920000000002e+00, 
            "evaluate_dof_4": 1.7211480000000001e+00, 
            "evaluate_dof_5": 3.0912839999999999e+00, 
            "evaluate_dofs": [3.0792300000000006e-01, 4.3028700000000003e-01, 7.7282099999999998e-01, 1.2316920000000002e+00, 1.7211480000000001e+00, 3.0912839999999999e+00], 
            "interpolate_vertex_values": [3.0792300000000006e-01, 1.2316920000000002e+00, 4.3028700000000003e-01, 1.7211480000000001e+00, 7.7282099999999998e-01, 3.0912839999999999e+00], 
            "tabulate_dof_coordinates": [9.0300000000000002e-01, 3.4100000000000003e-01, 5.6100000000000005e-01, 7.6700000000000002e-01, 9.8699999999999999e-01, 7.8300000000000003e-01, 9.0300000000000002e-01, 3.4100000000000003e-01, 5.6100000000000005e-01, 7.6700000000000002e-01, 9.8699999999999999e-01, 7.8300000000000003e-01], 
            "num_sub_elements": 2, 
            "finite_element_0": {
                "cell_shape": 1, 
                "space_dimension": 3, 
                "value_rank": 0, 
                "evaluate_basis:_0": [1.4718852622922434e+00], 
                "evaluate_basis:_1": [2.0266705413493233e+00], 
                "evaluate_basis:_2": [-2.4985557203629258e+00], 
                "evaluate_basis_all": [1.4718852622922434e+00, 2.0266705413493233e+00, -2.4985557203629258e+00, 0.0, 0.0, 0.0, 0.0, 0.0, 0.0, 0.0, 0.0, 0.0], 
                "evaluate_basis_derivatives_0_0": [1.4718852622922434e+00], 
                "evaluate_basis_derivatives_0_1": [8.5585277568607676e-02, -2.2787085025842555e+00], 
                "evaluate_basis_derivatives_0_2": [0.0, 0.0, 0.0, 0.0], 
                "evaluate_basis_derivatives_1_0": [2.0266705413493233e+00], 
                "evaluate_basis_derivatives_1_1": [-2.3642938479375970e+00, 4.4932274890774304e-01], 
                "evaluate_basis_derivatives_1_2": [0.0, 0.0, 0.0, 0.0], 
                "evaluate_basis_derivatives_2_0": [-2.4985557203629258e+00], 
                "evaluate_basis_derivatives_2_1": [2.2787085020077340e+00, 1.8293856987949413e+00], 
                "evaluate_basis_derivatives_2_2": [0.0, 0.0, 0.0, 0.0], 
                "evaluate_basis_derivatives_all_0": [1.4718852622922434e+00, 2.0266705413493233e+00, -2.4985557203629258e+00], 
                "evaluate_basis_derivatives_all_1": [8.5585277568607676e-02, -2.2787085025842555e+00, -2.3642938479375970e+00, 4.4932274890774304e-01, 2.2787085020077340e+00, 1.8293856987949413e+00], 
                "evaluate_basis_derivatives_all_2": [0.0, 0.0, 0.0, 0.0, 0.0, 0.0, 0.0, 0.0, 0.0, 0.0, 0.0, 0.0], 
                "evaluate_dof_0": 3.0792300000000006e-01, 
                "evaluate_dof_1": 4.3028700000000003e-01, 
                "evaluate_dof_2": 7.7282099999999998e-01, 
                "evaluate_dofs": [3.0792300000000006e-01, 4.3028700000000003e-01, 7.7282099999999998e-01], 
                "interpolate_vertex_values": [3.0792300000000006e-01, 4.3028700000000003e-01, 7.7282099999999998e-01], 
                "tabulate_dof_coordinates": [9.0300000000000002e-01, 3.4100000000000003e-01, 5.6100000000000005e-01, 7.6700000000000002e-01, 9.8699999999999999e-01, 7.8300000000000003e-01], 
                "num_sub_elements": 0, 
            },
            "finite_element_1": {
                "cell_shape": 1, 
                "space_dimension": 3, 
                "value_rank": 0, 
                "evaluate_basis:_0": [1.4718852622922434e+00], 
                "evaluate_basis:_1": [2.0266705413493233e+00], 
                "evaluate_basis:_2": [-2.4985557203629258e+00], 
                "evaluate_basis_all": [1.4718852622922434e+00, 2.0266705413493233e+00, -2.4985557203629258e+00, 0.0, 0.0, 0.0, 0.0, 0.0, 0.0, 0.0, 0.0, 0.0], 
                "evaluate_basis_derivatives_0_0": [1.4718852622922434e+00], 
                "evaluate_basis_derivatives_0_1": [8.5585277568607676e-02, -2.2787085025842555e+00], 
                "evaluate_basis_derivatives_0_2": [0.0, 0.0, 0.0, 0.0], 
                "evaluate_basis_derivatives_1_0": [2.0266705413493233e+00], 
                "evaluate_basis_derivatives_1_1": [-2.3642938479375970e+00, 4.4932274890774304e-01], 
                "evaluate_basis_derivatives_1_2": [0.0, 0.0, 0.0, 0.0], 
                "evaluate_basis_derivatives_2_0": [-2.4985557203629258e+00], 
                "evaluate_basis_derivatives_2_1": [2.2787085020077340e+00, 1.8293856987949413e+00], 
                "evaluate_basis_derivatives_2_2": [0.0, 0.0, 0.0, 0.0], 
                "evaluate_basis_derivatives_all_0": [1.4718852622922434e+00, 2.0266705413493233e+00, -2.4985557203629258e+00], 
                "evaluate_basis_derivatives_all_1": [8.5585277568607676e-02, -2.2787085025842555e+00, -2.3642938479375970e+00, 4.4932274890774304e-01, 2.2787085020077340e+00, 1.8293856987949413e+00], 
                "evaluate_basis_derivatives_all_2": [0.0, 0.0, 0.0, 0.0, 0.0, 0.0, 0.0, 0.0, 0.0, 0.0, 0.0, 0.0], 
                "evaluate_dof_0": 3.0792300000000006e-01, 
                "evaluate_dof_1": 4.3028700000000003e-01, 
                "evaluate_dof_2": 7.7282099999999998e-01, 
                "evaluate_dofs": [3.0792300000000006e-01, 4.3028700000000003e-01, 7.7282099999999998e-01], 
                "interpolate_vertex_values": [3.0792300000000006e-01, 4.3028700000000003e-01, 7.7282099999999998e-01], 
                "tabulate_dof_coordinates": [9.0300000000000002e-01, 3.4100000000000003e-01, 5.6100000000000005e-01, 7.6700000000000002e-01, 9.8699999999999999e-01, 7.8300000000000003e-01], 
                "num_sub_elements": 0, 
            },
        },
        "finite_element_1": {
            "cell_shape": 1, 
            "space_dimension": 6, 
            "value_rank": 1, 
            "value_dimension_0": 2, 
            "evaluate_basis:_0": [1.4718852622922434e+00, 0.0], 
            "evaluate_basis:_1": [2.0266705413493233e+00, 0.0], 
            "evaluate_basis:_2": [-2.4985557203629258e+00, 0.0], 
            "evaluate_basis:_3": [0.0, 1.4718852622922434e+00], 
            "evaluate_basis:_4": [0.0, 2.0266705413493233e+00], 
            "evaluate_basis:_5": [0.0, -2.4985557203629258e+00], 
            "evaluate_basis_all": [1.4718852622922434e+00, 0.0, 2.0266705413493233e+00, 0.0, -2.4985557203629258e+00, 0.0, 0.0, 1.4718852622922434e+00, 0.0, 2.0266705413493233e+00, 0.0, -2.4985557203629258e+00, 0.0, 0.0, 0.0, 0.0, 0.0, 0.0, 0.0, 0.0, 0.0, 0.0, 0.0, 0.0, 0.0, 0.0, 0.0, 0.0, 0.0, 0.0, 0.0, 0.0, 0.0, 0.0, 0.0, 0.0, 0.0, 0.0, 0.0, 0.0, 0.0, 0.0, 0.0, 0.0, 0.0, 0.0, 0.0, 0.0], 
            "evaluate_basis_derivatives_0_0": [1.4718852622922434e+00, 0.0], 
            "evaluate_basis_derivatives_0_1": [8.5585277568607676e-02, -2.2787085025842555e+00, 0.0, 0.0], 
            "evaluate_basis_derivatives_0_2": [0.0, 0.0, 0.0, 0.0, 0.0, 0.0, 0.0, 0.0], 
            "evaluate_basis_derivatives_1_0": [2.0266705413493233e+00, 0.0], 
            "evaluate_basis_derivatives_1_1": [-2.3642938479375970e+00, 4.4932274890774304e-01, 0.0, 0.0], 
            "evaluate_basis_derivatives_1_2": [0.0, 0.0, 0.0, 0.0, 0.0, 0.0, 0.0, 0.0], 
            "evaluate_basis_derivatives_2_0": [-2.4985557203629258e+00, 0.0], 
            "evaluate_basis_derivatives_2_1": [2.2787085020077340e+00, 1.8293856987949413e+00, 0.0, 0.0], 
            "evaluate_basis_derivatives_2_2": [0.0, 0.0, 0.0, 0.0, 0.0, 0.0, 0.0, 0.0], 
            "evaluate_basis_derivatives_3_0": [0.0, 1.4718852622922434e+00], 
            "evaluate_basis_derivatives_3_1": [0.0, 0.0, 8.5585277568607676e-02, -2.2787085025842555e+00], 
            "evaluate_basis_derivatives_3_2": [0.0, 0.0, 0.0, 0.0, 0.0, 0.0, 0.0, 0.0], 
            "evaluate_basis_derivatives_4_0": [0.0, 2.0266705413493233e+00], 
            "evaluate_basis_derivatives_4_1": [0.0, 0.0, -2.3642938479375970e+00, 4.4932274890774304e-01], 
            "evaluate_basis_derivatives_4_2": [0.0, 0.0, 0.0, 0.0, 0.0, 0.0, 0.0, 0.0], 
            "evaluate_basis_derivatives_5_0": [0.0, -2.4985557203629258e+00], 
            "evaluate_basis_derivatives_5_1": [0.0, 0.0, 2.2787085020077340e+00, 1.8293856987949413e+00], 
            "evaluate_basis_derivatives_5_2": [0.0, 0.0, 0.0, 0.0, 0.0, 0.0, 0.0, 0.0], 
            "evaluate_basis_derivatives_all_0": [1.4718852622922434e+00, 0.0, 2.0266705413493233e+00, 0.0, -2.4985557203629258e+00, 0.0, 0.0, 1.4718852622922434e+00, 0.0, 2.0266705413493233e+00, 0.0, -2.4985557203629258e+00], 
            "evaluate_basis_derivatives_all_1": [8.5585277568607676e-02, -2.2787085025842555e+00, 0.0, 0.0, -2.3642938479375970e+00, 4.4932274890774304e-01, 0.0, 0.0, 2.2787085020077340e+00, 1.8293856987949413e+00, 0.0, 0.0, 0.0, 0.0, 8.5585277568607676e-02, -2.2787085025842555e+00, 0.0, 0.0, -2.3642938479375970e+00, 4.4932274890774304e-01, 0.0, 0.0, 2.2787085020077340e+00, 1.8293856987949413e+00], 
            "evaluate_basis_derivatives_all_2": [0.0, 0.0, 0.0, 0.0, 0.0, 0.0, 0.0, 0.0, 0.0, 0.0, 0.0, 0.0, 0.0, 0.0, 0.0, 0.0, 0.0, 0.0, 0.0, 0.0, 0.0, 0.0, 0.0, 0.0, 0.0, 0.0, 0.0, 0.0, 0.0, 0.0, 0.0, 0.0, 0.0, 0.0, 0.0, 0.0, 0.0, 0.0, 0.0, 0.0, 0.0, 0.0, 0.0, 0.0, 0.0, 0.0, 0.0, 0.0], 
            "evaluate_dof_0": 3.0792300000000006e-01, 
            "evaluate_dof_1": 4.3028700000000003e-01, 
            "evaluate_dof_2": 7.7282099999999998e-01, 
            "evaluate_dof_3": 1.2316920000000002e+00, 
            "evaluate_dof_4": 1.7211480000000001e+00, 
            "evaluate_dof_5": 3.0912839999999999e+00, 
            "evaluate_dofs": [3.0792300000000006e-01, 4.3028700000000003e-01, 7.7282099999999998e-01, 1.2316920000000002e+00, 1.7211480000000001e+00, 3.0912839999999999e+00], 
            "interpolate_vertex_values": [3.0792300000000006e-01, 1.2316920000000002e+00, 4.3028700000000003e-01, 1.7211480000000001e+00, 7.7282099999999998e-01, 3.0912839999999999e+00], 
            "tabulate_dof_coordinates": [9.0300000000000002e-01, 3.4100000000000003e-01, 5.6100000000000005e-01, 7.6700000000000002e-01, 9.8699999999999999e-01, 7.8300000000000003e-01, 9.0300000000000002e-01, 3.4100000000000003e-01, 5.6100000000000005e-01, 7.6700000000000002e-01, 9.8699999999999999e-01, 7.8300000000000003e-01], 
            "num_sub_elements": 2, 
            "finite_element_0": {
                "cell_shape": 1, 
                "space_dimension": 3, 
                "value_rank": 0, 
                "evaluate_basis:_0": [1.4718852622922434e+00], 
                "evaluate_basis:_1": [2.0266705413493233e+00], 
                "evaluate_basis:_2": [-2.4985557203629258e+00], 
                "evaluate_basis_all": [1.4718852622922434e+00, 2.0266705413493233e+00, -2.4985557203629258e+00, 0.0, 0.0, 0.0, 0.0, 0.0, 0.0, 0.0, 0.0, 0.0], 
                "evaluate_basis_derivatives_0_0": [1.4718852622922434e+00], 
                "evaluate_basis_derivatives_0_1": [8.5585277568607676e-02, -2.2787085025842555e+00], 
                "evaluate_basis_derivatives_0_2": [0.0, 0.0, 0.0, 0.0], 
                "evaluate_basis_derivatives_1_0": [2.0266705413493233e+00], 
                "evaluate_basis_derivatives_1_1": [-2.3642938479375970e+00, 4.4932274890774304e-01], 
                "evaluate_basis_derivatives_1_2": [0.0, 0.0, 0.0, 0.0], 
                "evaluate_basis_derivatives_2_0": [-2.4985557203629258e+00], 
                "evaluate_basis_derivatives_2_1": [2.2787085020077340e+00, 1.8293856987949413e+00], 
                "evaluate_basis_derivatives_2_2": [0.0, 0.0, 0.0, 0.0], 
                "evaluate_basis_derivatives_all_0": [1.4718852622922434e+00, 2.0266705413493233e+00, -2.4985557203629258e+00], 
                "evaluate_basis_derivatives_all_1": [8.5585277568607676e-02, -2.2787085025842555e+00, -2.3642938479375970e+00, 4.4932274890774304e-01, 2.2787085020077340e+00, 1.8293856987949413e+00], 
                "evaluate_basis_derivatives_all_2": [0.0, 0.0, 0.0, 0.0, 0.0, 0.0, 0.0, 0.0, 0.0, 0.0, 0.0, 0.0], 
                "evaluate_dof_0": 3.0792300000000006e-01, 
                "evaluate_dof_1": 4.3028700000000003e-01, 
                "evaluate_dof_2": 7.7282099999999998e-01, 
                "evaluate_dofs": [3.0792300000000006e-01, 4.3028700000000003e-01, 7.7282099999999998e-01], 
                "interpolate_vertex_values": [3.0792300000000006e-01, 4.3028700000000003e-01, 7.7282099999999998e-01], 
                "tabulate_dof_coordinates": [9.0300000000000002e-01, 3.4100000000000003e-01, 5.6100000000000005e-01, 7.6700000000000002e-01, 9.8699999999999999e-01, 7.8300000000000003e-01], 
                "num_sub_elements": 0, 
            },
            "finite_element_1": {
                "cell_shape": 1, 
                "space_dimension": 3, 
                "value_rank": 0, 
                "evaluate_basis:_0": [1.4718852622922434e+00], 
                "evaluate_basis:_1": [2.0266705413493233e+00], 
                "evaluate_basis:_2": [-2.4985557203629258e+00], 
                "evaluate_basis_all": [1.4718852622922434e+00, 2.0266705413493233e+00, -2.4985557203629258e+00, 0.0, 0.0, 0.0, 0.0, 0.0, 0.0, 0.0, 0.0, 0.0], 
                "evaluate_basis_derivatives_0_0": [1.4718852622922434e+00], 
                "evaluate_basis_derivatives_0_1": [8.5585277568607676e-02, -2.2787085025842555e+00], 
                "evaluate_basis_derivatives_0_2": [0.0, 0.0, 0.0, 0.0], 
                "evaluate_basis_derivatives_1_0": [2.0266705413493233e+00], 
                "evaluate_basis_derivatives_1_1": [-2.3642938479375970e+00, 4.4932274890774304e-01], 
                "evaluate_basis_derivatives_1_2": [0.0, 0.0, 0.0, 0.0], 
                "evaluate_basis_derivatives_2_0": [-2.4985557203629258e+00], 
                "evaluate_basis_derivatives_2_1": [2.2787085020077340e+00, 1.8293856987949413e+00], 
                "evaluate_basis_derivatives_2_2": [0.0, 0.0, 0.0, 0.0], 
                "evaluate_basis_derivatives_all_0": [1.4718852622922434e+00, 2.0266705413493233e+00, -2.4985557203629258e+00], 
                "evaluate_basis_derivatives_all_1": [8.5585277568607676e-02, -2.2787085025842555e+00, -2.3642938479375970e+00, 4.4932274890774304e-01, 2.2787085020077340e+00, 1.8293856987949413e+00], 
                "evaluate_basis_derivatives_all_2": [0.0, 0.0, 0.0, 0.0, 0.0, 0.0, 0.0, 0.0, 0.0, 0.0, 0.0, 0.0], 
                "evaluate_dof_0": 3.0792300000000006e-01, 
                "evaluate_dof_1": 4.3028700000000003e-01, 
                "evaluate_dof_2": 7.7282099999999998e-01, 
                "evaluate_dofs": [3.0792300000000006e-01, 4.3028700000000003e-01, 7.7282099999999998e-01], 
                "interpolate_vertex_values": [3.0792300000000006e-01, 4.3028700000000003e-01, 7.7282099999999998e-01], 
                "tabulate_dof_coordinates": [9.0300000000000002e-01, 3.4100000000000003e-01, 5.6100000000000005e-01, 7.6700000000000002e-01, 9.8699999999999999e-01, 7.8300000000000003e-01], 
                "num_sub_elements": 0, 
            },
        },
        "finite_element_2": {
            "cell_shape": 1, 
            "space_dimension": 6, 
            "value_rank": 1, 
            "value_dimension_0": 2, 
            "evaluate_basis:_0": [1.4718852622922434e+00, 0.0], 
            "evaluate_basis:_1": [2.0266705413493233e+00, 0.0], 
            "evaluate_basis:_2": [-2.4985557203629258e+00, 0.0], 
            "evaluate_basis:_3": [0.0, 1.4718852622922434e+00], 
            "evaluate_basis:_4": [0.0, 2.0266705413493233e+00], 
            "evaluate_basis:_5": [0.0, -2.4985557203629258e+00], 
            "evaluate_basis_all": [1.4718852622922434e+00, 0.0, 2.0266705413493233e+00, 0.0, -2.4985557203629258e+00, 0.0, 0.0, 1.4718852622922434e+00, 0.0, 2.0266705413493233e+00, 0.0, -2.4985557203629258e+00, 0.0, 0.0, 0.0, 0.0, 0.0, 0.0, 0.0, 0.0, 0.0, 0.0, 0.0, 0.0, 0.0, 0.0, 0.0, 0.0, 0.0, 0.0, 0.0, 0.0, 0.0, 0.0, 0.0, 0.0, 0.0, 0.0, 0.0, 0.0, 0.0, 0.0, 0.0, 0.0, 0.0, 0.0, 0.0, 0.0], 
            "evaluate_basis_derivatives_0_0": [1.4718852622922434e+00, 0.0], 
            "evaluate_basis_derivatives_0_1": [8.5585277568607676e-02, -2.2787085025842555e+00, 0.0, 0.0], 
            "evaluate_basis_derivatives_0_2": [0.0, 0.0, 0.0, 0.0, 0.0, 0.0, 0.0, 0.0], 
            "evaluate_basis_derivatives_1_0": [2.0266705413493233e+00, 0.0], 
            "evaluate_basis_derivatives_1_1": [-2.3642938479375970e+00, 4.4932274890774304e-01, 0.0, 0.0], 
            "evaluate_basis_derivatives_1_2": [0.0, 0.0, 0.0, 0.0, 0.0, 0.0, 0.0, 0.0], 
            "evaluate_basis_derivatives_2_0": [-2.4985557203629258e+00, 0.0], 
            "evaluate_basis_derivatives_2_1": [2.2787085020077340e+00, 1.8293856987949413e+00, 0.0, 0.0], 
            "evaluate_basis_derivatives_2_2": [0.0, 0.0, 0.0, 0.0, 0.0, 0.0, 0.0, 0.0], 
            "evaluate_basis_derivatives_3_0": [0.0, 1.4718852622922434e+00], 
            "evaluate_basis_derivatives_3_1": [0.0, 0.0, 8.5585277568607676e-02, -2.2787085025842555e+00], 
            "evaluate_basis_derivatives_3_2": [0.0, 0.0, 0.0, 0.0, 0.0, 0.0, 0.0, 0.0], 
            "evaluate_basis_derivatives_4_0": [0.0, 2.0266705413493233e+00], 
            "evaluate_basis_derivatives_4_1": [0.0, 0.0, -2.3642938479375970e+00, 4.4932274890774304e-01], 
            "evaluate_basis_derivatives_4_2": [0.0, 0.0, 0.0, 0.0, 0.0, 0.0, 0.0, 0.0], 
            "evaluate_basis_derivatives_5_0": [0.0, -2.4985557203629258e+00], 
            "evaluate_basis_derivatives_5_1": [0.0, 0.0, 2.2787085020077340e+00, 1.8293856987949413e+00], 
            "evaluate_basis_derivatives_5_2": [0.0, 0.0, 0.0, 0.0, 0.0, 0.0, 0.0, 0.0], 
            "evaluate_basis_derivatives_all_0": [1.4718852622922434e+00, 0.0, 2.0266705413493233e+00, 0.0, -2.4985557203629258e+00, 0.0, 0.0, 1.4718852622922434e+00, 0.0, 2.0266705413493233e+00, 0.0, -2.4985557203629258e+00], 
            "evaluate_basis_derivatives_all_1": [8.5585277568607676e-02, -2.2787085025842555e+00, 0.0, 0.0, -2.3642938479375970e+00, 4.4932274890774304e-01, 0.0, 0.0, 2.2787085020077340e+00, 1.8293856987949413e+00, 0.0, 0.0, 0.0, 0.0, 8.5585277568607676e-02, -2.2787085025842555e+00, 0.0, 0.0, -2.3642938479375970e+00, 4.4932274890774304e-01, 0.0, 0.0, 2.2787085020077340e+00, 1.8293856987949413e+00], 
            "evaluate_basis_derivatives_all_2": [0.0, 0.0, 0.0, 0.0, 0.0, 0.0, 0.0, 0.0, 0.0, 0.0, 0.0, 0.0, 0.0, 0.0, 0.0, 0.0, 0.0, 0.0, 0.0, 0.0, 0.0, 0.0, 0.0, 0.0, 0.0, 0.0, 0.0, 0.0, 0.0, 0.0, 0.0, 0.0, 0.0, 0.0, 0.0, 0.0, 0.0, 0.0, 0.0, 0.0, 0.0, 0.0, 0.0, 0.0, 0.0, 0.0, 0.0, 0.0], 
            "evaluate_dof_0": 3.0792300000000006e-01, 
            "evaluate_dof_1": 4.3028700000000003e-01, 
            "evaluate_dof_2": 7.7282099999999998e-01, 
            "evaluate_dof_3": 1.2316920000000002e+00, 
            "evaluate_dof_4": 1.7211480000000001e+00, 
            "evaluate_dof_5": 3.0912839999999999e+00, 
            "evaluate_dofs": [3.0792300000000006e-01, 4.3028700000000003e-01, 7.7282099999999998e-01, 1.2316920000000002e+00, 1.7211480000000001e+00, 3.0912839999999999e+00], 
            "interpolate_vertex_values": [3.0792300000000006e-01, 1.2316920000000002e+00, 4.3028700000000003e-01, 1.7211480000000001e+00, 7.7282099999999998e-01, 3.0912839999999999e+00], 
            "tabulate_dof_coordinates": [9.0300000000000002e-01, 3.4100000000000003e-01, 5.6100000000000005e-01, 7.6700000000000002e-01, 9.8699999999999999e-01, 7.8300000000000003e-01, 9.0300000000000002e-01, 3.4100000000000003e-01, 5.6100000000000005e-01, 7.6700000000000002e-01, 9.8699999999999999e-01, 7.8300000000000003e-01], 
            "num_sub_elements": 2, 
            "finite_element_0": {
                "cell_shape": 1, 
                "space_dimension": 3, 
                "value_rank": 0, 
                "evaluate_basis:_0": [1.4718852622922434e+00], 
                "evaluate_basis:_1": [2.0266705413493233e+00], 
                "evaluate_basis:_2": [-2.4985557203629258e+00], 
                "evaluate_basis_all": [1.4718852622922434e+00, 2.0266705413493233e+00, -2.4985557203629258e+00, 0.0, 0.0, 0.0, 0.0, 0.0, 0.0, 0.0, 0.0, 0.0], 
                "evaluate_basis_derivatives_0_0": [1.4718852622922434e+00], 
                "evaluate_basis_derivatives_0_1": [8.5585277568607676e-02, -2.2787085025842555e+00], 
                "evaluate_basis_derivatives_0_2": [0.0, 0.0, 0.0, 0.0], 
                "evaluate_basis_derivatives_1_0": [2.0266705413493233e+00], 
                "evaluate_basis_derivatives_1_1": [-2.3642938479375970e+00, 4.4932274890774304e-01], 
                "evaluate_basis_derivatives_1_2": [0.0, 0.0, 0.0, 0.0], 
                "evaluate_basis_derivatives_2_0": [-2.4985557203629258e+00], 
                "evaluate_basis_derivatives_2_1": [2.2787085020077340e+00, 1.8293856987949413e+00], 
                "evaluate_basis_derivatives_2_2": [0.0, 0.0, 0.0, 0.0], 
                "evaluate_basis_derivatives_all_0": [1.4718852622922434e+00, 2.0266705413493233e+00, -2.4985557203629258e+00], 
                "evaluate_basis_derivatives_all_1": [8.5585277568607676e-02, -2.2787085025842555e+00, -2.3642938479375970e+00, 4.4932274890774304e-01, 2.2787085020077340e+00, 1.8293856987949413e+00], 
                "evaluate_basis_derivatives_all_2": [0.0, 0.0, 0.0, 0.0, 0.0, 0.0, 0.0, 0.0, 0.0, 0.0, 0.0, 0.0], 
                "evaluate_dof_0": 3.0792300000000006e-01, 
                "evaluate_dof_1": 4.3028700000000003e-01, 
                "evaluate_dof_2": 7.7282099999999998e-01, 
                "evaluate_dofs": [3.0792300000000006e-01, 4.3028700000000003e-01, 7.7282099999999998e-01], 
                "interpolate_vertex_values": [3.0792300000000006e-01, 4.3028700000000003e-01, 7.7282099999999998e-01], 
                "tabulate_dof_coordinates": [9.0300000000000002e-01, 3.4100000000000003e-01, 5.6100000000000005e-01, 7.6700000000000002e-01, 9.8699999999999999e-01, 7.8300000000000003e-01], 
                "num_sub_elements": 0, 
            },
            "finite_element_1": {
                "cell_shape": 1, 
                "space_dimension": 3, 
                "value_rank": 0, 
                "evaluate_basis:_0": [1.4718852622922434e+00], 
                "evaluate_basis:_1": [2.0266705413493233e+00], 
                "evaluate_basis:_2": [-2.4985557203629258e+00], 
                "evaluate_basis_all": [1.4718852622922434e+00, 2.0266705413493233e+00, -2.4985557203629258e+00, 0.0, 0.0, 0.0, 0.0, 0.0, 0.0, 0.0, 0.0, 0.0], 
                "evaluate_basis_derivatives_0_0": [1.4718852622922434e+00], 
                "evaluate_basis_derivatives_0_1": [8.5585277568607676e-02, -2.2787085025842555e+00], 
                "evaluate_basis_derivatives_0_2": [0.0, 0.0, 0.0, 0.0], 
                "evaluate_basis_derivatives_1_0": [2.0266705413493233e+00], 
                "evaluate_basis_derivatives_1_1": [-2.3642938479375970e+00, 4.4932274890774304e-01], 
                "evaluate_basis_derivatives_1_2": [0.0, 0.0, 0.0, 0.0], 
                "evaluate_basis_derivatives_2_0": [-2.4985557203629258e+00], 
                "evaluate_basis_derivatives_2_1": [2.2787085020077340e+00, 1.8293856987949413e+00], 
                "evaluate_basis_derivatives_2_2": [0.0, 0.0, 0.0, 0.0], 
                "evaluate_basis_derivatives_all_0": [1.4718852622922434e+00, 2.0266705413493233e+00, -2.4985557203629258e+00], 
                "evaluate_basis_derivatives_all_1": [8.5585277568607676e-02, -2.2787085025842555e+00, -2.3642938479375970e+00, 4.4932274890774304e-01, 2.2787085020077340e+00, 1.8293856987949413e+00], 
                "evaluate_basis_derivatives_all_2": [0.0, 0.0, 0.0, 0.0, 0.0, 0.0, 0.0, 0.0, 0.0, 0.0, 0.0, 0.0], 
                "evaluate_dof_0": 3.0792300000000006e-01, 
                "evaluate_dof_1": 4.3028700000000003e-01, 
                "evaluate_dof_2": 7.7282099999999998e-01, 
                "evaluate_dofs": [3.0792300000000006e-01, 4.3028700000000003e-01, 7.7282099999999998e-01], 
                "interpolate_vertex_values": [3.0792300000000006e-01, 4.3028700000000003e-01, 7.7282099999999998e-01], 
                "tabulate_dof_coordinates": [9.0300000000000002e-01, 3.4100000000000003e-01, 5.6100000000000005e-01, 7.6700000000000002e-01, 9.8699999999999999e-01, 7.8300000000000003e-01], 
                "num_sub_elements": 0, 
            },
        },
        "dofmap_0": {
            "needs_mesh_entities_0": 1, 
            "needs_mesh_entities_1": 0, 
            "needs_mesh_entities_2": 0, 
            "global_dimension": 20002, 
            "num_element_dofs": 6, 
            "num_facet_dofs": 4, 
            "num_entity_dofs_0": 2, 
            "num_entity_dofs_1": 0, 
            "num_entity_dofs_2": 0, 
            "tabulate_dofs": [0, 0, 0, 10001, 10001, 10001], 
            "tabulate_facet_dofs_0": [1, 2, 4, 5], 
            "tabulate_facet_dofs_1": [0, 2, 3, 5], 
            "tabulate_facet_dofs_2": [0, 1, 3, 4], 
            "tabulate_entity_dofs_0_0": [0, 3], 
            "tabulate_entity_dofs_0_1": [1, 4], 
            "tabulate_entity_dofs_0_2": [2, 5], 
            "tabulate_entity_dofs_1_0": [], 
            "tabulate_entity_dofs_1_1": [], 
            "tabulate_entity_dofs_1_2": [], 
            "tabulate_entity_dofs_2_0": [], 
            "num_sub_dofmaps": 2, 
            "dofmap_0": {
                "needs_mesh_entities_0": 1, 
                "needs_mesh_entities_1": 0, 
                "needs_mesh_entities_2": 0, 
                "global_dimension": 10001, 
                "num_element_dofs": 3, 
                "num_facet_dofs": 2, 
                "num_entity_dofs_0": 1, 
                "num_entity_dofs_1": 0, 
                "num_entity_dofs_2": 0, 
                "tabulate_dofs": [0, 0, 0], 
                "tabulate_facet_dofs_0": [1, 2], 
                "tabulate_facet_dofs_1": [0, 2], 
                "tabulate_facet_dofs_2": [0, 1], 
                "tabulate_entity_dofs_0_0": [0], 
                "tabulate_entity_dofs_0_1": [1], 
                "tabulate_entity_dofs_0_2": [2], 
                "tabulate_entity_dofs_1_0": [], 
                "tabulate_entity_dofs_1_1": [], 
                "tabulate_entity_dofs_1_2": [], 
                "tabulate_entity_dofs_2_0": [], 
                "num_sub_dofmaps": 0, 
            },
            "dofmap_1": {
                "needs_mesh_entities_0": 1, 
                "needs_mesh_entities_1": 0, 
                "needs_mesh_entities_2": 0, 
                "global_dimension": 10001, 
                "num_element_dofs": 3, 
                "num_facet_dofs": 2, 
                "num_entity_dofs_0": 1, 
                "num_entity_dofs_1": 0, 
                "num_entity_dofs_2": 0, 
                "tabulate_dofs": [0, 0, 0], 
                "tabulate_facet_dofs_0": [1, 2], 
                "tabulate_facet_dofs_1": [0, 2], 
                "tabulate_facet_dofs_2": [0, 1], 
                "tabulate_entity_dofs_0_0": [0], 
                "tabulate_entity_dofs_0_1": [1], 
                "tabulate_entity_dofs_0_2": [2], 
                "tabulate_entity_dofs_1_0": [], 
                "tabulate_entity_dofs_1_1": [], 
                "tabulate_entity_dofs_1_2": [], 
                "tabulate_entity_dofs_2_0": [], 
                "num_sub_dofmaps": 0, 
            },
        },
        "dofmap_1": {
            "needs_mesh_entities_0": 1, 
            "needs_mesh_entities_1": 0, 
            "needs_mesh_entities_2": 0, 
            "global_dimension": 20002, 
            "num_element_dofs": 6, 
            "num_facet_dofs": 4, 
            "num_entity_dofs_0": 2, 
            "num_entity_dofs_1": 0, 
            "num_entity_dofs_2": 0, 
            "tabulate_dofs": [0, 0, 0, 10001, 10001, 10001], 
            "tabulate_facet_dofs_0": [1, 2, 4, 5], 
            "tabulate_facet_dofs_1": [0, 2, 3, 5], 
            "tabulate_facet_dofs_2": [0, 1, 3, 4], 
            "tabulate_entity_dofs_0_0": [0, 3], 
            "tabulate_entity_dofs_0_1": [1, 4], 
            "tabulate_entity_dofs_0_2": [2, 5], 
            "tabulate_entity_dofs_1_0": [], 
            "tabulate_entity_dofs_1_1": [], 
            "tabulate_entity_dofs_1_2": [], 
            "tabulate_entity_dofs_2_0": [], 
            "num_sub_dofmaps": 2, 
            "dofmap_0": {
                "needs_mesh_entities_0": 1, 
                "needs_mesh_entities_1": 0, 
                "needs_mesh_entities_2": 0, 
                "global_dimension": 10001, 
                "num_element_dofs": 3, 
                "num_facet_dofs": 2, 
                "num_entity_dofs_0": 1, 
                "num_entity_dofs_1": 0, 
                "num_entity_dofs_2": 0, 
                "tabulate_dofs": [0, 0, 0], 
                "tabulate_facet_dofs_0": [1, 2], 
                "tabulate_facet_dofs_1": [0, 2], 
                "tabulate_facet_dofs_2": [0, 1], 
                "tabulate_entity_dofs_0_0": [0], 
                "tabulate_entity_dofs_0_1": [1], 
                "tabulate_entity_dofs_0_2": [2], 
                "tabulate_entity_dofs_1_0": [], 
                "tabulate_entity_dofs_1_1": [], 
                "tabulate_entity_dofs_1_2": [], 
                "tabulate_entity_dofs_2_0": [], 
                "num_sub_dofmaps": 0, 
            },
            "dofmap_1": {
                "needs_mesh_entities_0": 1, 
                "needs_mesh_entities_1": 0, 
                "needs_mesh_entities_2": 0, 
                "global_dimension": 10001, 
                "num_element_dofs": 3, 
                "num_facet_dofs": 2, 
                "num_entity_dofs_0": 1, 
                "num_entity_dofs_1": 0, 
                "num_entity_dofs_2": 0, 
                "tabulate_dofs": [0, 0, 0], 
                "tabulate_facet_dofs_0": [1, 2], 
                "tabulate_facet_dofs_1": [0, 2], 
                "tabulate_facet_dofs_2": [0, 1], 
                "tabulate_entity_dofs_0_0": [0], 
                "tabulate_entity_dofs_0_1": [1], 
                "tabulate_entity_dofs_0_2": [2], 
                "tabulate_entity_dofs_1_0": [], 
                "tabulate_entity_dofs_1_1": [], 
                "tabulate_entity_dofs_1_2": [], 
                "tabulate_entity_dofs_2_0": [], 
                "num_sub_dofmaps": 0, 
            },
        },
        "dofmap_2": {
            "needs_mesh_entities_0": 1, 
            "needs_mesh_entities_1": 0, 
            "needs_mesh_entities_2": 0, 
            "global_dimension": 20002, 
            "num_element_dofs": 6, 
            "num_facet_dofs": 4, 
            "num_entity_dofs_0": 2, 
            "num_entity_dofs_1": 0, 
            "num_entity_dofs_2": 0, 
            "tabulate_dofs": [0, 0, 0, 10001, 10001, 10001], 
            "tabulate_facet_dofs_0": [1, 2, 4, 5], 
            "tabulate_facet_dofs_1": [0, 2, 3, 5], 
            "tabulate_facet_dofs_2": [0, 1, 3, 4], 
            "tabulate_entity_dofs_0_0": [0, 3], 
            "tabulate_entity_dofs_0_1": [1, 4], 
            "tabulate_entity_dofs_0_2": [2, 5], 
            "tabulate_entity_dofs_1_0": [], 
            "tabulate_entity_dofs_1_1": [], 
            "tabulate_entity_dofs_1_2": [], 
            "tabulate_entity_dofs_2_0": [], 
            "num_sub_dofmaps": 2, 
            "dofmap_0": {
                "needs_mesh_entities_0": 1, 
                "needs_mesh_entities_1": 0, 
                "needs_mesh_entities_2": 0, 
                "global_dimension": 10001, 
                "num_element_dofs": 3, 
                "num_facet_dofs": 2, 
                "num_entity_dofs_0": 1, 
                "num_entity_dofs_1": 0, 
                "num_entity_dofs_2": 0, 
                "tabulate_dofs": [0, 0, 0], 
                "tabulate_facet_dofs_0": [1, 2], 
                "tabulate_facet_dofs_1": [0, 2], 
                "tabulate_facet_dofs_2": [0, 1], 
                "tabulate_entity_dofs_0_0": [0], 
                "tabulate_entity_dofs_0_1": [1], 
                "tabulate_entity_dofs_0_2": [2], 
                "tabulate_entity_dofs_1_0": [], 
                "tabulate_entity_dofs_1_1": [], 
                "tabulate_entity_dofs_1_2": [], 
                "tabulate_entity_dofs_2_0": [], 
                "num_sub_dofmaps": 0, 
            },
            "dofmap_1": {
                "needs_mesh_entities_0": 1, 
                "needs_mesh_entities_1": 0, 
                "needs_mesh_entities_2": 0, 
                "global_dimension": 10001, 
                "num_element_dofs": 3, 
                "num_facet_dofs": 2, 
                "num_entity_dofs_0": 1, 
                "num_entity_dofs_1": 0, 
                "num_entity_dofs_2": 0, 
                "tabulate_dofs": [0, 0, 0], 
                "tabulate_facet_dofs_0": [1, 2], 
                "tabulate_facet_dofs_1": [0, 2], 
                "tabulate_facet_dofs_2": [0, 1], 
                "tabulate_entity_dofs_0_0": [0], 
                "tabulate_entity_dofs_0_1": [1], 
                "tabulate_entity_dofs_0_2": [2], 
                "tabulate_entity_dofs_1_0": [], 
                "tabulate_entity_dofs_1_1": [], 
                "tabulate_entity_dofs_1_2": [], 
                "tabulate_entity_dofs_2_0": [], 
                "num_sub_dofmaps": 0, 
            },
        },
        "default_cell_integral": 1, 
        "cell_integral": {
            "tabulate_tensor": [5.4526502336850035e-03, 6.2316002492640021e-03, 7.0105502648430034e-03, 1.4800050607581003e-02, 1.5579000623160004e-02, 1.6357950638739006e-02], 
        },
        "default_exterior_facet_integral": 1, 
        "exterior_facet_integral": {
            "tabulate_tensor_0": [0.0, 9.9470085064676250e-02, 1.1368009673210286e-01, 0.0, 2.2736019414274372e-01, 2.4157020581017036e-01], 
            "tabulate_tensor_1": [7.4985184199117136e-02, 0.0, 1.0497925673297369e-01, 2.0995851489818523e-01, 0.0, 2.3995258743204179e-01], 
            "tabulate_tensor_2": [7.2839549986421170e-02, 9.1049436830875366e-02, 0.0, 2.3672853680371769e-01, 2.5493842364817187e-01, 0.0], 
        },
        "default_interior_facet_integral": 0, 
        "default_vertex_integral": 0, 
    },
}
