{
    "form_0": {
        "rank": 2, 
        "num_coefficients": 0, 
        "has_cell_integrals": 1, 
        "has_exterior_facet_integrals": 0, 
        "has_interior_facet_integrals": 0, 
        "has_vertex_integrals": 0, 
        "max_cell_subdomain_id": 0, 
        "max_exterior_facet_subdomain_id": 0, 
        "max_interior_facet_subdomain_id": 0, 
        "max_vertex_subdomain_id": 0, 
        "finite_element_0": {
            "cell_shape": 1, 
            "space_dimension": 6, 
            "value_rank": 0, 
            "evaluate_basis:_0": [2.8610071678580180e+00], 
            "evaluate_basis:_1": [6.1881163893169155e+00], 
            "evaluate_basis:_2": [1.4984118131434853e+01], 
            "evaluate_basis:_3": [-2.0254997816349125e+01], 
            "evaluate_basis:_4": [-1.4710349887246434e+01], 
            "evaluate_basis:_5": [1.1932105742404254e+01], 
            "evaluate_basis_all": [2.8610071678580180e+00, 6.1881163893169155e+00, 1.4984118131434853e+01, -2.0254997816349125e+01, -1.4710349887246434e+01, 1.1932105742404254e+01, 0.0, 0.0, 0.0, 0.0, 0.0, 0.0, 0.0, 0.0, 0.0, 0.0, 0.0, 0.0, 0.0, 0.0, 0.0, 0.0, 0.0, 0.0], 
            "evaluate_basis_derivatives_0_0": [2.8610071678580180e+00], 
            "evaluate_basis_derivatives_0_1": [4.1830166325985907e-01, -1.1137281139441237e+01], 
            "evaluate_basis_derivatives_0_2": [2.9299184886074414e-02, -7.8009583790731085e-01, -7.8009552734581433e-01, 2.0770049714109000e+01], 
            "evaluate_basis_derivatives_1_0": [6.1881163893169155e+00], 
            "evaluate_basis_derivatives_1_1": [-1.6802284432419185e+01, 3.1931942336532431e+00], 
            "evaluate_basis_derivatives_1_2": [2.2359541075839978e+01, -4.2493243399802800e+00, -4.2493242137911515e+00, 8.0756367053772460e-01], 
            "evaluate_basis_derivatives_2_0": [1.4984118131434853e+01], 
            "evaluate_basis_derivatives_2_1": [-2.5052630170190362e+01, -2.0112674925364093e+01], 
            "evaluate_basis_derivatives_2_2": [2.0770050562393401e+01, 1.6674547634597520e+01, 1.6674547634597520e+01, 1.3386608664395190e+01], 
            "evaluate_basis_derivatives_3_0": [-2.0254997816349125e+01], 
            "evaluate_basis_derivatives_3_1": [4.2102045766998742e+01, 1.0339616415170878e+01], 
            "evaluate_basis_derivatives_3_2": [-4.3100292690195282e+01, -1.3205319095727823e+01, -1.3205318911355452e+01, 6.5758775909102241e+00], 
            "evaluate_basis_derivatives_4_0": [-1.4710349887246434e+01], 
            "evaluate_basis_derivatives_4_1": [1.2560631577397444e+01, 3.3544504833147194e+01], 
            "evaluate_basis_derivatives_4_2": [1.5601915654084806e+00, -2.0143776173467209e+01, -2.0143776357839585e+01, -3.3349094919700597e+01], 
            "evaluate_basis_derivatives_5_0": [1.1932105742404254e+01], 
            "evaluate_basis_derivatives_5_1": [-1.3226063771129475e+01, -1.5827359122238521e+01], 
            "evaluate_basis_derivatives_5_2": [-1.6187906851871934e+00, 2.1703967965189268e+01, 2.1703967528438628e+01, -8.1910056499146062e+00], 
            "evaluate_basis_derivatives_all_0": [2.8610071678580180e+00, 6.1881163893169155e+00, 1.4984118131434853e+01, -2.0254997816349125e+01, -1.4710349887246434e+01, 1.1932105742404254e+01], 
            "evaluate_basis_derivatives_all_1": [4.1830166325985907e-01, -1.1137281139441237e+01, -1.6802284432419185e+01, 3.1931942336532431e+00, -2.5052630170190362e+01, -2.0112674925364093e+01, 4.2102045766998742e+01, 1.0339616415170878e+01, 1.2560631577397444e+01, 3.3544504833147194e+01, -1.3226063771129475e+01, -1.5827359122238521e+01], 
            "evaluate_basis_derivatives_all_2": [2.9299184886074414e-02, -7.8009583790731085e-01, -7.8009552734581433e-01, 2.0770049714109000e+01, 2.2359541075839978e+01, -4.2493243399802800e+00, -4.2493242137911515e+00, 8.0756367053772460e-01, 2.0770050562393401e+01, 1.6674547634597520e+01, 1.6674547634597520e+01, 1.3386608664395190e+01, -4.3100292690195282e+01, -1.3205319095727823e+01, -1.3205318911355452e+01, 6.5758775909102241e+00, 1.5601915654084806e+00, -2.0143776173467209e+01, -2.0143776357839585e+01, -3.3349094919700597e+01, -1.6187906851871934e+00, 2.1703967965189268e+01, 2.1703967528438628e+01, -8.1910056499146062e+00], 
            "evaluate_dof_0": 3.0792300000000006e-01, 
            "evaluate_dof_1": 4.3028700000000003e-01, 
            "evaluate_dof_2": 7.7282099999999998e-01, 
            "evaluate_dof_3": 5.9984999999999999e-01, 
            "evaluate_dof_4": 5.3109000000000006e-01, 
            "evaluate_dof_5": 4.0552800000000000e-01, 
            "evaluate_dofs": [3.0792300000000006e-01, 4.3028700000000003e-01, 7.7282099999999998e-01, 5.9984999999999999e-01, 5.3109000000000006e-01, 4.0552800000000000e-01], 
            "interpolate_vertex_values": [3.0792300000000006e-01, 4.3028700000000003e-01, 7.7282099999999998e-01], 
            "tabulate_dof_coordinates": [9.0300000000000002e-01, 3.4100000000000003e-01, 5.6100000000000005e-01, 7.6700000000000002e-01, 9.8699999999999999e-01, 7.8300000000000003e-01, 7.7400000000000002e-01, 7.7500000000000002e-01, 9.4500000000000006e-01, 5.6200000000000006e-01, 7.3199999999999998e-01, 5.5400000000000005e-01], 
            "num_sub_elements": 0, 
        },
        "finite_element_1": {
            "cell_shape": 1, 
            "space_dimension": 6, 
            "value_rank": 0, 
            "evaluate_basis:_0": [2.8610071678580180e+00], 
            "evaluate_basis:_1": [6.1881163893169155e+00], 
            "evaluate_basis:_2": [1.4984118131434853e+01], 
            "evaluate_basis:_3": [-2.0254997816349125e+01], 
            "evaluate_basis:_4": [-1.4710349887246434e+01], 
            "evaluate_basis:_5": [1.1932105742404254e+01], 
            "evaluate_basis_all": [2.8610071678580180e+00, 6.1881163893169155e+00, 1.4984118131434853e+01, -2.0254997816349125e+01, -1.4710349887246434e+01, 1.1932105742404254e+01, 0.0, 0.0, 0.0, 0.0, 0.0, 0.0, 0.0, 0.0, 0.0, 0.0, 0.0, 0.0, 0.0, 0.0, 0.0, 0.0, 0.0, 0.0], 
            "evaluate_basis_derivatives_0_0": [2.8610071678580180e+00], 
            "evaluate_basis_derivatives_0_1": [4.1830166325985907e-01, -1.1137281139441237e+01], 
            "evaluate_basis_derivatives_0_2": [2.9299184886074414e-02, -7.8009583790731085e-01, -7.8009552734581433e-01, 2.0770049714109000e+01], 
            "evaluate_basis_derivatives_1_0": [6.1881163893169155e+00], 
            "evaluate_basis_derivatives_1_1": [-1.6802284432419185e+01, 3.1931942336532431e+00], 
            "evaluate_basis_derivatives_1_2": [2.2359541075839978e+01, -4.2493243399802800e+00, -4.2493242137911515e+00, 8.0756367053772460e-01], 
            "evaluate_basis_derivatives_2_0": [1.4984118131434853e+01], 
            "evaluate_basis_derivatives_2_1": [-2.5052630170190362e+01, -2.0112674925364093e+01], 
            "evaluate_basis_derivatives_2_2": [2.0770050562393401e+01, 1.6674547634597520e+01, 1.6674547634597520e+01, 1.3386608664395190e+01], 
            "evaluate_basis_derivatives_3_0": [-2.0254997816349125e+01], 
            "evaluate_basis_derivatives_3_1": [4.2102045766998742e+01, 1.0339616415170878e+01], 
            "evaluate_basis_derivatives_3_2": [-4.3100292690195282e+01, -1.3205319095727823e+01, -1.3205318911355452e+01, 6.5758775909102241e+00], 
            "evaluate_basis_derivatives_4_0": [-1.4710349887246434e+01], 
            "evaluate_basis_derivatives_4_1": [1.2560631577397444e+01, 3.3544504833147194e+01], 
            "evaluate_basis_derivatives_4_2": [1.5601915654084806e+00, -2.0143776173467209e+01, -2.0143776357839585e+01, -3.3349094919700597e+01], 
            "evaluate_basis_derivatives_5_0": [1.1932105742404254e+01], 
            "evaluate_basis_derivatives_5_1": [-1.3226063771129475e+01, -1.5827359122238521e+01], 
            "evaluate_basis_derivatives_5_2": [-1.6187906851871934e+00, 2.1703967965189268e+01, 2.1703967528438628e+01, -8.1910056499146062e+00], 
            "evaluate_basis_derivatives_all_0": [2.8610071678580180e+00, 6.1881163893169155e+00, 1.4984118131434853e+01, -2.0254997816349125e+01, -1.4710349887246434e+01, 1.1932105742404254e+01], 
            "evaluate_basis_derivatives_all_1": [4.1830166325985907e-01, -1.1137281139441237e+01, -1.6802284432419185e+01, 3.1931942336532431e+00, -2.5052630170190362e+01, -2.0112674925364093e+01, 4.2102045766998742e+01, 1.0339616415170878e+01, 1.2560631577397444e+01, 3.3544504833147194e+01, -1.3226063771129475e+01, -1.5827359122238521e+01], 
            "evaluate_basis_derivatives_all_2": [2.9299184886074414e-02, -7.8009583790731085e-01, -7.8009552734581433e-01, 2.0770049714109000e+01, 2.2359541075839978e+01, -4.2493243399802800e+00, -4.2493242137911515e+00, 8.0756367053772460e-01, 2.0770050562393401e+01, 1.6674547634597520e+01, 1.6674547634597520e+01, 1.3386608664395190e+01, -4.3100292690195282e+01, -1.3205319095727823e+01, -1.3205318911355452e+01, 6.5758775909102241e+00, 1.5601915654084806e+00, -2.0143776173467209e+01, -2.0143776357839585e+01, -3.3349094919700597e+01, -1.6187906851871934e+00, 2.1703967965189268e+01, 2.1703967528438628e+01, -8.1910056499146062e+00], 
            "evaluate_dof_0": 3.0792300000000006e-01, 
            "evaluate_dof_1": 4.3028700000000003e-01, 
            "evaluate_dof_2": 7.7282099999999998e-01, 
            "evaluate_dof_3": 5.9984999999999999e-01, 
            "evaluate_dof_4": 5.3109000000000006e-01, 
            "evaluate_dof_5": 4.0552800000000000e-01, 
            "evaluate_dofs": [3.0792300000000006e-01, 4.3028700000000003e-01, 7.7282099999999998e-01, 5.9984999999999999e-01, 5.3109000000000006e-01, 4.0552800000000000e-01], 
            "interpolate_vertex_values": [3.0792300000000006e-01, 4.3028700000000003e-01, 7.7282099999999998e-01], 
            "tabulate_dof_coordinates": [9.0300000000000002e-01, 3.4100000000000003e-01, 5.6100000000000005e-01, 7.6700000000000002e-01, 9.8699999999999999e-01, 7.8300000000000003e-01, 7.7400000000000002e-01, 7.7500000000000002e-01, 9.4500000000000006e-01, 5.6200000000000006e-01, 7.3199999999999998e-01, 5.5400000000000005e-01], 
            "num_sub_elements": 0, 
        },
        "dofmap_0": {
            "needs_mesh_entities_0": 1, 
            "needs_mesh_entities_1": 1, 
            "needs_mesh_entities_2": 0, 
            "global_dimension": 20003, 
            "num_element_dofs": 6, 
            "num_facet_dofs": 3, 
            "num_entity_dofs_0": 1, 
            "num_entity_dofs_1": 1, 
            "num_entity_dofs_2": 0, 
            "tabulate_dofs": [0, 0, 0, 10001, 10002, 10003], 
            "tabulate_facet_dofs_0": [1, 2, 3], 
            "tabulate_facet_dofs_1": [0, 2, 4], 
            "tabulate_facet_dofs_2": [0, 1, 5], 
            "tabulate_entity_dofs_0_0": [0], 
            "tabulate_entity_dofs_0_1": [1], 
            "tabulate_entity_dofs_0_2": [2], 
            "tabulate_entity_dofs_1_0": [3], 
            "tabulate_entity_dofs_1_1": [4], 
            "tabulate_entity_dofs_1_2": [5], 
            "tabulate_entity_dofs_2_0": [], 
            "num_sub_dofmaps": 0, 
        },
        "dofmap_1": {
            "needs_mesh_entities_0": 1, 
            "needs_mesh_entities_1": 1, 
            "needs_mesh_entities_2": 0, 
            "global_dimension": 20003, 
            "num_element_dofs": 6, 
            "num_facet_dofs": 3, 
            "num_entity_dofs_0": 1, 
            "num_entity_dofs_1": 1, 
            "num_entity_dofs_2": 0, 
            "tabulate_dofs": [0, 0, 0, 10001, 10002, 10003], 
            "tabulate_facet_dofs_0": [1, 2, 3], 
            "tabulate_facet_dofs_1": [0, 2, 4], 
            "tabulate_facet_dofs_2": [0, 1, 5], 
            "tabulate_entity_dofs_0_0": [0], 
            "tabulate_entity_dofs_0_1": [1], 
            "tabulate_entity_dofs_0_2": [2], 
            "tabulate_entity_dofs_1_0": [3], 
            "tabulate_entity_dofs_1_1": [4], 
            "tabulate_entity_dofs_1_2": [5], 
            "tabulate_entity_dofs_2_0": [], 
            "num_sub_dofmaps": 0, 
        },
        "default_cell_integral": 1, 
        "cell_integral": {
            "tabulate_tensor": [4.8604962368204618e-01, 3.8206704028690100e-02, 1.2380983359829111e-01, -4.3204409910790886e-09, -4.9523933419971800e-01, -1.5282681306787621e-01, 3.8206704028690100e-02, 5.4138052090836974e-01, 1.4225346559720708e-01, -5.6901387085354749e-01, -4.8122711371334503e-09, -1.5282680404083807e-01, 1.2380983359829111e-01, 1.4225346559720708e-01, 7.9818991532404804e-01, -5.6901386857079728e-01, -4.9523932288992989e-01, -7.0950213482134927e-09, -4.3204409910790886e-09, -5.6901387085354749e-01, -5.6901386857079728e-01, 2.4341600577219586e+00, -3.0565364382126514e-01, -9.9047868722632348e-01, -4.9523933419971800e-01, -4.8122711371334503e-09, -4.9523932288992989e-01, -3.0565364382126514e-01, 2.4341600099535237e+00, -1.1380277190875188e+00, -1.5282681306787621e-01, -1.5282680404083807e-01, -7.0950213482134927e-09, -9.9047868722632348e-01, -1.1380277190875188e+00, 2.4341600259327736e+00], 
        },
        "default_exterior_facet_integral": 0, 
        "default_interior_facet_integral": 0, 
        "default_vertex_integral": 0, 
    },
    "form_1": {
        "rank": 1, 
        "num_coefficients": 0, 
        "has_cell_integrals": 1, 
        "has_exterior_facet_integrals": 1, 
        "has_interior_facet_integrals": 0, 
        "has_vertex_integrals": 0, 
        "max_cell_subdomain_id": 0, 
        "max_exterior_facet_subdomain_id": 0, 
        "max_interior_facet_subdomain_id": 0, 
        "max_vertex_subdomain_id": 0, 
        "finite_element_0": {
            "cell_shape": 1, 
            "space_dimension": 6, 
            "value_rank": 0, 
            "evaluate_basis:_0": [2.8610071678580180e+00], 
            "evaluate_basis:_1": [6.1881163893169155e+00], 
            "evaluate_basis:_2": [1.4984118131434853e+01], 
            "evaluate_basis:_3": [-2.0254997816349125e+01], 
            "evaluate_basis:_4": [-1.4710349887246434e+01], 
            "evaluate_basis:_5": [1.1932105742404254e+01], 
            "evaluate_basis_all": [2.8610071678580180e+00, 6.1881163893169155e+00, 1.4984118131434853e+01, -2.0254997816349125e+01, -1.4710349887246434e+01, 1.1932105742404254e+01, 0.0, 0.0, 0.0, 0.0, 0.0, 0.0, 0.0, 0.0, 0.0, 0.0, 0.0, 0.0, 0.0, 0.0, 0.0, 0.0, 0.0, 0.0], 
            "evaluate_basis_derivatives_0_0": [2.8610071678580180e+00], 
            "evaluate_basis_derivatives_0_1": [4.1830166325985907e-01, -1.1137281139441237e+01], 
            "evaluate_basis_derivatives_0_2": [2.9299184886074414e-02, -7.8009583790731085e-01, -7.8009552734581433e-01, 2.0770049714109000e+01], 
            "evaluate_basis_derivatives_1_0": [6.1881163893169155e+00], 
            "evaluate_basis_derivatives_1_1": [-1.6802284432419185e+01, 3.1931942336532431e+00], 
            "evaluate_basis_derivatives_1_2": [2.2359541075839978e+01, -4.2493243399802800e+00, -4.2493242137911515e+00, 8.0756367053772460e-01], 
            "evaluate_basis_derivatives_2_0": [1.4984118131434853e+01], 
            "evaluate_basis_derivatives_2_1": [-2.5052630170190362e+01, -2.0112674925364093e+01], 
            "evaluate_basis_derivatives_2_2": [2.0770050562393401e+01, 1.6674547634597520e+01, 1.6674547634597520e+01, 1.3386608664395190e+01], 
            "evaluate_basis_derivatives_3_0": [-2.0254997816349125e+01], 
            "evaluate_basis_derivatives_3_1": [4.2102045766998742e+01, 1.0339616415170878e+01], 
            "evaluate_basis_derivatives_3_2": [-4.3100292690195282e+01, -1.3205319095727823e+01, -1.3205318911355452e+01, 6.5758775909102241e+00], 
            "evaluate_basis_derivatives_4_0": [-1.4710349887246434e+01], 
            "evaluate_basis_derivatives_4_1": [1.2560631577397444e+01, 3.3544504833147194e+01], 
            "evaluate_basis_derivatives_4_2": [1.5601915654084806e+00, -2.0143776173467209e+01, -2.0143776357839585e+01, -3.3349094919700597e+01], 
            "evaluate_basis_derivatives_5_0": [1.1932105742404254e+01], 
            "evaluate_basis_derivatives_5_1": [-1.3226063771129475e+01, -1.5827359122238521e+01], 
            "evaluate_basis_derivatives_5_2": [-1.6187906851871934e+00, 2.1703967965189268e+01, 2.1703967528438628e+01, -8.1910056499146062e+00], 
            "evaluate_basis_derivatives_all_0": [2.8610071678580180e+00, 6.1881163893169155e+00, 1.4984118131434853e+01, -2.0254997816349125e+01, -1.4710349887246434e+01, 1.1932105742404254e+01], 
            "evaluate_basis_derivatives_all_1": [4.1830166325985907e-01, -1.1137281139441237e+01, -1.6802284432419185e+01, 3.1931942336532431e+00, -2.5052630170190362e+01, -2.0112674925364093e+01, 4.2102045766998742e+01, 1.0339616415170878e+01, 1.2560631577397444e+01, 3.3544504833147194e+01, -1.3226063771129475e+01, -1.5827359122238521e+01], 
            "evaluate_basis_derivatives_all_2": [2.9299184886074414e-02, -7.8009583790731085e-01, -7.8009552734581433e-01, 2.0770049714109000e+01, 2.2359541075839978e+01, -4.2493243399802800e+00, -4.2493242137911515e+00, 8.0756367053772460e-01, 2.0770050562393401e+01, 1.6674547634597520e+01, 1.6674547634597520e+01, 1.3386608664395190e+01, -4.3100292690195282e+01, -1.3205319095727823e+01, -1.3205318911355452e+01, 6.5758775909102241e+00, 1.5601915654084806e+00, -2.0143776173467209e+01, -2.0143776357839585e+01, -3.3349094919700597e+01, -1.6187906851871934e+00, 2.1703967965189268e+01, 2.1703967528438628e+01, -8.1910056499146062e+00], 
            "evaluate_dof_0": 3.0792300000000006e-01, 
            "evaluate_dof_1": 4.3028700000000003e-01, 
            "evaluate_dof_2": 7.7282099999999998e-01, 
            "evaluate_dof_3": 5.9984999999999999e-01, 
            "evaluate_dof_4": 5.3109000000000006e-01, 
            "evaluate_dof_5": 4.0552800000000000e-01, 
            "evaluate_dofs": [3.0792300000000006e-01, 4.3028700000000003e-01, 7.7282099999999998e-01, 5.9984999999999999e-01, 5.3109000000000006e-01, 4.0552800000000000e-01], 
            "interpolate_vertex_values": [3.0792300000000006e-01, 4.3028700000000003e-01, 7.7282099999999998e-01], 
            "tabulate_dof_coordinates": [9.0300000000000002e-01, 3.4100000000000003e-01, 5.6100000000000005e-01, 7.6700000000000002e-01, 9.8699999999999999e-01, 7.8300000000000003e-01, 7.7400000000000002e-01, 7.7500000000000002e-01, 9.4500000000000006e-01, 5.6200000000000006e-01, 7.3199999999999998e-01, 5.5400000000000005e-01], 
            "num_sub_elements": 0, 
        },
        "dofmap_0": {
            "needs_mesh_entities_0": 1, 
            "needs_mesh_entities_1": 1, 
            "needs_mesh_entities_2": 0, 
            "global_dimension": 20003, 
            "num_element_dofs": 6, 
            "num_facet_dofs": 3, 
            "num_entity_dofs_0": 1, 
            "num_entity_dofs_1": 1, 
            "num_entity_dofs_2": 0, 
            "tabulate_dofs": [0, 0, 0, 10001, 10002, 10003], 
            "tabulate_facet_dofs_0": [1, 2, 3], 
            "tabulate_facet_dofs_1": [0, 2, 4], 
            "tabulate_facet_dofs_2": [0, 1, 5], 
            "tabulate_entity_dofs_0_0": [0], 
            "tabulate_entity_dofs_0_1": [1], 
            "tabulate_entity_dofs_0_2": [2], 
            "tabulate_entity_dofs_1_0": [3], 
            "tabulate_entity_dofs_1_1": [4], 
            "tabulate_entity_dofs_1_2": [5], 
            "tabulate_entity_dofs_2_0": [], 
            "num_sub_dofmaps": 0, 
        },
        "default_cell_integral": 1, 
        "cell_integral": {
            "tabulate_tensor": [-6.8978850311423711e-04, 1.7414299693762317e-03, -5.8727202626067583e-04, 2.0329428927743369e-03, 9.7238068597412018e-04, 5.7915094426114122e-03], 
        },
        "default_exterior_facet_integral": 1, 
        "exterior_facet_integral": {
            "tabulate_tensor_0": [0.0, 1.8180824230831449e-02, -8.2371686982820019e-02, -1.6891856193573607e-01, 0.0, 0.0], 
            "tabulate_tensor_1": [-7.4187135821346339e-02, 0.0, -7.3791726862399862e-02, 0.0, -2.9859716344065845e-01, 0.0], 
            "tabulate_tensor_2": [-9.8360188668761436e-02, 2.7205899326809422e-02, 0.0, 0.0, 0.0, -1.6774221048387442e-01], 
        },
        "default_interior_facet_integral": 0, 
        "default_vertex_integral": 0, 
    },
}
