{
    "form_0": {
        "rank": 2, 
        "num_coefficients": 1, 
        "has_cell_integrals": 1, 
        "has_exterior_facet_integrals": 0, 
        "has_interior_facet_integrals": 1, 
        "has_vertex_integrals": 0, 
        "max_cell_subdomain_id": 0, 
        "max_exterior_facet_subdomain_id": 0, 
        "max_interior_facet_subdomain_id": 0, 
        "max_vertex_subdomain_id": 0, 
        "finite_element_0": {
            "cell_shape": 1, 
            "space_dimension": 6, 
            "value_rank": 0, 
            "evaluate_basis:_0": [2.8610071678580180e+00], 
            "evaluate_basis:_1": [6.1881163893169155e+00], 
            "evaluate_basis:_2": [1.4984118131434853e+01], 
            "evaluate_basis:_3": [-2.0254997816349125e+01], 
            "evaluate_basis:_4": [-1.4710349887246434e+01], 
            "evaluate_basis:_5": [1.1932105742404254e+01], 
            "evaluate_basis_all": [2.8610071678580180e+00, 6.1881163893169155e+00, 1.4984118131434853e+01, -2.0254997816349125e+01, -1.4710349887246434e+01, 1.1932105742404254e+01, 0.0, 0.0, 0.0, 0.0, 0.0, 0.0, 0.0, 0.0, 0.0, 0.0, 0.0, 0.0, 0.0, 0.0, 0.0, 0.0, 0.0, 0.0], 
            "evaluate_basis_derivatives_0_0": [2.8610071678580180e+00], 
            "evaluate_basis_derivatives_0_1": [4.1830166325985907e-01, -1.1137281139441237e+01], 
            "evaluate_basis_derivatives_0_2": [2.9299184886074414e-02, -7.8009583790731085e-01, -7.8009552734581433e-01, 2.0770049714109000e+01], 
            "evaluate_basis_derivatives_1_0": [6.1881163893169155e+00], 
            "evaluate_basis_derivatives_1_1": [-1.6802284432419185e+01, 3.1931942336532431e+00], 
            "evaluate_basis_derivatives_1_2": [2.2359541075839978e+01, -4.2493243399802800e+00, -4.2493242137911515e+00, 8.0756367053772460e-01], 
            "evaluate_basis_derivatives_2_0": [1.4984118131434853e+01], 
            "evaluate_basis_derivatives_2_1": [-2.5052630170190362e+01, -2.0112674925364093e+01], 
            "evaluate_basis_derivatives_2_2": [2.0770050562393401e+01, 1.6674547634597520e+01, 1.6674547634597520e+01, 1.3386608664395190e+01], 
            "evaluate_basis_derivatives_3_0": [-2.0254997816349125e+01], 
            "evaluate_basis_derivatives_3_1": [4.2102045766998742e+01, 1.0339616415170878e+01], 
            "evaluate_basis_derivatives_3_2": [-4.3100292690195282e+01, -1.3205319095727823e+01, -1.3205318911355452e+01, 6.5758775909102241e+00], 
            "evaluate_basis_derivatives_4_0": [-1.4710349887246434e+01], 
            "evaluate_basis_derivatives_4_1": [1.2560631577397444e+01, 3.3544504833147194e+01], 
            "evaluate_basis_derivatives_4_2": [1.5601915654084806e+00, -2.0143776173467209e+01, -2.0143776357839585e+01, -3.3349094919700597e+01], 
            "evaluate_basis_derivatives_5_0": [1.1932105742404254e+01], 
            "evaluate_basis_derivatives_5_1": [-1.3226063771129475e+01, -1.5827359122238521e+01], 
            "evaluate_basis_derivatives_5_2": [-1.6187906851871934e+00, 2.1703967965189268e+01, 2.1703967528438628e+01, -8.1910056499146062e+00], 
            "evaluate_basis_derivatives_all_0": [2.8610071678580180e+00, 6.1881163893169155e+00, 1.4984118131434853e+01, -2.0254997816349125e+01, -1.4710349887246434e+01, 1.1932105742404254e+01], 
            "evaluate_basis_derivatives_all_1": [4.1830166325985907e-01, -1.1137281139441237e+01, -1.6802284432419185e+01, 3.1931942336532431e+00, -2.5052630170190362e+01, -2.0112674925364093e+01, 4.2102045766998742e+01, 1.0339616415170878e+01, 1.2560631577397444e+01, 3.3544504833147194e+01, -1.3226063771129475e+01, -1.5827359122238521e+01], 
            "evaluate_basis_derivatives_all_2": [2.9299184886074414e-02, -7.8009583790731085e-01, -7.8009552734581433e-01, 2.0770049714109000e+01, 2.2359541075839978e+01, -4.2493243399802800e+00, -4.2493242137911515e+00, 8.0756367053772460e-01, 2.0770050562393401e+01, 1.6674547634597520e+01, 1.6674547634597520e+01, 1.3386608664395190e+01, -4.3100292690195282e+01, -1.3205319095727823e+01, -1.3205318911355452e+01, 6.5758775909102241e+00, 1.5601915654084806e+00, -2.0143776173467209e+01, -2.0143776357839585e+01, -3.3349094919700597e+01, -1.6187906851871934e+00, 2.1703967965189268e+01, 2.1703967528438628e+01, -8.1910056499146062e+00], 
            "evaluate_dof_0": 3.0792300000000006e-01, 
            "evaluate_dof_1": 4.3028700000000003e-01, 
            "evaluate_dof_2": 7.7282099999999998e-01, 
            "evaluate_dof_3": 5.9984999999999999e-01, 
            "evaluate_dof_4": 5.3109000000000006e-01, 
            "evaluate_dof_5": 4.0552800000000000e-01, 
            "evaluate_dofs": [3.0792300000000006e-01, 4.3028700000000003e-01, 7.7282099999999998e-01, 5.9984999999999999e-01, 5.3109000000000006e-01, 4.0552800000000000e-01], 
            "interpolate_vertex_values": [3.0792300000000006e-01, 4.3028700000000003e-01, 7.7282099999999998e-01], 
            "tabulate_dof_coordinates": [9.0300000000000002e-01, 3.4100000000000003e-01, 5.6100000000000005e-01, 7.6700000000000002e-01, 9.8699999999999999e-01, 7.8300000000000003e-01, 7.7400000000000002e-01, 7.7500000000000002e-01, 9.4500000000000006e-01, 5.6200000000000006e-01, 7.3199999999999998e-01, 5.5400000000000005e-01], 
            "num_sub_elements": 0, 
        },
        "finite_element_1": {
            "cell_shape": 1, 
            "space_dimension": 6, 
            "value_rank": 0, 
            "evaluate_basis:_0": [2.8610071678580180e+00], 
            "evaluate_basis:_1": [6.1881163893169155e+00], 
            "evaluate_basis:_2": [1.4984118131434853e+01], 
            "evaluate_basis:_3": [-2.0254997816349125e+01], 
            "evaluate_basis:_4": [-1.4710349887246434e+01], 
            "evaluate_basis:_5": [1.1932105742404254e+01], 
            "evaluate_basis_all": [2.8610071678580180e+00, 6.1881163893169155e+00, 1.4984118131434853e+01, -2.0254997816349125e+01, -1.4710349887246434e+01, 1.1932105742404254e+01, 0.0, 0.0, 0.0, 0.0, 0.0, 0.0, 0.0, 0.0, 0.0, 0.0, 0.0, 0.0, 0.0, 0.0, 0.0, 0.0, 0.0, 0.0], 
            "evaluate_basis_derivatives_0_0": [2.8610071678580180e+00], 
            "evaluate_basis_derivatives_0_1": [4.1830166325985907e-01, -1.1137281139441237e+01], 
            "evaluate_basis_derivatives_0_2": [2.9299184886074414e-02, -7.8009583790731085e-01, -7.8009552734581433e-01, 2.0770049714109000e+01], 
            "evaluate_basis_derivatives_1_0": [6.1881163893169155e+00], 
            "evaluate_basis_derivatives_1_1": [-1.6802284432419185e+01, 3.1931942336532431e+00], 
            "evaluate_basis_derivatives_1_2": [2.2359541075839978e+01, -4.2493243399802800e+00, -4.2493242137911515e+00, 8.0756367053772460e-01], 
            "evaluate_basis_derivatives_2_0": [1.4984118131434853e+01], 
            "evaluate_basis_derivatives_2_1": [-2.5052630170190362e+01, -2.0112674925364093e+01], 
            "evaluate_basis_derivatives_2_2": [2.0770050562393401e+01, 1.6674547634597520e+01, 1.6674547634597520e+01, 1.3386608664395190e+01], 
            "evaluate_basis_derivatives_3_0": [-2.0254997816349125e+01], 
            "evaluate_basis_derivatives_3_1": [4.2102045766998742e+01, 1.0339616415170878e+01], 
            "evaluate_basis_derivatives_3_2": [-4.3100292690195282e+01, -1.3205319095727823e+01, -1.3205318911355452e+01, 6.5758775909102241e+00], 
            "evaluate_basis_derivatives_4_0": [-1.4710349887246434e+01], 
            "evaluate_basis_derivatives_4_1": [1.2560631577397444e+01, 3.3544504833147194e+01], 
            "evaluate_basis_derivatives_4_2": [1.5601915654084806e+00, -2.0143776173467209e+01, -2.0143776357839585e+01, -3.3349094919700597e+01], 
            "evaluate_basis_derivatives_5_0": [1.1932105742404254e+01], 
            "evaluate_basis_derivatives_5_1": [-1.3226063771129475e+01, -1.5827359122238521e+01], 
            "evaluate_basis_derivatives_5_2": [-1.6187906851871934e+00, 2.1703967965189268e+01, 2.1703967528438628e+01, -8.1910056499146062e+00], 
            "evaluate_basis_derivatives_all_0": [2.8610071678580180e+00, 6.1881163893169155e+00, 1.4984118131434853e+01, -2.0254997816349125e+01, -1.4710349887246434e+01, 1.1932105742404254e+01], 
            "evaluate_basis_derivatives_all_1": [4.1830166325985907e-01, -1.1137281139441237e+01, -1.6802284432419185e+01, 3.1931942336532431e+00, -2.5052630170190362e+01, -2.0112674925364093e+01, 4.2102045766998742e+01, 1.0339616415170878e+01, 1.2560631577397444e+01, 3.3544504833147194e+01, -1.3226063771129475e+01, -1.5827359122238521e+01], 
            "evaluate_basis_derivatives_all_2": [2.9299184886074414e-02, -7.8009583790731085e-01, -7.8009552734581433e-01, 2.0770049714109000e+01, 2.2359541075839978e+01, -4.2493243399802800e+00, -4.2493242137911515e+00, 8.0756367053772460e-01, 2.0770050562393401e+01, 1.6674547634597520e+01, 1.6674547634597520e+01, 1.3386608664395190e+01, -4.3100292690195282e+01, -1.3205319095727823e+01, -1.3205318911355452e+01, 6.5758775909102241e+00, 1.5601915654084806e+00, -2.0143776173467209e+01, -2.0143776357839585e+01, -3.3349094919700597e+01, -1.6187906851871934e+00, 2.1703967965189268e+01, 2.1703967528438628e+01, -8.1910056499146062e+00], 
            "evaluate_dof_0": 3.0792300000000006e-01, 
            "evaluate_dof_1": 4.3028700000000003e-01, 
            "evaluate_dof_2": 7.7282099999999998e-01, 
            "evaluate_dof_3": 5.9984999999999999e-01, 
            "evaluate_dof_4": 5.3109000000000006e-01, 
            "evaluate_dof_5": 4.0552800000000000e-01, 
            "evaluate_dofs": [3.0792300000000006e-01, 4.3028700000000003e-01, 7.7282099999999998e-01, 5.9984999999999999e-01, 5.3109000000000006e-01, 4.0552800000000000e-01], 
            "interpolate_vertex_values": [3.0792300000000006e-01, 4.3028700000000003e-01, 7.7282099999999998e-01], 
            "tabulate_dof_coordinates": [9.0300000000000002e-01, 3.4100000000000003e-01, 5.6100000000000005e-01, 7.6700000000000002e-01, 9.8699999999999999e-01, 7.8300000000000003e-01, 7.7400000000000002e-01, 7.7500000000000002e-01, 9.4500000000000006e-01, 5.6200000000000006e-01, 7.3199999999999998e-01, 5.5400000000000005e-01], 
            "num_sub_elements": 0, 
        },
        "finite_element_2": {
            "cell_shape": 1, 
            "space_dimension": 1, 
            "value_rank": 0, 
            "evaluate_basis:_0": [1.0000000000000000e+00], 
            "evaluate_basis_all": [1.0000000000000000e+00, 0.0, 0.0, 0.0], 
            "evaluate_basis_derivatives_0_0": [1.0000000000000000e+00], 
            "evaluate_basis_derivatives_0_1": [0.0, 0.0], 
            "evaluate_basis_derivatives_0_2": [0.0, 0.0, 0.0, 0.0], 
            "evaluate_basis_derivatives_all_0": [1.0000000000000000e+00], 
            "evaluate_basis_derivatives_all_1": [0.0, 0.0], 
            "evaluate_basis_derivatives_all_2": [0.0, 0.0, 0.0, 0.0], 
            "evaluate_dof_0": 5.1498232303368663e-01, 
            "evaluate_dofs": [5.1498232303368663e-01], 
            "interpolate_vertex_values": [5.1498232303368663e-01, 5.1498232303368663e-01, 5.1498232303368663e-01], 
            "tabulate_dof_coordinates": [8.1699999182999994e-01, 6.3033332703000000e-01], 
            "num_sub_elements": 0, 
        },
        "dofmap_0": {
            "needs_mesh_entities_0": 1, 
            "needs_mesh_entities_1": 1, 
            "needs_mesh_entities_2": 0, 
            "global_dimension": 20003, 
            "num_element_dofs": 6, 
            "num_facet_dofs": 3, 
            "num_entity_dofs_0": 1, 
            "num_entity_dofs_1": 1, 
            "num_entity_dofs_2": 0, 
            "tabulate_dofs": [0, 0, 0, 10001, 10002, 10003], 
            "tabulate_facet_dofs_0": [1, 2, 3], 
            "tabulate_facet_dofs_1": [0, 2, 4], 
            "tabulate_facet_dofs_2": [0, 1, 5], 
            "tabulate_entity_dofs_0_0": [0], 
            "tabulate_entity_dofs_0_1": [1], 
            "tabulate_entity_dofs_0_2": [2], 
            "tabulate_entity_dofs_1_0": [3], 
            "tabulate_entity_dofs_1_1": [4], 
            "tabulate_entity_dofs_1_2": [5], 
            "tabulate_entity_dofs_2_0": [], 
            "num_sub_dofmaps": 0, 
        },
        "dofmap_1": {
            "needs_mesh_entities_0": 1, 
            "needs_mesh_entities_1": 1, 
            "needs_mesh_entities_2": 0, 
            "global_dimension": 20003, 
            "num_element_dofs": 6, 
            "num_facet_dofs": 3, 
            "num_entity_dofs_0": 1, 
            "num_entity_dofs_1": 1, 
            "num_entity_dofs_2": 0, 
            "tabulate_dofs": [0, 0, 0, 10001, 10002, 10003], 
            "tabulate_facet_dofs_0": [1, 2, 3], 
            "tabulate_facet_dofs_1": [0, 2, 4], 
            "tabulate_facet_dofs_2": [0, 1, 5], 
            "tabulate_entity_dofs_0_0": [0], 
            "tabulate_entity_dofs_0_1": [1], 
            "tabulate_entity_dofs_0_2": [2], 
            "tabulate_entity_dofs_1_0": [3], 
            "tabulate_entity_dofs_1_1": [4], 
            "tabulate_entity_dofs_1_2": [5], 
            "tabulate_entity_dofs_2_0": [], 
            "num_sub_dofmaps": 0, 
        },
        "dofmap_2": {
            "needs_mesh_entities_0": 0, 
            "needs_mesh_entities_1": 0, 
            "needs_mesh_entities_2": 0, 
            "global_dimension": 1, 
            "num_element_dofs": 1, 
            "num_facet_dofs": 0, 
            "num_entity_dofs_0": 0, 
            "num_entity_dofs_1": 0, 
            "num_entity_dofs_2": 1, 
            "tabulate_dofs": [0], 
            "tabulate_facet_dofs_0": [], 
            "tabulate_facet_dofs_1": [], 
            "tabulate_facet_dofs_2": [], 
            "tabulate_entity_dofs_0_0": [], 
            "tabulate_entity_dofs_0_1": [], 
            "tabulate_entity_dofs_0_2": [], 
            "tabulate_entity_dofs_1_0": [], 
            "tabulate_entity_dofs_1_1": [], 
            "tabulate_entity_dofs_1_2": [], 
            "tabulate_entity_dofs_2_0": [0], 
            "num_sub_dofmaps": 0, 
        },
        "default_cell_integral": 1, 
        "cell_integral": {
            "tabulate_tensor": [4.0438061566998442e+01, 4.5041447969492609e+01, 6.6407320087023905e+01, -7.1010706489518057e+01, -6.1803933684529696e+01, -1.9072189449467146e+01, 4.5041447969492609e+01, 5.0168874485421931e+01, 7.3966993881184280e+01, -7.9094420397113609e+01, -6.8839567365254950e+01, -2.1243328573730253e+01, 6.6407320087023905e+01, 7.3966993881184280e+01, 1.0905399493084002e+02, -1.1661366872500041e+02, -1.0149432113667963e+02, -3.1320319037368151e+01, -7.1010706489518057e+01, -7.9094420397113609e+01, -1.1661366872500041e+02, 1.2469738263259596e+02, 1.0852995481740486e+02, 3.3491458161631257e+01, -6.1803933684529753e+01, -6.8839567365254950e+01, -1.0149432113667963e+02, 1.0852995481740486e+02, 9.4458687455954404e+01, 2.9149179913105044e+01, -1.9072189449467160e+01, -2.1243328573730253e+01, -3.1320319037368151e+01, 3.3491458161631257e+01, 2.9149179913105044e+01, 8.9951989858292478e+00], 
        },
        "default_exterior_facet_integral": 0, 
        "default_interior_facet_integral": 1, 
        "interior_facet_integral": {
            "tabulate_tensor_0_0": [-1.9823522706661148e+01, -1.3551117046451957e+01, -2.4025082282588702e+01, -1.6753380074435498e+00, 3.4878998050955495e+01, 2.4196061992189861e+01, -1.9823522706661155e+01, -2.4025082282588702e+01, -1.3551117046451953e+01, -1.6753380074435480e+00, 2.4196061992189854e+01, 3.4878998050955495e+01, -1.3551117046451958e+01, -5.2595114411848485e+00, -1.2543743813461244e+01, -1.8082048525141040e+01, 2.6102192388837153e+01, 2.3334228437401933e+01, -1.3551117046451955e+01, -1.2353679709107174e+01, -5.3181636723565218e+00, -1.8213460398323424e+01, 2.3582944772927675e+01, 2.5853476053311400e+01, -2.4025082282588706e+01, -1.2543743813461244e+01, -2.4834661002753805e+01, -1.9245858619485819e+01, 4.4003531153135938e+01, 3.6645814565153628e+01, -2.4025082282588702e+01, -2.5450568753273579e+01, -1.2353679709107167e+01, -1.8820014973320102e+01, 3.5839842710279768e+01, 4.4809503008009777e+01, -1.6753380074435462e+00, -1.8082048525141040e+01, -1.9245858619485819e+01, 7.2739954681705868e+01, -5.9067909533070093e+00, -2.7829918583917248e+01, -1.6753380074435595e+00, -1.8820014973320109e+01, -1.8213460398323431e+01, 7.2445522912034889e+01, -2.7272663070838263e+01, -6.4640464663859607e+00, 3.4878998050955502e+01, 2.6102192388837153e+01, 4.4003531153135953e+01, -5.9067909533070058e+00, -5.9694557287910236e+01, -3.9383373348913302e+01, 3.4878998050955495e+01, 4.4809503008009784e+01, 2.5853476053311397e+01, -6.4640464663859820e+00, -3.8328685170378954e+01, -6.0749245466444549e+01, 2.4196061992189858e+01, 2.3334228437401933e+01, 3.6645814565153628e+01, -2.7829918583917255e+01, -3.9383373348913288e+01, -1.6962813052847679e+01, 2.4196061992189872e+01, 3.5839842710279783e+01, 2.3582944772927675e+01, -2.7272663070838270e+01, -1.8017501231382035e+01, -3.8328685170378968e+01, -1.9823522706661137e+01, -1.3551117046451953e+01, -2.4025082282588698e+01, -1.6753380074435569e+00, 3.4878998050955488e+01, 2.4196061992189854e+01, -1.9823522706661144e+01, -2.4025082282588698e+01, -1.3551117046451949e+01, -1.6753380074435569e+00, 2.4196061992189847e+01, 3.4878998050955488e+01, -2.4025082282588702e+01, -1.2353679709107174e+01, -2.5450568753273579e+01, -1.8820014973320109e+01, 4.4809503008009784e+01, 3.5839842710279775e+01, -2.4025082282588702e+01, -2.4834661002753805e+01, -1.2543743813461235e+01, -1.9245858619485809e+01, 3.6645814565153614e+01, 4.4003531153135931e+01, -1.3551117046451953e+01, -5.3181636723565218e+00, -1.2353679709107167e+01, -1.8213460398323431e+01, 2.5853476053311397e+01, 2.3582944772927675e+01, -1.3551117046451946e+01, -1.2543743813461235e+01, -5.2595114411848378e+00, -1.8082048525141033e+01, 2.3334228437401919e+01, 2.6102192388837135e+01, -1.6753380074435427e+00, -1.8213460398323424e+01, -1.8820014973320099e+01, 7.2445522912034889e+01, -6.4640464663859873e+00, -2.7272663070838277e+01, -1.6753380074435604e+00, -1.9245858619485809e+01, -1.8082048525141033e+01, 7.2739954681705825e+01, -2.7829918583917234e+01, -5.9067909533069951e+00, 2.4196061992189847e+01, 2.3582944772927675e+01, 3.5839842710279768e+01, -2.7272663070838263e+01, -3.8328685170378932e+01, -1.8017501231382020e+01, 2.4196061992189861e+01, 3.6645814565153614e+01, 2.3334228437401919e+01, -2.7829918583917234e+01, -1.6962813052847679e+01, -3.9383373348913281e+01, 3.4878998050955488e+01, 2.5853476053311397e+01, 4.4809503008009777e+01, -6.4640464663859589e+00, -6.0749245466444577e+01, -3.8328685170378961e+01, 3.4878998050955495e+01, 4.4003531153135938e+01, 2.6102192388837135e+01, -5.9067909533069951e+00, -3.9383373348913295e+01, -5.9694557287910229e+01], 
            "tabulate_tensor_0_1": [-1.9823522706661148e+01, -1.3551117046451957e+01, -2.4025082282588702e+01, -1.6753380074435498e+00, 3.4878998050955495e+01, 2.4196061992189861e+01, -2.4025082282588702e+01, -1.9823522706661151e+01, -1.3551117046451957e+01, 2.4196061992189868e+01, -1.6753380074435498e+00, 3.4878998050955502e+01, -1.3551117046451958e+01, -5.2595114411848485e+00, -1.2543743813461244e+01, -1.8082048525141040e+01, 2.6102192388837153e+01, 2.3334228437401933e+01, -1.2353679709107173e+01, -1.3551117046451955e+01, -5.3181636723565244e+00, 2.3582944772927675e+01, -1.8213460396783802e+01, 2.5853476053311400e+01, -2.4025082282588706e+01, -1.2543743813461244e+01, -2.4834661002753805e+01, -1.9245858619485819e+01, 4.4003531153135938e+01, 3.6645814565153628e+01, -2.5450568753273579e+01, -2.4025082282588706e+01, -1.2353679709107173e+01, 3.5839842710279783e+01, -1.8820014978309295e+01, 4.4809503008009791e+01, -1.6753380074435462e+00, -1.8082048525141040e+01, -1.9245858619485819e+01, 7.2739954681705868e+01, -5.9067909533070093e+00, -2.7829918583917248e+01, -1.8820014973320102e+01, -1.6753380074435569e+00, -1.8213460398323431e+01, -2.7272663070838266e+01, 7.2445522916962830e+01, -6.4640464663859696e+00, 3.4878998050955502e+01, 2.6102192388837153e+01, 4.4003531153135953e+01, -5.9067909533070058e+00, -5.9694557287910236e+01, -3.9383373348913302e+01, 4.4809503008009798e+01, 3.4878998050955502e+01, 2.5853476053311407e+01, -3.8328685170378961e+01, -6.4640464570591050e+00, -6.0749245466444592e+01, 2.4196061992189858e+01, 2.3334228437401933e+01, 3.6645814565153628e+01, -2.7829918583917255e+01, -3.9383373348913288e+01, -1.6962813052847679e+01, 3.5839842710279775e+01, 2.4196061992189861e+01, 2.3582944772927679e+01, -1.8017501231382035e+01, -2.7272663080165142e+01, -3.8328685170378961e+01, -2.4025082282588706e+01, -1.2353679709107173e+01, -2.5450568753273583e+01, -1.8820014973320109e+01, 4.4809503008009798e+01, 3.5839842710279768e+01, -2.4834661002753798e+01, -2.4025082282588698e+01, -1.2543743813461239e+01, 3.6645814565153621e+01, -1.9245858614496633e+01, 4.4003531153135938e+01, -1.9823522706661151e+01, -1.3551117046451955e+01, -2.4025082282588706e+01, -1.6753380074435587e+00, 3.4878998050955502e+01, 2.4196061992189861e+01, -2.4025082282588698e+01, -1.9823522706661144e+01, -1.3551117046451953e+01, 2.4196061992189861e+01, -1.6753380074435569e+00, 3.4878998050955495e+01, -1.3551117046451957e+01, -5.3181636723565244e+00, -1.2353679709107173e+01, -1.8213460398323431e+01, 2.5853476053311404e+01, 2.3582944772927679e+01, -1.2543743813461237e+01, -1.3551117046451953e+01, -5.2595114411848449e+00, 2.3334228437401929e+01, -1.8082048526680659e+01, 2.6102192388837146e+01, 2.4196061992189868e+01, 2.3582944772927675e+01, 3.5839842710279775e+01, -2.7272663070838266e+01, -3.8328685170378961e+01, -1.8017501231382031e+01, 3.6645814565153628e+01, 2.4196061992189861e+01, 2.3334228437401929e+01, -1.6962813052847686e+01, -2.7829918574590373e+01, -3.9383373348913302e+01, -1.6753380074435551e+00, -1.8213460396783802e+01, -1.8820014978309295e+01, 7.2445522916962858e+01, -6.4640464570591147e+00, -2.7272663080165142e+01, -1.9245858614496633e+01, -1.6753380074435578e+00, -1.8082048526680659e+01, -2.7829918574590373e+01, 7.2739954665251560e+01, -5.9067909626338544e+00, 3.4878998050955509e+01, 2.5853476053311400e+01, 4.4809503008009791e+01, -6.4640464663859660e+00, -6.0749245466444584e+01, -3.8328685170378947e+01, 4.4003531153135931e+01, 3.4878998050955488e+01, 2.6102192388837143e+01, -3.9383373348913302e+01, -5.9067909626338579e+00, -5.9694557287910222e+01], 
            "tabulate_tensor_0_2": [-1.9823522706661148e+01, -1.3551117046451957e+01, -2.4025082282588702e+01, -1.6753380074435498e+00, 3.4878998050955495e+01, 2.4196061992189861e+01, -2.4025082282588713e+01, -1.3551117046451957e+01, -1.9823522706661151e+01, 2.4196061992189868e+01, 3.4878998050955502e+01, -1.6753380074435498e+00, -1.3551117046451958e+01, -5.2595114411848485e+00, -1.2543743813461244e+01, -1.8082048525141040e+01, 2.6102192388837153e+01, 2.3334228437401933e+01, -1.2353679709107173e+01, -5.3181636723565244e+00, -1.3551117046451955e+01, 2.3582944772927675e+01, 2.5853476053311400e+01, -1.8213460396783802e+01, -2.4025082282588706e+01, -1.2543743813461244e+01, -2.4834661002753805e+01, -1.9245858619485819e+01, 4.4003531153135938e+01, 3.6645814565153628e+01, -2.5450568753273579e+01, -1.2353679709107173e+01, -2.4025082282588706e+01, 3.5839842710279783e+01, 4.4809503008009791e+01, -1.8820014978309295e+01, -1.6753380074435462e+00, -1.8082048525141040e+01, -1.9245858619485819e+01, 7.2739954681705868e+01, -5.9067909533070093e+00, -2.7829918583917248e+01, -1.8820014973320113e+01, -1.8213460398323431e+01, -1.6753380074435569e+00, -2.7272663070838266e+01, -6.4640464663859696e+00, 7.2445522916962830e+01, 3.4878998050955502e+01, 2.6102192388837153e+01, 4.4003531153135953e+01, -5.9067909533070058e+00, -5.9694557287910236e+01, -3.9383373348913302e+01, 4.4809503008009791e+01, 2.5853476053311407e+01, 3.4878998050955502e+01, -3.8328685170378961e+01, -6.0749245466444592e+01, -6.4640464570591050e+00, 2.4196061992189858e+01, 2.3334228437401933e+01, 3.6645814565153628e+01, -2.7829918583917255e+01, -3.9383373348913288e+01, -1.6962813052847679e+01, 3.5839842710279775e+01, 2.3582944772927679e+01, 2.4196061992189861e+01, -1.8017501231382035e+01, -3.8328685170378961e+01, -2.7272663080165145e+01, -2.4025082282588706e+01, -1.2353679709107173e+01, -2.5450568753273583e+01, -1.8820014973320109e+01, 4.4809503008009791e+01, 3.5839842710279775e+01, -2.4834661002753805e+01, -1.2543743813461239e+01, -2.4025082282588698e+01, 3.6645814565153621e+01, 4.4003531153135938e+01, -1.9245858614496633e+01, -1.3551117046451957e+01, -5.3181636723565244e+00, -1.2353679709107173e+01, -1.8213460398323431e+01, 2.5853476053311404e+01, 2.3582944772927679e+01, -1.2543743813461239e+01, -5.2595114411848449e+00, -1.3551117046451953e+01, 2.3334228437401929e+01, 2.6102192388837146e+01, -1.8082048526680659e+01, -1.9823522706661151e+01, -1.3551117046451955e+01, -2.4025082282588706e+01, -1.6753380074435587e+00, 3.4878998050955502e+01, 2.4196061992189861e+01, -2.4025082282588698e+01, -1.3551117046451953e+01, -1.9823522706661144e+01, 2.4196061992189861e+01, 3.4878998050955495e+01, -1.6753380074435569e+00, 2.4196061992189868e+01, 2.3582944772927675e+01, 3.5839842710279775e+01, -2.7272663070838266e+01, -3.8328685170378961e+01, -1.8017501231382031e+01, 3.6645814565153614e+01, 2.3334228437401929e+01, 2.4196061992189861e+01, -1.6962813052847686e+01, -3.9383373348913302e+01, -2.7829918574590373e+01, 3.4878998050955509e+01, 2.5853476053311400e+01, 4.4809503008009791e+01, -6.4640464663859660e+00, -6.0749245466444584e+01, -3.8328685170378947e+01, 4.4003531153135931e+01, 2.6102192388837143e+01, 3.4878998050955488e+01, -3.9383373348913302e+01, -5.9694557287910222e+01, -5.9067909626338579e+00, -1.6753380074435551e+00, -1.8213460396783805e+01, -1.8820014978309295e+01, 7.2445522916962844e+01, -6.4640464570591076e+00, -2.7272663080165142e+01, -1.9245858614496633e+01, -1.8082048526680659e+01, -1.6753380074435578e+00, -2.7829918574590373e+01, -5.9067909626338562e+00, 7.2739954665251574e+01], 
            "tabulate_tensor_1_0": [-4.7194199025980339e+00, -1.3817343733703865e+01, -1.2817242853997778e+01, 2.6641533367698386e+01, -1.8604536298604671e+01, 2.3317009426637540e+01, -1.3817343733703865e+01, -1.2610325549677679e+01, -4.7749941423635365e+00, -1.8755879368590833e+01, 2.3579500970723132e+01, 2.6379041823612781e+01, -1.3817343733703867e+01, -2.4619506377566132e+01, -2.8012054485176002e+01, 4.3928180611699702e+01, -6.9446836711075655e+00, 2.9465407655853866e+01, -2.4619506377566125e+01, -2.8012054485175987e+01, -1.3817343733703876e+01, -6.9446836711075530e+00, 2.9465407655853866e+01, 4.3928180611699673e+01, -1.2817242853997781e+01, -2.8012054485176002e+01, -2.8479311253544786e+01, 5.1349014666018959e+01, -2.2966004279925116e+01, 4.0925598186401537e+01, -2.8012054485175984e+01, -2.9249718028477833e+01, -1.2610325549677693e+01, -2.2402514789088951e+01, 3.9948274107148364e+01, 5.2326338745272089e+01, 2.6641533367698386e+01, 4.3928180611699702e+01, 5.1349014666018959e+01, -7.6614789131838847e+01, 3.6251193555625036e+00, -4.8929058829538015e+01, 4.3928180611699688e+01, 5.2326338745272096e+01, 2.6379041823612805e+01, 2.9102867917871205e+00, -4.7689243220147191e+01, -7.7854604741229622e+01, -1.8604536298604671e+01, -6.9446836711075655e+00, -2.2966004279925116e+01, 3.6251193555625036e+00, 7.0905363982136080e+01, -2.6015259156554180e+01, -6.9446836711075663e+00, -2.2402514768865782e+01, -1.8755879374022427e+01, 7.0493217603992548e+01, -2.5300426556129125e+01, 2.9102867551374612e+00, 2.3317009426637547e+01, 2.9465407655853866e+01, 4.0925598186401544e+01, -4.8929058829538008e+01, -2.6015259156554173e+01, -1.8763697308455512e+01, 2.9465407655853863e+01, 3.9948274107148364e+01, 2.3579500970723149e+01, -2.5300426592778827e+01, -2.0003512917846365e+01, -4.7689243220147148e+01, -1.3817343733703870e+01, -2.4619506377566129e+01, -2.8012054485175987e+01, 4.3928180611699680e+01, -6.9446836711075619e+00, 2.9465407655853859e+01, -2.4619506377566100e+01, -2.8012054485175970e+01, -1.3817343733703868e+01, -6.9446836711075397e+00, 2.9465407655853852e+01, 4.3928180611699638e+01, -1.2610325549677681e+01, -2.8012054485175987e+01, -2.9249718028477833e+01, 5.2326338745272096e+01, -2.2402514768865782e+01, 3.9948274107148357e+01, -2.8012054485175966e+01, -2.8479311253544743e+01, -1.2817242853997778e+01, -2.2966004259701911e+01, 4.0925598186401501e+01, 5.1349014666018888e+01, -4.7749941423635409e+00, -1.3817343733703876e+01, -1.2610325549677691e+01, 2.6379041823612805e+01, -1.8755879374022431e+01, 2.3579500970723153e+01, -1.3817343733703868e+01, -1.2817242853997776e+01, -4.7194199025980454e+00, -1.8604536304036245e+01, 2.3317009426637554e+01, 2.6641533367698386e+01, -1.8755879368590840e+01, -6.9446836711075512e+00, -2.2402514789088954e+01, 2.9102867917871222e+00, 7.0493217603992548e+01, -2.5300426592778827e+01, -6.9446836711075370e+00, -2.2966004259701908e+01, -1.8604536304036245e+01, 7.0905364026545129e+01, -2.6015259119904499e+01, 3.6251193189127795e+00, 2.3579500970723139e+01, 2.9465407655853863e+01, 3.9948274107148364e+01, -4.7689243220147198e+01, -2.5300426556129132e+01, -2.0003512917846365e+01, 2.9465407655853845e+01, 4.0925598186401501e+01, 2.3317009426637554e+01, -2.6015259119904503e+01, -1.8763697308455555e+01, -4.8929058829537972e+01, 2.6379041823612788e+01, 4.3928180611699673e+01, 5.2326338745272096e+01, -7.7854604741229622e+01, 2.9102867551374629e+00, -4.7689243220147155e+01, 4.3928180611699638e+01, 5.1349014666018888e+01, 2.6641533367698386e+01, 3.6251193189127795e+00, -4.8929058829537958e+01, -7.6614789131838720e+01], 
            "tabulate_tensor_1_1": [-4.7194199025980339e+00, -1.3817343733703865e+01, -1.2817242853997778e+01, 2.6641533367698386e+01, -1.8604536298604671e+01, 2.3317009426637540e+01, -1.2610325549677682e+01, -1.3817343733703858e+01, -4.7749941423635374e+00, 2.3579500970723132e+01, -1.8755879367132003e+01, 2.6379041823612781e+01, -1.3817343733703867e+01, -2.4619506377566132e+01, -2.8012054485176002e+01, 4.3928180611699702e+01, -6.9446836711075655e+00, 2.9465407655853866e+01, -2.8012054485175987e+01, -2.4619506377566115e+01, -1.3817343733703876e+01, 2.9465407655853859e+01, -6.9446836711075441e+00, 4.3928180611699659e+01, -1.2817242853997781e+01, -2.8012054485176002e+01, -2.8479311253544786e+01, 5.1349014666018959e+01, -2.2966004279925116e+01, 4.0925598186401537e+01, -2.9249718028477837e+01, -2.8012054485175980e+01, -1.2610325549677690e+01, 3.9948274107148364e+01, -2.2402514794520521e+01, 5.2326338745272089e+01, 2.6641533367698386e+01, 4.3928180611699702e+01, 5.1349014666018959e+01, -7.6614789131838847e+01, 3.6251193555625036e+00, -4.8929058829538015e+01, 5.2326338745272103e+01, 4.3928180611699666e+01, 2.6379041823612802e+01, -4.7689243220147176e+01, 2.9102868016305408e+00, -7.7854604741229608e+01, -1.8604536298604671e+01, -6.9446836711075655e+00, -2.2966004279925116e+01, 3.6251193555625036e+00, 7.0905363982136080e+01, -2.6015259156554180e+01, -2.2402514768865782e+01, -6.9446836711075477e+00, -1.8755879374022431e+01, -2.5300426556129139e+01, 7.0493217586389719e+01, 2.9102867551374487e+00, 2.3317009426637547e+01, 2.9465407655853866e+01, 4.0925598186401544e+01, -4.8929058829538008e+01, -2.6015259156554173e+01, -1.8763697308455512e+01, 3.9948274107148357e+01, 2.9465407655853838e+01, 2.3579500970723153e+01, -2.0003512917846351e+01, -2.5300426602622281e+01, -4.7689243220147119e+01, -1.2610325549677679e+01, -2.8012054485175987e+01, -2.9249718028477833e+01, 5.2326338745272096e+01, -2.2402514768865778e+01, 3.9948274107148350e+01, -2.8479311253544758e+01, -2.8012054485175970e+01, -1.2817242853997776e+01, 4.0925598186401508e+01, -2.2966004254270331e+01, 5.1349014666018896e+01, -1.3817343733703860e+01, -2.4619506377566115e+01, -2.8012054485175980e+01, 4.3928180611699666e+01, -6.9446836711075477e+00, 2.9465407655853838e+01, -2.8012054485175973e+01, -2.4619506377566097e+01, -1.3817343733703868e+01, 2.9465407655853831e+01, -6.9446836711075228e+00, 4.3928180611699631e+01, -4.7749941423635374e+00, -1.3817343733703874e+01, -1.2610325549677690e+01, 2.6379041823612802e+01, -1.8755879374022435e+01, 2.3579500970723153e+01, -1.2817242853997778e+01, -1.3817343733703868e+01, -4.7194199025980428e+00, 2.3317009426637551e+01, -1.8604536305495071e+01, 2.6641533367698383e+01, 2.3579500970723128e+01, 2.9465407655853859e+01, 3.9948274107148364e+01, -4.7689243220147176e+01, -2.5300426556129139e+01, -2.0003512917846351e+01, 4.0925598186401515e+01, 2.9465407655853831e+01, 2.3317009426637551e+01, -1.8763697308455519e+01, -2.6015259110061102e+01, -4.8929058829537944e+01, -1.8755879367132003e+01, -6.9446836711075433e+00, -2.2402514794520521e+01, 2.9102868016305390e+00, 7.0493217586389719e+01, -2.5300426602622274e+01, -2.2966004254270331e+01, -6.9446836711075237e+00, -1.8604536305495067e+01, -2.6015259110061102e+01, 7.0905364008942328e+01, 3.6251193090693352e+00, 2.6379041823612773e+01, 4.3928180611699659e+01, 5.2326338745272082e+01, -7.7854604741229608e+01, 2.9102867551374505e+00, -4.7689243220147119e+01, 5.1349014666018903e+01, 4.3928180611699624e+01, 2.6641533367698383e+01, -4.8929058829537944e+01, 3.6251193090693317e+00, -7.6614789131838691e+01], 
            "tabulate_tensor_1_2": [-4.7194199025980339e+00, -1.3817343733703865e+01, -1.2817242853997778e+01, 2.6641533367698386e+01, -1.8604536298604671e+01, 2.3317009426637540e+01, -1.2610325549677675e+01, -4.7749941423635374e+00, -1.3817343733703858e+01, 2.3579500970723132e+01, 2.6379041823612781e+01, -1.8755879367132003e+01, -1.3817343733703867e+01, -2.4619506377566132e+01, -2.8012054485176002e+01, 4.3928180611699702e+01, -6.9446836711075655e+00, 2.9465407655853866e+01, -2.8012054485175987e+01, -1.3817343733703876e+01, -2.4619506377566115e+01, 2.9465407655853859e+01, 4.3928180611699659e+01, -6.9446836711075441e+00, -1.2817242853997781e+01, -2.8012054485176002e+01, -2.8479311253544786e+01, 5.1349014666018959e+01, -2.2966004279925116e+01, 4.0925598186401537e+01, -2.9249718028477837e+01, -1.2610325549677690e+01, -2.8012054485175980e+01, 3.9948274107148364e+01, 5.2326338745272089e+01, -2.2402514794520521e+01, 2.6641533367698386e+01, 4.3928180611699702e+01, 5.1349014666018959e+01, -7.6614789131838847e+01, 3.6251193555625036e+00, -4.8929058829538015e+01, 5.2326338745272103e+01, 2.6379041823612802e+01, 4.3928180611699666e+01, -4.7689243220147176e+01, -7.7854604741229608e+01, 2.9102868016305408e+00, -1.8604536298604671e+01, -6.9446836711075655e+00, -2.2966004279925116e+01, 3.6251193555625036e+00, 7.0905363982136080e+01, -2.6015259156554180e+01, -2.2402514768865778e+01, -1.8755879374022431e+01, -6.9446836711075477e+00, -2.5300426556129139e+01, 2.9102867551374487e+00, 7.0493217586389719e+01, 2.3317009426637547e+01, 2.9465407655853866e+01, 4.0925598186401544e+01, -4.8929058829538008e+01, -2.6015259156554173e+01, -1.8763697308455512e+01, 3.9948274107148357e+01, 2.3579500970723153e+01, 2.9465407655853838e+01, -2.0003512917846351e+01, -4.7689243220147119e+01, -2.5300426602622274e+01, -1.2610325549677675e+01, -2.8012054485175987e+01, -2.9249718028477840e+01, 5.2326338745272103e+01, -2.2402514768865778e+01, 3.9948274107148350e+01, -2.8479311253544754e+01, -1.2817242853997778e+01, -2.8012054485175970e+01, 4.0925598186401508e+01, 5.1349014666018896e+01, -2.2966004254270331e+01, -4.7749941423635374e+00, -1.3817343733703874e+01, -1.2610325549677690e+01, 2.6379041823612802e+01, -1.8755879374022435e+01, 2.3579500970723153e+01, -1.2817242853997778e+01, -4.7194199025980428e+00, -1.3817343733703868e+01, 2.3317009426637551e+01, 2.6641533367698383e+01, -1.8604536305495071e+01, -1.3817343733703860e+01, -2.4619506377566115e+01, -2.8012054485175980e+01, 4.3928180611699666e+01, -6.9446836711075477e+00, 2.9465407655853838e+01, -2.8012054485175970e+01, -1.3817343733703868e+01, -2.4619506377566097e+01, 2.9465407655853831e+01, 4.3928180611699631e+01, -6.9446836711075228e+00, 2.3579500970723128e+01, 2.9465407655853859e+01, 3.9948274107148364e+01, -4.7689243220147176e+01, -2.5300426556129139e+01, -2.0003512917846351e+01, 4.0925598186401515e+01, 2.3317009426637551e+01, 2.9465407655853831e+01, -1.8763697308455519e+01, -4.8929058829537944e+01, -2.6015259110061102e+01, 2.6379041823612773e+01, 4.3928180611699659e+01, 5.2326338745272082e+01, -7.7854604741229608e+01, 2.9102867551374505e+00, -4.7689243220147119e+01, 5.1349014666018903e+01, 2.6641533367698383e+01, 4.3928180611699624e+01, -4.8929058829537944e+01, -7.6614789131838691e+01, 3.6251193090693317e+00, -1.8755879367132007e+01, -6.9446836711075433e+00, -2.2402514794520521e+01, 2.9102868016305390e+00, 7.0493217586389719e+01, -2.5300426602622274e+01, -2.2966004254270331e+01, -1.8604536305495071e+01, -6.9446836711075237e+00, -2.6015259110061102e+01, 3.6251193090693334e+00, 7.0905364008942314e+01], 
            "tabulate_tensor_2_0": [-1.5030439936038988e+01, -1.7550311484259908e+01, -2.8901305479772574e+01, 4.6511694605017610e+01, 4.3719947041522246e+01, -2.8749584731972632e+01, -2.8901305479772560e+01, -1.6998093467024397e+01, -1.5511061062117543e+01, -2.8821181637625298e+01, 4.4752786184836282e+01, 4.5478855461703517e+01, -1.7550311484259908e+01, -1.9218434650834524e+01, -3.2623445106021194e+01, 5.1087296601500618e+01, 5.0253066654684417e+01, -3.1948172031724518e+01, -3.2623445106021187e+01, -1.9852915163681693e+01, -1.6998093467024418e+01, -3.1865909519457713e+01, 4.9066368124601723e+01, 5.2273995131583291e+01, -2.8901305479772574e+01, -3.2623445106021194e+01, -5.3694670826451734e+01, 8.2015761368733564e+01, 7.8235924471653362e+01, -4.5032264428141431e+01, -5.3694670826451713e+01, -3.2623445106021173e+01, -2.8901305479772585e+01, -4.5032264428141403e+01, 7.8235924471653362e+01, 8.2015761368733507e+01, 4.6511694605017595e+01, 5.1087296601500626e+01, 8.2015761368733564e+01, -1.1217459334491386e+02, -1.0683445719918041e+02, 3.9394298024963120e+01, 8.2015761368733536e+01, 5.2273995131583270e+01, 4.5478855461703567e+01, 3.9240438595424166e+01, -1.0461491955075346e+02, -1.1439413099334071e+02, 4.3719947041522225e+01, 5.0253066654684410e+01, 7.8235924471653362e+01, -1.0683445719918039e+02, -9.7055245756593067e+01, 3.1680764756762613e+01, 7.8235924471653334e+01, 4.9066368124601702e+01, 4.4752786184836310e+01, 3.1834624186301479e+01, -9.9274783405020003e+01, -1.0461491955075338e+02, -2.8749584731972632e+01, -3.1948172031724518e+01, -4.5032264428141431e+01, 3.9394298024963120e+01, 3.1680764756762613e+01, 3.4654958330199207e+01, -4.5032264428141410e+01, -3.1865909502802594e+01, -2.8821181652121048e+01, 3.4644292787988988e+01, 3.1834624230802724e+01, 3.9240438550922946e+01, -2.8901305479772564e+01, -3.2623445106021180e+01, -5.3694670826451713e+01, 8.2015761368733536e+01, 7.8235924471653334e+01, -4.5032264428141403e+01, -5.3694670826451706e+01, -3.2623445106021165e+01, -2.8901305479772581e+01, -4.5032264428141389e+01, 7.8235924471653348e+01, 8.2015761368733493e+01, -1.6998093467024397e+01, -1.9852915163681693e+01, -3.2623445106021173e+01, 5.2273995131583270e+01, 4.9066368124601695e+01, -3.1865909502802594e+01, -3.2623445106021165e+01, -1.9218434650834496e+01, -1.7550311484259908e+01, -3.1948172015069378e+01, 5.0253066654684382e+01, 5.1087296601500569e+01, -1.5511061062117546e+01, -1.6998093467024418e+01, -2.8901305479772589e+01, 4.5478855461703567e+01, 4.4752786184836310e+01, -2.8821181652121048e+01, -2.8901305479772581e+01, -1.7550311484259908e+01, -1.5030439936039006e+01, -2.8749584746468365e+01, 4.3719947041522261e+01, 4.6511694605017595e+01, -2.8821181637625298e+01, -3.1865909519457716e+01, -4.5032264428141410e+01, 3.9240438595424166e+01, 3.1834624186301490e+01, 3.4644292787989009e+01, -4.5032264428141389e+01, -3.1948172015069378e+01, -2.8749584746468365e+01, 3.4654958395408613e+01, 3.1680764801263802e+01, 3.9394297980461829e+01, 4.4752786184836282e+01, 4.9066368124601730e+01, 7.8235924471653362e+01, -1.0461491955075347e+02, -9.9274783405020017e+01, 3.1834624230802739e+01, 7.8235924471653334e+01, 5.0253066654684389e+01, 4.3719947041522261e+01, 3.1680764801263802e+01, -9.7055245756593081e+01, -1.0683445719918035e+02, 4.5478855461703532e+01, 5.2273995131583277e+01, 8.2015761368733521e+01, -1.1439413099334072e+02, -1.0461491955075338e+02, 3.9240438550922953e+01, 8.2015761368733493e+01, 5.1087296601500569e+01, 4.6511694605017603e+01, 3.9394297980461829e+01, -1.0683445719918033e+02, -1.1217459334491373e+02], 
            "tabulate_tensor_2_1": [-1.5030439936038988e+01, -1.7550311484259908e+01, -2.8901305479772574e+01, 4.6511694605017610e+01, 4.3719947041522246e+01, -2.8749584731972632e+01, -1.6998093467024393e+01, -2.8901305479772567e+01, -1.5511061062117545e+01, 4.4752786184836296e+01, -2.8821181625009004e+01, 4.5478855461703532e+01, -1.7550311484259908e+01, -1.9218434650834524e+01, -3.2623445106021194e+01, 5.1087296601500618e+01, 5.0253066654684417e+01, -3.1948172031724518e+01, -1.9852915163681693e+01, -3.2623445106021187e+01, -1.6998093467024422e+01, 4.9066368124601738e+01, -3.1865909533953442e+01, 5.2273995131583284e+01, -2.8901305479772574e+01, -3.2623445106021194e+01, -5.3694670826451734e+01, 8.2015761368733564e+01, 7.8235924471653362e+01, -4.5032264428141431e+01, -3.2623445106021173e+01, -5.3694670826451713e+01, -2.8901305479772589e+01, 7.8235924471653377e+01, -4.5032264428141417e+01, 8.2015761368733521e+01, 4.6511694605017595e+01, 5.1087296601500626e+01, 8.2015761368733564e+01, -1.1217459334491386e+02, -1.0683445719918041e+02, 3.9394298024963120e+01, 5.2273995131583249e+01, 8.2015761368733521e+01, 4.5478855461703567e+01, -1.0461491955075348e+02, 3.9240438634155645e+01, -1.1439413099334070e+02, 4.3719947041522225e+01, 5.0253066654684410e+01, 7.8235924471653362e+01, -1.0683445719918039e+02, -9.7055245756593067e+01, 3.1680764756762613e+01, 4.9066368124601681e+01, 7.8235924471653334e+01, 4.4752786184836310e+01, -9.9274783405020017e+01, 3.1834624147570040e+01, -1.0461491955075338e+02, -2.8749584731972632e+01, -3.1948172031724518e+01, -4.5032264428141431e+01, 3.9394298024963120e+01, 3.1680764756762613e+01, 3.4654958330199207e+01, -3.1865909502802584e+01, -4.5032264428141389e+01, -2.8821181652121044e+01, 3.1834624230802739e+01, 3.4644292728549388e+01, 3.9240438550922910e+01, -1.6998093467024400e+01, -1.9852915163681693e+01, -3.2623445106021165e+01, 5.2273995131583256e+01, 4.9066368124601688e+01, -3.1865909502802587e+01, -1.9218434650834489e+01, -3.2623445106021151e+01, -1.7550311484259908e+01, 5.0253066654684396e+01, -3.1948172000573656e+01, 5.1087296601500547e+01, -2.8901305479772560e+01, -3.2623445106021187e+01, -5.3694670826451713e+01, 8.2015761368733521e+01, 7.8235924471653334e+01, -4.5032264428141389e+01, -3.2623445106021165e+01, -5.3694670826451691e+01, -2.8901305479772578e+01, 7.8235924471653334e+01, -4.5032264428141374e+01, 8.2015761368733479e+01, -1.5511061062117545e+01, -1.6998093467024422e+01, -2.8901305479772589e+01, 4.5478855461703567e+01, 4.4752786184836310e+01, -2.8821181652121044e+01, -1.7550311484259908e+01, -2.8901305479772581e+01, -1.5030439936039009e+01, 4.3719947041522261e+01, -2.8749584759084669e+01, 4.6511694605017595e+01, 4.4752786184836296e+01, 4.9066368124601738e+01, 7.8235924471653377e+01, -1.0461491955075348e+02, -9.9274783405020031e+01, 3.1834624230802739e+01, 5.0253066654684375e+01, 7.8235924471653334e+01, 4.3719947041522261e+01, -9.7055245756593095e+01, 3.1680764839995263e+01, -1.0683445719918032e+02, -2.8821181625009000e+01, -3.1865909533953442e+01, -4.5032264428141417e+01, 3.9240438634155652e+01, 3.1834624147570040e+01, 3.4644292728549367e+01, -3.1948172000573631e+01, -4.5032264428141374e+01, -2.8749584759084666e+01, 3.1680764839995270e+01, 3.4654958335968978e+01, 3.9394297941730336e+01, 4.5478855461703503e+01, 5.2273995131583284e+01, 8.2015761368733521e+01, -1.1439413099334072e+02, -1.0461491955075340e+02, 3.9240438550922910e+01, 5.1087296601500555e+01, 8.2015761368733479e+01, 4.6511694605017595e+01, -1.0683445719918032e+02, 3.9394297941730336e+01, -1.1217459334491369e+02], 
            "tabulate_tensor_2_2": [-1.5030439936038988e+01, -1.7550311484259908e+01, -2.8901305479772574e+01, 4.6511694605017610e+01, 4.3719947041522246e+01, -2.8749584731972632e+01, -1.6998093467024397e+01, -1.5511061062117545e+01, -2.8901305479772567e+01, 4.4752786184836296e+01, 4.5478855461703532e+01, -2.8821181625009004e+01, -1.7550311484259908e+01, -1.9218434650834524e+01, -3.2623445106021194e+01, 5.1087296601500618e+01, 5.0253066654684417e+01, -3.1948172031724518e+01, -1.9852915163681693e+01, -1.6998093467024422e+01, -3.2623445106021187e+01, 4.9066368124601738e+01, 5.2273995131583284e+01, -3.1865909533953442e+01, -2.8901305479772574e+01, -3.2623445106021194e+01, -5.3694670826451734e+01, 8.2015761368733564e+01, 7.8235924471653362e+01, -4.5032264428141431e+01, -3.2623445106021173e+01, -2.8901305479772589e+01, -5.3694670826451713e+01, 7.8235924471653377e+01, 8.2015761368733521e+01, -4.5032264428141417e+01, 4.6511694605017595e+01, 5.1087296601500626e+01, 8.2015761368733564e+01, -1.1217459334491386e+02, -1.0683445719918041e+02, 3.9394298024963120e+01, 5.2273995131583249e+01, 4.5478855461703567e+01, 8.2015761368733521e+01, -1.0461491955075348e+02, -1.1439413099334070e+02, 3.9240438634155645e+01, 4.3719947041522225e+01, 5.0253066654684410e+01, 7.8235924471653362e+01, -1.0683445719918039e+02, -9.7055245756593067e+01, 3.1680764756762613e+01, 4.9066368124601688e+01, 4.4752786184836310e+01, 7.8235924471653334e+01, -9.9274783405020017e+01, -1.0461491955075338e+02, 3.1834624147570040e+01, -2.8749584731972632e+01, -3.1948172031724518e+01, -4.5032264428141431e+01, 3.9394298024963120e+01, 3.1680764756762613e+01, 3.4654958330199207e+01, -3.1865909502802584e+01, -2.8821181652121044e+01, -4.5032264428141389e+01, 3.1834624230802739e+01, 3.9240438550922910e+01, 3.4644292728549388e+01, -1.6998093467024393e+01, -1.9852915163681693e+01, -3.2623445106021165e+01, 5.2273995131583256e+01, 4.9066368124601688e+01, -3.1865909502802587e+01, -1.9218434650834492e+01, -1.7550311484259908e+01, -3.2623445106021165e+01, 5.0253066654684382e+01, 5.1087296601500547e+01, -3.1948172000573656e+01, -1.5511061062117545e+01, -1.6998093467024422e+01, -2.8901305479772589e+01, 4.5478855461703567e+01, 4.4752786184836310e+01, -2.8821181652121044e+01, -1.7550311484259908e+01, -1.5030439936039009e+01, -2.8901305479772581e+01, 4.3719947041522261e+01, 4.6511694605017595e+01, -2.8749584759084669e+01, -2.8901305479772560e+01, -3.2623445106021187e+01, -5.3694670826451713e+01, 8.2015761368733521e+01, 7.8235924471653334e+01, -4.5032264428141389e+01, -3.2623445106021165e+01, -2.8901305479772578e+01, -5.3694670826451691e+01, 7.8235924471653334e+01, 8.2015761368733479e+01, -4.5032264428141374e+01, 4.4752786184836296e+01, 4.9066368124601738e+01, 7.8235924471653377e+01, -1.0461491955075348e+02, -9.9274783405020031e+01, 3.1834624230802739e+01, 5.0253066654684368e+01, 4.3719947041522261e+01, 7.8235924471653334e+01, -9.7055245756593095e+01, -1.0683445719918032e+02, 3.1680764839995263e+01, 4.5478855461703503e+01, 5.2273995131583284e+01, 8.2015761368733521e+01, -1.1439413099334072e+02, -1.0461491955075340e+02, 3.9240438550922910e+01, 5.1087296601500555e+01, 4.6511694605017595e+01, 8.2015761368733479e+01, -1.0683445719918032e+02, -1.1217459334491369e+02, 3.9394297941730336e+01, -2.8821181625009000e+01, -3.1865909533953442e+01, -4.5032264428141417e+01, 3.9240438634155645e+01, 3.1834624147570047e+01, 3.4644292728549381e+01, -3.1948172000573642e+01, -2.8749584759084669e+01, -4.5032264428141374e+01, 3.1680764839995263e+01, 3.9394297941730343e+01, 3.4654958335969006e+01], 
        },
        "default_vertex_integral": 0, 
    },
    "form_1": {
        "rank": 1, 
        "num_coefficients": 1, 
        "has_cell_integrals": 1, 
        "has_exterior_facet_integrals": 0, 
        "has_interior_facet_integrals": 0, 
        "has_vertex_integrals": 0, 
        "max_cell_subdomain_id": 0, 
        "max_exterior_facet_subdomain_id": 0, 
        "max_interior_facet_subdomain_id": 0, 
        "max_vertex_subdomain_id": 0, 
        "finite_element_0": {
            "cell_shape": 1, 
            "space_dimension": 6, 
            "value_rank": 0, 
            "evaluate_basis:_0": [2.8610071678580180e+00], 
            "evaluate_basis:_1": [6.1881163893169155e+00], 
            "evaluate_basis:_2": [1.4984118131434853e+01], 
            "evaluate_basis:_3": [-2.0254997816349125e+01], 
            "evaluate_basis:_4": [-1.4710349887246434e+01], 
            "evaluate_basis:_5": [1.1932105742404254e+01], 
            "evaluate_basis_all": [2.8610071678580180e+00, 6.1881163893169155e+00, 1.4984118131434853e+01, -2.0254997816349125e+01, -1.4710349887246434e+01, 1.1932105742404254e+01, 0.0, 0.0, 0.0, 0.0, 0.0, 0.0, 0.0, 0.0, 0.0, 0.0, 0.0, 0.0, 0.0, 0.0, 0.0, 0.0, 0.0, 0.0], 
            "evaluate_basis_derivatives_0_0": [2.8610071678580180e+00], 
            "evaluate_basis_derivatives_0_1": [4.1830166325985907e-01, -1.1137281139441237e+01], 
            "evaluate_basis_derivatives_0_2": [2.9299184886074414e-02, -7.8009583790731085e-01, -7.8009552734581433e-01, 2.0770049714109000e+01], 
            "evaluate_basis_derivatives_1_0": [6.1881163893169155e+00], 
            "evaluate_basis_derivatives_1_1": [-1.6802284432419185e+01, 3.1931942336532431e+00], 
            "evaluate_basis_derivatives_1_2": [2.2359541075839978e+01, -4.2493243399802800e+00, -4.2493242137911515e+00, 8.0756367053772460e-01], 
            "evaluate_basis_derivatives_2_0": [1.4984118131434853e+01], 
            "evaluate_basis_derivatives_2_1": [-2.5052630170190362e+01, -2.0112674925364093e+01], 
            "evaluate_basis_derivatives_2_2": [2.0770050562393401e+01, 1.6674547634597520e+01, 1.6674547634597520e+01, 1.3386608664395190e+01], 
            "evaluate_basis_derivatives_3_0": [-2.0254997816349125e+01], 
            "evaluate_basis_derivatives_3_1": [4.2102045766998742e+01, 1.0339616415170878e+01], 
            "evaluate_basis_derivatives_3_2": [-4.3100292690195282e+01, -1.3205319095727823e+01, -1.3205318911355452e+01, 6.5758775909102241e+00], 
            "evaluate_basis_derivatives_4_0": [-1.4710349887246434e+01], 
            "evaluate_basis_derivatives_4_1": [1.2560631577397444e+01, 3.3544504833147194e+01], 
            "evaluate_basis_derivatives_4_2": [1.5601915654084806e+00, -2.0143776173467209e+01, -2.0143776357839585e+01, -3.3349094919700597e+01], 
            "evaluate_basis_derivatives_5_0": [1.1932105742404254e+01], 
            "evaluate_basis_derivatives_5_1": [-1.3226063771129475e+01, -1.5827359122238521e+01], 
            "evaluate_basis_derivatives_5_2": [-1.6187906851871934e+00, 2.1703967965189268e+01, 2.1703967528438628e+01, -8.1910056499146062e+00], 
            "evaluate_basis_derivatives_all_0": [2.8610071678580180e+00, 6.1881163893169155e+00, 1.4984118131434853e+01, -2.0254997816349125e+01, -1.4710349887246434e+01, 1.1932105742404254e+01], 
            "evaluate_basis_derivatives_all_1": [4.1830166325985907e-01, -1.1137281139441237e+01, -1.6802284432419185e+01, 3.1931942336532431e+00, -2.5052630170190362e+01, -2.0112674925364093e+01, 4.2102045766998742e+01, 1.0339616415170878e+01, 1.2560631577397444e+01, 3.3544504833147194e+01, -1.3226063771129475e+01, -1.5827359122238521e+01], 
            "evaluate_basis_derivatives_all_2": [2.9299184886074414e-02, -7.8009583790731085e-01, -7.8009552734581433e-01, 2.0770049714109000e+01, 2.2359541075839978e+01, -4.2493243399802800e+00, -4.2493242137911515e+00, 8.0756367053772460e-01, 2.0770050562393401e+01, 1.6674547634597520e+01, 1.6674547634597520e+01, 1.3386608664395190e+01, -4.3100292690195282e+01, -1.3205319095727823e+01, -1.3205318911355452e+01, 6.5758775909102241e+00, 1.5601915654084806e+00, -2.0143776173467209e+01, -2.0143776357839585e+01, -3.3349094919700597e+01, -1.6187906851871934e+00, 2.1703967965189268e+01, 2.1703967528438628e+01, -8.1910056499146062e+00], 
            "evaluate_dof_0": 3.0792300000000006e-01, 
            "evaluate_dof_1": 4.3028700000000003e-01, 
            "evaluate_dof_2": 7.7282099999999998e-01, 
            "evaluate_dof_3": 5.9984999999999999e-01, 
            "evaluate_dof_4": 5.3109000000000006e-01, 
            "evaluate_dof_5": 4.0552800000000000e-01, 
            "evaluate_dofs": [3.0792300000000006e-01, 4.3028700000000003e-01, 7.7282099999999998e-01, 5.9984999999999999e-01, 5.3109000000000006e-01, 4.0552800000000000e-01], 
            "interpolate_vertex_values": [3.0792300000000006e-01, 4.3028700000000003e-01, 7.7282099999999998e-01], 
            "tabulate_dof_coordinates": [9.0300000000000002e-01, 3.4100000000000003e-01, 5.6100000000000005e-01, 7.6700000000000002e-01, 9.8699999999999999e-01, 7.8300000000000003e-01, 7.7400000000000002e-01, 7.7500000000000002e-01, 9.4500000000000006e-01, 5.6200000000000006e-01, 7.3199999999999998e-01, 5.5400000000000005e-01], 
            "num_sub_elements": 0, 
        },
        "finite_element_1": {
            "cell_shape": 1, 
            "space_dimension": 6, 
            "value_rank": 0, 
            "evaluate_basis:_0": [2.8610071678580180e+00], 
            "evaluate_basis:_1": [6.1881163893169155e+00], 
            "evaluate_basis:_2": [1.4984118131434853e+01], 
            "evaluate_basis:_3": [-2.0254997816349125e+01], 
            "evaluate_basis:_4": [-1.4710349887246434e+01], 
            "evaluate_basis:_5": [1.1932105742404254e+01], 
            "evaluate_basis_all": [2.8610071678580180e+00, 6.1881163893169155e+00, 1.4984118131434853e+01, -2.0254997816349125e+01, -1.4710349887246434e+01, 1.1932105742404254e+01, 0.0, 0.0, 0.0, 0.0, 0.0, 0.0, 0.0, 0.0, 0.0, 0.0, 0.0, 0.0, 0.0, 0.0, 0.0, 0.0, 0.0, 0.0], 
            "evaluate_basis_derivatives_0_0": [2.8610071678580180e+00], 
            "evaluate_basis_derivatives_0_1": [4.1830166325985907e-01, -1.1137281139441237e+01], 
            "evaluate_basis_derivatives_0_2": [2.9299184886074414e-02, -7.8009583790731085e-01, -7.8009552734581433e-01, 2.0770049714109000e+01], 
            "evaluate_basis_derivatives_1_0": [6.1881163893169155e+00], 
            "evaluate_basis_derivatives_1_1": [-1.6802284432419185e+01, 3.1931942336532431e+00], 
            "evaluate_basis_derivatives_1_2": [2.2359541075839978e+01, -4.2493243399802800e+00, -4.2493242137911515e+00, 8.0756367053772460e-01], 
            "evaluate_basis_derivatives_2_0": [1.4984118131434853e+01], 
            "evaluate_basis_derivatives_2_1": [-2.5052630170190362e+01, -2.0112674925364093e+01], 
            "evaluate_basis_derivatives_2_2": [2.0770050562393401e+01, 1.6674547634597520e+01, 1.6674547634597520e+01, 1.3386608664395190e+01], 
            "evaluate_basis_derivatives_3_0": [-2.0254997816349125e+01], 
            "evaluate_basis_derivatives_3_1": [4.2102045766998742e+01, 1.0339616415170878e+01], 
            "evaluate_basis_derivatives_3_2": [-4.3100292690195282e+01, -1.3205319095727823e+01, -1.3205318911355452e+01, 6.5758775909102241e+00], 
            "evaluate_basis_derivatives_4_0": [-1.4710349887246434e+01], 
            "evaluate_basis_derivatives_4_1": [1.2560631577397444e+01, 3.3544504833147194e+01], 
            "evaluate_basis_derivatives_4_2": [1.5601915654084806e+00, -2.0143776173467209e+01, -2.0143776357839585e+01, -3.3349094919700597e+01], 
            "evaluate_basis_derivatives_5_0": [1.1932105742404254e+01], 
            "evaluate_basis_derivatives_5_1": [-1.3226063771129475e+01, -1.5827359122238521e+01], 
            "evaluate_basis_derivatives_5_2": [-1.6187906851871934e+00, 2.1703967965189268e+01, 2.1703967528438628e+01, -8.1910056499146062e+00], 
            "evaluate_basis_derivatives_all_0": [2.8610071678580180e+00, 6.1881163893169155e+00, 1.4984118131434853e+01, -2.0254997816349125e+01, -1.4710349887246434e+01, 1.1932105742404254e+01], 
            "evaluate_basis_derivatives_all_1": [4.1830166325985907e-01, -1.1137281139441237e+01, -1.6802284432419185e+01, 3.1931942336532431e+00, -2.5052630170190362e+01, -2.0112674925364093e+01, 4.2102045766998742e+01, 1.0339616415170878e+01, 1.2560631577397444e+01, 3.3544504833147194e+01, -1.3226063771129475e+01, -1.5827359122238521e+01], 
            "evaluate_basis_derivatives_all_2": [2.9299184886074414e-02, -7.8009583790731085e-01, -7.8009552734581433e-01, 2.0770049714109000e+01, 2.2359541075839978e+01, -4.2493243399802800e+00, -4.2493242137911515e+00, 8.0756367053772460e-01, 2.0770050562393401e+01, 1.6674547634597520e+01, 1.6674547634597520e+01, 1.3386608664395190e+01, -4.3100292690195282e+01, -1.3205319095727823e+01, -1.3205318911355452e+01, 6.5758775909102241e+00, 1.5601915654084806e+00, -2.0143776173467209e+01, -2.0143776357839585e+01, -3.3349094919700597e+01, -1.6187906851871934e+00, 2.1703967965189268e+01, 2.1703967528438628e+01, -8.1910056499146062e+00], 
            "evaluate_dof_0": 3.0792300000000006e-01, 
            "evaluate_dof_1": 4.3028700000000003e-01, 
            "evaluate_dof_2": 7.7282099999999998e-01, 
            "evaluate_dof_3": 5.9984999999999999e-01, 
            "evaluate_dof_4": 5.3109000000000006e-01, 
            "evaluate_dof_5": 4.0552800000000000e-01, 
            "evaluate_dofs": [3.0792300000000006e-01, 4.3028700000000003e-01, 7.7282099999999998e-01, 5.9984999999999999e-01, 5.3109000000000006e-01, 4.0552800000000000e-01], 
            "interpolate_vertex_values": [3.0792300000000006e-01, 4.3028700000000003e-01, 7.7282099999999998e-01], 
            "tabulate_dof_coordinates": [9.0300000000000002e-01, 3.4100000000000003e-01, 5.6100000000000005e-01, 7.6700000000000002e-01, 9.8699999999999999e-01, 7.8300000000000003e-01, 7.7400000000000002e-01, 7.7500000000000002e-01, 9.4500000000000006e-01, 5.6200000000000006e-01, 7.3199999999999998e-01, 5.5400000000000005e-01], 
            "num_sub_elements": 0, 
        },
        "dofmap_0": {
            "needs_mesh_entities_0": 1, 
            "needs_mesh_entities_1": 1, 
            "needs_mesh_entities_2": 0, 
            "global_dimension": 20003, 
            "num_element_dofs": 6, 
            "num_facet_dofs": 3, 
            "num_entity_dofs_0": 1, 
            "num_entity_dofs_1": 1, 
            "num_entity_dofs_2": 0, 
            "tabulate_dofs": [0, 0, 0, 10001, 10002, 10003], 
            "tabulate_facet_dofs_0": [1, 2, 3], 
            "tabulate_facet_dofs_1": [0, 2, 4], 
            "tabulate_facet_dofs_2": [0, 1, 5], 
            "tabulate_entity_dofs_0_0": [0], 
            "tabulate_entity_dofs_0_1": [1], 
            "tabulate_entity_dofs_0_2": [2], 
            "tabulate_entity_dofs_1_0": [3], 
            "tabulate_entity_dofs_1_1": [4], 
            "tabulate_entity_dofs_1_2": [5], 
            "tabulate_entity_dofs_2_0": [], 
            "num_sub_dofmaps": 0, 
        },
        "dofmap_1": {
            "needs_mesh_entities_0": 1, 
            "needs_mesh_entities_1": 1, 
            "needs_mesh_entities_2": 0, 
            "global_dimension": 20003, 
            "num_element_dofs": 6, 
            "num_facet_dofs": 3, 
            "num_entity_dofs_0": 1, 
            "num_entity_dofs_1": 1, 
            "num_entity_dofs_2": 0, 
            "tabulate_dofs": [0, 0, 0, 10001, 10002, 10003], 
            "tabulate_facet_dofs_0": [1, 2, 3], 
            "tabulate_facet_dofs_1": [0, 2, 4], 
            "tabulate_facet_dofs_2": [0, 1, 5], 
            "tabulate_entity_dofs_0_0": [0], 
            "tabulate_entity_dofs_0_1": [1], 
            "tabulate_entity_dofs_0_2": [2], 
            "tabulate_entity_dofs_1_0": [3], 
            "tabulate_entity_dofs_1_1": [4], 
            "tabulate_entity_dofs_1_2": [5], 
            "tabulate_entity_dofs_2_0": [], 
            "num_sub_dofmaps": 0, 
        },
        "default_cell_integral": 1, 
        "cell_integral": {
            "tabulate_tensor": [-7.7894992630883034e-04, -6.2315992463777463e-04, -4.6736992296671806e-04, 1.5578999448429609e-02, 1.6202159430554010e-02, 1.6825319412678407e-02], 
        },
        "default_exterior_facet_integral": 0, 
        "default_interior_facet_integral": 0, 
        "default_vertex_integral": 0, 
    },
}
