{
    "form_0": {
        "rank": 2, 
        "num_coefficients": 1, 
        "has_cell_integrals": 1, 
        "has_exterior_facet_integrals": 0, 
        "has_interior_facet_integrals": 0, 
        "has_vertex_integrals": 0, 
        "max_cell_subdomain_id": 0, 
        "max_exterior_facet_subdomain_id": 0, 
        "max_interior_facet_subdomain_id": 0, 
        "max_vertex_subdomain_id": 0, 
        "finite_element_0": {
            "cell_shape": 1, 
            "space_dimension": 9, 
            "value_rank": 1, 
            "value_dimension_0": 3, 
            "evaluate_basis:_0": [1.4718852622922434e+00, 0.0, 0.0], 
            "evaluate_basis:_1": [2.0266705413493233e+00, 0.0, 0.0], 
            "evaluate_basis:_2": [-2.4985557203629258e+00, 0.0, 0.0], 
            "evaluate_basis:_3": [0.0, 1.4718852622922434e+00, 0.0], 
            "evaluate_basis:_4": [0.0, 2.0266705413493233e+00, 0.0], 
            "evaluate_basis:_5": [0.0, -2.4985557203629258e+00, 0.0], 
            "evaluate_basis:_6": [0.0, 0.0, 1.4718852622922434e+00], 
            "evaluate_basis:_7": [0.0, 0.0, 2.0266705413493233e+00], 
            "evaluate_basis:_8": [0.0, 0.0, -2.4985557203629258e+00], 
            "evaluate_basis_all": [1.4718852622922434e+00, 0.0, 0.0, 2.0266705413493233e+00, 0.0, 0.0, -2.4985557203629258e+00, 0.0, 0.0, 0.0, 1.4718852622922434e+00, 0.0, 0.0, 2.0266705413493233e+00, 0.0, 0.0, -2.4985557203629258e+00, 0.0, 0.0, 0.0, 1.4718852622922434e+00, 0.0, 0.0, 2.0266705413493233e+00, 0.0, 0.0, -2.4985557203629258e+00, 0.0, 0.0, 0.0, 0.0, 0.0, 0.0, 0.0, 0.0, 0.0, 0.0, 0.0, 0.0, 0.0, 0.0, 0.0, 0.0, 0.0, 0.0, 0.0, 0.0, 0.0, 0.0, 0.0, 0.0, 0.0, 0.0, 0.0, 0.0, 0.0, 0.0, 0.0, 0.0, 0.0, 0.0, 0.0, 0.0, 0.0, 0.0, 0.0, 0.0, 0.0, 0.0, 0.0, 0.0, 0.0, 0.0, 0.0, 0.0, 0.0, 0.0, 0.0, 0.0, 0.0, 0.0, 0.0, 0.0, 0.0, 0.0, 0.0, 0.0, 0.0, 0.0, 0.0, 0.0, 0.0, 0.0, 0.0, 0.0, 0.0, 0.0, 0.0, 0.0, 0.0, 0.0, 0.0, 0.0, 0.0, 0.0, 0.0, 0.0, 0.0], 
            "evaluate_basis_derivatives_0_0": [1.4718852622922434e+00, 0.0, 0.0], 
            "evaluate_basis_derivatives_0_1": [8.5585277568607676e-02, -2.2787085025842555e+00, 0.0, 0.0, 0.0, 0.0], 
            "evaluate_basis_derivatives_0_2": [0.0, 0.0, 0.0, 0.0, 0.0, 0.0, 0.0, 0.0, 0.0, 0.0, 0.0, 0.0], 
            "evaluate_basis_derivatives_1_0": [2.0266705413493233e+00, 0.0, 0.0], 
            "evaluate_basis_derivatives_1_1": [-2.3642938479375970e+00, 4.4932274890774304e-01, 0.0, 0.0, 0.0, 0.0], 
            "evaluate_basis_derivatives_1_2": [0.0, 0.0, 0.0, 0.0, 0.0, 0.0, 0.0, 0.0, 0.0, 0.0, 0.0, 0.0], 
            "evaluate_basis_derivatives_2_0": [-2.4985557203629258e+00, 0.0, 0.0], 
            "evaluate_basis_derivatives_2_1": [2.2787085020077340e+00, 1.8293856987949413e+00, 0.0, 0.0, 0.0, 0.0], 
            "evaluate_basis_derivatives_2_2": [0.0, 0.0, 0.0, 0.0, 0.0, 0.0, 0.0, 0.0, 0.0, 0.0, 0.0, 0.0], 
            "evaluate_basis_derivatives_3_0": [0.0, 1.4718852622922434e+00, 0.0], 
            "evaluate_basis_derivatives_3_1": [0.0, 0.0, 8.5585277568607676e-02, -2.2787085025842555e+00, 0.0, 0.0], 
            "evaluate_basis_derivatives_3_2": [0.0, 0.0, 0.0, 0.0, 0.0, 0.0, 0.0, 0.0, 0.0, 0.0, 0.0, 0.0], 
            "evaluate_basis_derivatives_4_0": [0.0, 2.0266705413493233e+00, 0.0], 
            "evaluate_basis_derivatives_4_1": [0.0, 0.0, -2.3642938479375970e+00, 4.4932274890774304e-01, 0.0, 0.0], 
            "evaluate_basis_derivatives_4_2": [0.0, 0.0, 0.0, 0.0, 0.0, 0.0, 0.0, 0.0, 0.0, 0.0, 0.0, 0.0], 
            "evaluate_basis_derivatives_5_0": [0.0, -2.4985557203629258e+00, 0.0], 
            "evaluate_basis_derivatives_5_1": [0.0, 0.0, 2.2787085020077340e+00, 1.8293856987949413e+00, 0.0, 0.0], 
            "evaluate_basis_derivatives_5_2": [0.0, 0.0, 0.0, 0.0, 0.0, 0.0, 0.0, 0.0, 0.0, 0.0, 0.0, 0.0], 
            "evaluate_basis_derivatives_6_0": [0.0, 0.0, 1.4718852622922434e+00], 
            "evaluate_basis_derivatives_6_1": [0.0, 0.0, 0.0, 0.0, 8.5585277568607676e-02, -2.2787085025842555e+00], 
            "evaluate_basis_derivatives_6_2": [0.0, 0.0, 0.0, 0.0, 0.0, 0.0, 0.0, 0.0, 0.0, 0.0, 0.0, 0.0], 
            "evaluate_basis_derivatives_7_0": [0.0, 0.0, 2.0266705413493233e+00], 
            "evaluate_basis_derivatives_7_1": [0.0, 0.0, 0.0, 0.0, -2.3642938479375970e+00, 4.4932274890774304e-01], 
            "evaluate_basis_derivatives_7_2": [0.0, 0.0, 0.0, 0.0, 0.0, 0.0, 0.0, 0.0, 0.0, 0.0, 0.0, 0.0], 
            "evaluate_basis_derivatives_8_0": [0.0, 0.0, -2.4985557203629258e+00], 
            "evaluate_basis_derivatives_8_1": [0.0, 0.0, 0.0, 0.0, 2.2787085020077340e+00, 1.8293856987949413e+00], 
            "evaluate_basis_derivatives_8_2": [0.0, 0.0, 0.0, 0.0, 0.0, 0.0, 0.0, 0.0, 0.0, 0.0, 0.0, 0.0], 
            "evaluate_basis_derivatives_all_0": [1.4718852622922434e+00, 0.0, 0.0, 2.0266705413493233e+00, 0.0, 0.0, -2.4985557203629258e+00, 0.0, 0.0, 0.0, 1.4718852622922434e+00, 0.0, 0.0, 2.0266705413493233e+00, 0.0, 0.0, -2.4985557203629258e+00, 0.0, 0.0, 0.0, 1.4718852622922434e+00, 0.0, 0.0, 2.0266705413493233e+00, 0.0, 0.0, -2.4985557203629258e+00], 
            "evaluate_basis_derivatives_all_1": [8.5585277568607676e-02, -2.2787085025842555e+00, 0.0, 0.0, 0.0, 0.0, -2.3642938479375970e+00, 4.4932274890774304e-01, 0.0, 0.0, 0.0, 0.0, 2.2787085020077340e+00, 1.8293856987949413e+00, 0.0, 0.0, 0.0, 0.0, 0.0, 0.0, 8.5585277568607676e-02, -2.2787085025842555e+00, 0.0, 0.0, 0.0, 0.0, -2.3642938479375970e+00, 4.4932274890774304e-01, 0.0, 0.0, 0.0, 0.0, 2.2787085020077340e+00, 1.8293856987949413e+00, 0.0, 0.0, 0.0, 0.0, 0.0, 0.0, 8.5585277568607676e-02, -2.2787085025842555e+00, 0.0, 0.0, 0.0, 0.0, -2.3642938479375970e+00, 4.4932274890774304e-01, 0.0, 0.0, 0.0, 0.0, 2.2787085020077340e+00, 1.8293856987949413e+00], 
            "evaluate_basis_derivatives_all_2": [0.0, 0.0, 0.0, 0.0, 0.0, 0.0, 0.0, 0.0, 0.0, 0.0, 0.0, 0.0, 0.0, 0.0, 0.0, 0.0, 0.0, 0.0, 0.0, 0.0, 0.0, 0.0, 0.0, 0.0, 0.0, 0.0, 0.0, 0.0, 0.0, 0.0, 0.0, 0.0, 0.0, 0.0, 0.0, 0.0, 0.0, 0.0, 0.0, 0.0, 0.0, 0.0, 0.0, 0.0, 0.0, 0.0, 0.0, 0.0, 0.0, 0.0, 0.0, 0.0, 0.0, 0.0, 0.0, 0.0, 0.0, 0.0, 0.0, 0.0, 0.0, 0.0, 0.0, 0.0, 0.0, 0.0, 0.0, 0.0, 0.0, 0.0, 0.0, 0.0, 0.0, 0.0, 0.0, 0.0, 0.0, 0.0, 0.0, 0.0, 0.0, 0.0, 0.0, 0.0, 0.0, 0.0, 0.0, 0.0, 0.0, 0.0, 0.0, 0.0, 0.0, 0.0, 0.0, 0.0, 0.0, 0.0, 0.0, 0.0, 0.0, 0.0, 0.0, 0.0, 0.0, 0.0, 0.0, 0.0], 
            "evaluate_dof_0": 3.0792300000000006e-01, 
            "evaluate_dof_1": 4.3028700000000003e-01, 
            "evaluate_dof_2": 7.7282099999999998e-01, 
            "evaluate_dof_3": 1.2316920000000002e+00, 
            "evaluate_dof_4": 1.7211480000000001e+00, 
            "evaluate_dof_5": 3.0912839999999999e+00, 
            "evaluate_dof_6": 2.7713070000000006e+00, 
            "evaluate_dof_7": 3.8725830000000010e+00, 
            "evaluate_dof_8": 6.9553890000000003e+00, 
            "evaluate_dofs": [3.0792300000000006e-01, 4.3028700000000003e-01, 7.7282099999999998e-01, 1.2316920000000002e+00, 1.7211480000000001e+00, 3.0912839999999999e+00, 2.7713070000000006e+00, 3.8725830000000010e+00, 6.9553890000000003e+00], 
            "interpolate_vertex_values": [3.0792300000000006e-01, 1.2316920000000002e+00, 2.7713070000000006e+00, 4.3028700000000003e-01, 1.7211480000000001e+00, 3.8725830000000010e+00, 7.7282099999999998e-01, 3.0912839999999999e+00, 6.9553890000000003e+00], 
            "tabulate_dof_coordinates": [9.0300000000000002e-01, 3.4100000000000003e-01, 5.6100000000000005e-01, 7.6700000000000002e-01, 9.8699999999999999e-01, 7.8300000000000003e-01, 9.0300000000000002e-01, 3.4100000000000003e-01, 5.6100000000000005e-01, 7.6700000000000002e-01, 9.8699999999999999e-01, 7.8300000000000003e-01, 9.0300000000000002e-01, 3.4100000000000003e-01, 5.6100000000000005e-01, 7.6700000000000002e-01, 9.8699999999999999e-01, 7.8300000000000003e-01], 
            "num_sub_elements": 2, 
            "finite_element_0": {
                "cell_shape": 1, 
                "space_dimension": 6, 
                "value_rank": 1, 
                "value_dimension_0": 2, 
                "evaluate_basis:_0": [1.4718852622922434e+00, 0.0], 
                "evaluate_basis:_1": [2.0266705413493233e+00, 0.0], 
                "evaluate_basis:_2": [-2.4985557203629258e+00, 0.0], 
                "evaluate_basis:_3": [0.0, 1.4718852622922434e+00], 
                "evaluate_basis:_4": [0.0, 2.0266705413493233e+00], 
                "evaluate_basis:_5": [0.0, -2.4985557203629258e+00], 
                "evaluate_basis_all": [1.4718852622922434e+00, 0.0, 2.0266705413493233e+00, 0.0, -2.4985557203629258e+00, 0.0, 0.0, 1.4718852622922434e+00, 0.0, 2.0266705413493233e+00, 0.0, -2.4985557203629258e+00, 0.0, 0.0, 0.0, 0.0, 0.0, 0.0, 0.0, 0.0, 0.0, 0.0, 0.0, 0.0, 0.0, 0.0, 0.0, 0.0, 0.0, 0.0, 0.0, 0.0, 0.0, 0.0, 0.0, 0.0, 0.0, 0.0, 0.0, 0.0, 0.0, 0.0, 0.0, 0.0, 0.0, 0.0, 0.0, 0.0], 
                "evaluate_basis_derivatives_0_0": [1.4718852622922434e+00, 0.0], 
                "evaluate_basis_derivatives_0_1": [8.5585277568607676e-02, -2.2787085025842555e+00, 0.0, 0.0], 
                "evaluate_basis_derivatives_0_2": [0.0, 0.0, 0.0, 0.0, 0.0, 0.0, 0.0, 0.0], 
                "evaluate_basis_derivatives_1_0": [2.0266705413493233e+00, 0.0], 
                "evaluate_basis_derivatives_1_1": [-2.3642938479375970e+00, 4.4932274890774304e-01, 0.0, 0.0], 
                "evaluate_basis_derivatives_1_2": [0.0, 0.0, 0.0, 0.0, 0.0, 0.0, 0.0, 0.0], 
                "evaluate_basis_derivatives_2_0": [-2.4985557203629258e+00, 0.0], 
                "evaluate_basis_derivatives_2_1": [2.2787085020077340e+00, 1.8293856987949413e+00, 0.0, 0.0], 
                "evaluate_basis_derivatives_2_2": [0.0, 0.0, 0.0, 0.0, 0.0, 0.0, 0.0, 0.0], 
                "evaluate_basis_derivatives_3_0": [0.0, 1.4718852622922434e+00], 
                "evaluate_basis_derivatives_3_1": [0.0, 0.0, 8.5585277568607676e-02, -2.2787085025842555e+00], 
                "evaluate_basis_derivatives_3_2": [0.0, 0.0, 0.0, 0.0, 0.0, 0.0, 0.0, 0.0], 
                "evaluate_basis_derivatives_4_0": [0.0, 2.0266705413493233e+00], 
                "evaluate_basis_derivatives_4_1": [0.0, 0.0, -2.3642938479375970e+00, 4.4932274890774304e-01], 
                "evaluate_basis_derivatives_4_2": [0.0, 0.0, 0.0, 0.0, 0.0, 0.0, 0.0, 0.0], 
                "evaluate_basis_derivatives_5_0": [0.0, -2.4985557203629258e+00], 
                "evaluate_basis_derivatives_5_1": [0.0, 0.0, 2.2787085020077340e+00, 1.8293856987949413e+00], 
                "evaluate_basis_derivatives_5_2": [0.0, 0.0, 0.0, 0.0, 0.0, 0.0, 0.0, 0.0], 
                "evaluate_basis_derivatives_all_0": [1.4718852622922434e+00, 0.0, 2.0266705413493233e+00, 0.0, -2.4985557203629258e+00, 0.0, 0.0, 1.4718852622922434e+00, 0.0, 2.0266705413493233e+00, 0.0, -2.4985557203629258e+00], 
                "evaluate_basis_derivatives_all_1": [8.5585277568607676e-02, -2.2787085025842555e+00, 0.0, 0.0, -2.3642938479375970e+00, 4.4932274890774304e-01, 0.0, 0.0, 2.2787085020077340e+00, 1.8293856987949413e+00, 0.0, 0.0, 0.0, 0.0, 8.5585277568607676e-02, -2.2787085025842555e+00, 0.0, 0.0, -2.3642938479375970e+00, 4.4932274890774304e-01, 0.0, 0.0, 2.2787085020077340e+00, 1.8293856987949413e+00], 
                "evaluate_basis_derivatives_all_2": [0.0, 0.0, 0.0, 0.0, 0.0, 0.0, 0.0, 0.0, 0.0, 0.0, 0.0, 0.0, 0.0, 0.0, 0.0, 0.0, 0.0, 0.0, 0.0, 0.0, 0.0, 0.0, 0.0, 0.0, 0.0, 0.0, 0.0, 0.0, 0.0, 0.0, 0.0, 0.0, 0.0, 0.0, 0.0, 0.0, 0.0, 0.0, 0.0, 0.0, 0.0, 0.0, 0.0, 0.0, 0.0, 0.0, 0.0, 0.0], 
                "evaluate_dof_0": 3.0792300000000006e-01, 
                "evaluate_dof_1": 4.3028700000000003e-01, 
                "evaluate_dof_2": 7.7282099999999998e-01, 
                "evaluate_dof_3": 1.2316920000000002e+00, 
                "evaluate_dof_4": 1.7211480000000001e+00, 
                "evaluate_dof_5": 3.0912839999999999e+00, 
                "evaluate_dofs": [3.0792300000000006e-01, 4.3028700000000003e-01, 7.7282099999999998e-01, 1.2316920000000002e+00, 1.7211480000000001e+00, 3.0912839999999999e+00], 
                "interpolate_vertex_values": [3.0792300000000006e-01, 1.2316920000000002e+00, 4.3028700000000003e-01, 1.7211480000000001e+00, 7.7282099999999998e-01, 3.0912839999999999e+00], 
                "tabulate_dof_coordinates": [9.0300000000000002e-01, 3.4100000000000003e-01, 5.6100000000000005e-01, 7.6700000000000002e-01, 9.8699999999999999e-01, 7.8300000000000003e-01, 9.0300000000000002e-01, 3.4100000000000003e-01, 5.6100000000000005e-01, 7.6700000000000002e-01, 9.8699999999999999e-01, 7.8300000000000003e-01], 
                "num_sub_elements": 2, 
                "finite_element_0": {
                    "cell_shape": 1, 
                    "space_dimension": 3, 
                    "value_rank": 0, 
                    "evaluate_basis:_0": [1.4718852622922434e+00], 
                    "evaluate_basis:_1": [2.0266705413493233e+00], 
                    "evaluate_basis:_2": [-2.4985557203629258e+00], 
                    "evaluate_basis_all": [1.4718852622922434e+00, 2.0266705413493233e+00, -2.4985557203629258e+00, 0.0, 0.0, 0.0, 0.0, 0.0, 0.0, 0.0, 0.0, 0.0], 
                    "evaluate_basis_derivatives_0_0": [1.4718852622922434e+00], 
                    "evaluate_basis_derivatives_0_1": [8.5585277568607676e-02, -2.2787085025842555e+00], 
                    "evaluate_basis_derivatives_0_2": [0.0, 0.0, 0.0, 0.0], 
                    "evaluate_basis_derivatives_1_0": [2.0266705413493233e+00], 
                    "evaluate_basis_derivatives_1_1": [-2.3642938479375970e+00, 4.4932274890774304e-01], 
                    "evaluate_basis_derivatives_1_2": [0.0, 0.0, 0.0, 0.0], 
                    "evaluate_basis_derivatives_2_0": [-2.4985557203629258e+00], 
                    "evaluate_basis_derivatives_2_1": [2.2787085020077340e+00, 1.8293856987949413e+00], 
                    "evaluate_basis_derivatives_2_2": [0.0, 0.0, 0.0, 0.0], 
                    "evaluate_basis_derivatives_all_0": [1.4718852622922434e+00, 2.0266705413493233e+00, -2.4985557203629258e+00], 
                    "evaluate_basis_derivatives_all_1": [8.5585277568607676e-02, -2.2787085025842555e+00, -2.3642938479375970e+00, 4.4932274890774304e-01, 2.2787085020077340e+00, 1.8293856987949413e+00], 
                    "evaluate_basis_derivatives_all_2": [0.0, 0.0, 0.0, 0.0, 0.0, 0.0, 0.0, 0.0, 0.0, 0.0, 0.0, 0.0], 
                    "evaluate_dof_0": 3.0792300000000006e-01, 
                    "evaluate_dof_1": 4.3028700000000003e-01, 
                    "evaluate_dof_2": 7.7282099999999998e-01, 
                    "evaluate_dofs": [3.0792300000000006e-01, 4.3028700000000003e-01, 7.7282099999999998e-01], 
                    "interpolate_vertex_values": [3.0792300000000006e-01, 4.3028700000000003e-01, 7.7282099999999998e-01], 
                    "tabulate_dof_coordinates": [9.0300000000000002e-01, 3.4100000000000003e-01, 5.6100000000000005e-01, 7.6700000000000002e-01, 9.8699999999999999e-01, 7.8300000000000003e-01], 
                    "num_sub_elements": 0, 
                },
                "finite_element_1": {
                    "cell_shape": 1, 
                    "space_dimension": 3, 
                    "value_rank": 0, 
                    "evaluate_basis:_0": [1.4718852622922434e+00], 
                    "evaluate_basis:_1": [2.0266705413493233e+00], 
                    "evaluate_basis:_2": [-2.4985557203629258e+00], 
                    "evaluate_basis_all": [1.4718852622922434e+00, 2.0266705413493233e+00, -2.4985557203629258e+00, 0.0, 0.0, 0.0, 0.0, 0.0, 0.0, 0.0, 0.0, 0.0], 
                    "evaluate_basis_derivatives_0_0": [1.4718852622922434e+00], 
                    "evaluate_basis_derivatives_0_1": [8.5585277568607676e-02, -2.2787085025842555e+00], 
                    "evaluate_basis_derivatives_0_2": [0.0, 0.0, 0.0, 0.0], 
                    "evaluate_basis_derivatives_1_0": [2.0266705413493233e+00], 
                    "evaluate_basis_derivatives_1_1": [-2.3642938479375970e+00, 4.4932274890774304e-01], 
                    "evaluate_basis_derivatives_1_2": [0.0, 0.0, 0.0, 0.0], 
                    "evaluate_basis_derivatives_2_0": [-2.4985557203629258e+00], 
                    "evaluate_basis_derivatives_2_1": [2.2787085020077340e+00, 1.8293856987949413e+00], 
                    "evaluate_basis_derivatives_2_2": [0.0, 0.0, 0.0, 0.0], 
                    "evaluate_basis_derivatives_all_0": [1.4718852622922434e+00, 2.0266705413493233e+00, -2.4985557203629258e+00], 
                    "evaluate_basis_derivatives_all_1": [8.5585277568607676e-02, -2.2787085025842555e+00, -2.3642938479375970e+00, 4.4932274890774304e-01, 2.2787085020077340e+00, 1.8293856987949413e+00], 
                    "evaluate_basis_derivatives_all_2": [0.0, 0.0, 0.0, 0.0, 0.0, 0.0, 0.0, 0.0, 0.0, 0.0, 0.0, 0.0], 
                    "evaluate_dof_0": 3.0792300000000006e-01, 
                    "evaluate_dof_1": 4.3028700000000003e-01, 
                    "evaluate_dof_2": 7.7282099999999998e-01, 
                    "evaluate_dofs": [3.0792300000000006e-01, 4.3028700000000003e-01, 7.7282099999999998e-01], 
                    "interpolate_vertex_values": [3.0792300000000006e-01, 4.3028700000000003e-01, 7.7282099999999998e-01], 
                    "tabulate_dof_coordinates": [9.0300000000000002e-01, 3.4100000000000003e-01, 5.6100000000000005e-01, 7.6700000000000002e-01, 9.8699999999999999e-01, 7.8300000000000003e-01], 
                    "num_sub_elements": 0, 
                },
            },
            "finite_element_1": {
                "cell_shape": 1, 
                "space_dimension": 3, 
                "value_rank": 0, 
                "evaluate_basis:_0": [1.4718852622922434e+00], 
                "evaluate_basis:_1": [2.0266705413493233e+00], 
                "evaluate_basis:_2": [-2.4985557203629258e+00], 
                "evaluate_basis_all": [1.4718852622922434e+00, 2.0266705413493233e+00, -2.4985557203629258e+00, 0.0, 0.0, 0.0, 0.0, 0.0, 0.0, 0.0, 0.0, 0.0], 
                "evaluate_basis_derivatives_0_0": [1.4718852622922434e+00], 
                "evaluate_basis_derivatives_0_1": [8.5585277568607676e-02, -2.2787085025842555e+00], 
                "evaluate_basis_derivatives_0_2": [0.0, 0.0, 0.0, 0.0], 
                "evaluate_basis_derivatives_1_0": [2.0266705413493233e+00], 
                "evaluate_basis_derivatives_1_1": [-2.3642938479375970e+00, 4.4932274890774304e-01], 
                "evaluate_basis_derivatives_1_2": [0.0, 0.0, 0.0, 0.0], 
                "evaluate_basis_derivatives_2_0": [-2.4985557203629258e+00], 
                "evaluate_basis_derivatives_2_1": [2.2787085020077340e+00, 1.8293856987949413e+00], 
                "evaluate_basis_derivatives_2_2": [0.0, 0.0, 0.0, 0.0], 
                "evaluate_basis_derivatives_all_0": [1.4718852622922434e+00, 2.0266705413493233e+00, -2.4985557203629258e+00], 
                "evaluate_basis_derivatives_all_1": [8.5585277568607676e-02, -2.2787085025842555e+00, -2.3642938479375970e+00, 4.4932274890774304e-01, 2.2787085020077340e+00, 1.8293856987949413e+00], 
                "evaluate_basis_derivatives_all_2": [0.0, 0.0, 0.0, 0.0, 0.0, 0.0, 0.0, 0.0, 0.0, 0.0, 0.0, 0.0], 
                "evaluate_dof_0": 3.0792300000000006e-01, 
                "evaluate_dof_1": 4.3028700000000003e-01, 
                "evaluate_dof_2": 7.7282099999999998e-01, 
                "evaluate_dofs": [3.0792300000000006e-01, 4.3028700000000003e-01, 7.7282099999999998e-01], 
                "interpolate_vertex_values": [3.0792300000000006e-01, 4.3028700000000003e-01, 7.7282099999999998e-01], 
                "tabulate_dof_coordinates": [9.0300000000000002e-01, 3.4100000000000003e-01, 5.6100000000000005e-01, 7.6700000000000002e-01, 9.8699999999999999e-01, 7.8300000000000003e-01], 
                "num_sub_elements": 0, 
            },
        },
        "finite_element_1": {
            "cell_shape": 1, 
            "space_dimension": 9, 
            "value_rank": 1, 
            "value_dimension_0": 3, 
            "evaluate_basis:_0": [1.4718852622922434e+00, 0.0, 0.0], 
            "evaluate_basis:_1": [2.0266705413493233e+00, 0.0, 0.0], 
            "evaluate_basis:_2": [-2.4985557203629258e+00, 0.0, 0.0], 
            "evaluate_basis:_3": [0.0, 1.4718852622922434e+00, 0.0], 
            "evaluate_basis:_4": [0.0, 2.0266705413493233e+00, 0.0], 
            "evaluate_basis:_5": [0.0, -2.4985557203629258e+00, 0.0], 
            "evaluate_basis:_6": [0.0, 0.0, 1.4718852622922434e+00], 
            "evaluate_basis:_7": [0.0, 0.0, 2.0266705413493233e+00], 
            "evaluate_basis:_8": [0.0, 0.0, -2.4985557203629258e+00], 
            "evaluate_basis_all": [1.4718852622922434e+00, 0.0, 0.0, 2.0266705413493233e+00, 0.0, 0.0, -2.4985557203629258e+00, 0.0, 0.0, 0.0, 1.4718852622922434e+00, 0.0, 0.0, 2.0266705413493233e+00, 0.0, 0.0, -2.4985557203629258e+00, 0.0, 0.0, 0.0, 1.4718852622922434e+00, 0.0, 0.0, 2.0266705413493233e+00, 0.0, 0.0, -2.4985557203629258e+00, 0.0, 0.0, 0.0, 0.0, 0.0, 0.0, 0.0, 0.0, 0.0, 0.0, 0.0, 0.0, 0.0, 0.0, 0.0, 0.0, 0.0, 0.0, 0.0, 0.0, 0.0, 0.0, 0.0, 0.0, 0.0, 0.0, 0.0, 0.0, 0.0, 0.0, 0.0, 0.0, 0.0, 0.0, 0.0, 0.0, 0.0, 0.0, 0.0, 0.0, 0.0, 0.0, 0.0, 0.0, 0.0, 0.0, 0.0, 0.0, 0.0, 0.0, 0.0, 0.0, 0.0, 0.0, 0.0, 0.0, 0.0, 0.0, 0.0, 0.0, 0.0, 0.0, 0.0, 0.0, 0.0, 0.0, 0.0, 0.0, 0.0, 0.0, 0.0, 0.0, 0.0, 0.0, 0.0, 0.0, 0.0, 0.0, 0.0, 0.0, 0.0], 
            "evaluate_basis_derivatives_0_0": [1.4718852622922434e+00, 0.0, 0.0], 
            "evaluate_basis_derivatives_0_1": [8.5585277568607676e-02, -2.2787085025842555e+00, 0.0, 0.0, 0.0, 0.0], 
            "evaluate_basis_derivatives_0_2": [0.0, 0.0, 0.0, 0.0, 0.0, 0.0, 0.0, 0.0, 0.0, 0.0, 0.0, 0.0], 
            "evaluate_basis_derivatives_1_0": [2.0266705413493233e+00, 0.0, 0.0], 
            "evaluate_basis_derivatives_1_1": [-2.3642938479375970e+00, 4.4932274890774304e-01, 0.0, 0.0, 0.0, 0.0], 
            "evaluate_basis_derivatives_1_2": [0.0, 0.0, 0.0, 0.0, 0.0, 0.0, 0.0, 0.0, 0.0, 0.0, 0.0, 0.0], 
            "evaluate_basis_derivatives_2_0": [-2.4985557203629258e+00, 0.0, 0.0], 
            "evaluate_basis_derivatives_2_1": [2.2787085020077340e+00, 1.8293856987949413e+00, 0.0, 0.0, 0.0, 0.0], 
            "evaluate_basis_derivatives_2_2": [0.0, 0.0, 0.0, 0.0, 0.0, 0.0, 0.0, 0.0, 0.0, 0.0, 0.0, 0.0], 
            "evaluate_basis_derivatives_3_0": [0.0, 1.4718852622922434e+00, 0.0], 
            "evaluate_basis_derivatives_3_1": [0.0, 0.0, 8.5585277568607676e-02, -2.2787085025842555e+00, 0.0, 0.0], 
            "evaluate_basis_derivatives_3_2": [0.0, 0.0, 0.0, 0.0, 0.0, 0.0, 0.0, 0.0, 0.0, 0.0, 0.0, 0.0], 
            "evaluate_basis_derivatives_4_0": [0.0, 2.0266705413493233e+00, 0.0], 
            "evaluate_basis_derivatives_4_1": [0.0, 0.0, -2.3642938479375970e+00, 4.4932274890774304e-01, 0.0, 0.0], 
            "evaluate_basis_derivatives_4_2": [0.0, 0.0, 0.0, 0.0, 0.0, 0.0, 0.0, 0.0, 0.0, 0.0, 0.0, 0.0], 
            "evaluate_basis_derivatives_5_0": [0.0, -2.4985557203629258e+00, 0.0], 
            "evaluate_basis_derivatives_5_1": [0.0, 0.0, 2.2787085020077340e+00, 1.8293856987949413e+00, 0.0, 0.0], 
            "evaluate_basis_derivatives_5_2": [0.0, 0.0, 0.0, 0.0, 0.0, 0.0, 0.0, 0.0, 0.0, 0.0, 0.0, 0.0], 
            "evaluate_basis_derivatives_6_0": [0.0, 0.0, 1.4718852622922434e+00], 
            "evaluate_basis_derivatives_6_1": [0.0, 0.0, 0.0, 0.0, 8.5585277568607676e-02, -2.2787085025842555e+00], 
            "evaluate_basis_derivatives_6_2": [0.0, 0.0, 0.0, 0.0, 0.0, 0.0, 0.0, 0.0, 0.0, 0.0, 0.0, 0.0], 
            "evaluate_basis_derivatives_7_0": [0.0, 0.0, 2.0266705413493233e+00], 
            "evaluate_basis_derivatives_7_1": [0.0, 0.0, 0.0, 0.0, -2.3642938479375970e+00, 4.4932274890774304e-01], 
            "evaluate_basis_derivatives_7_2": [0.0, 0.0, 0.0, 0.0, 0.0, 0.0, 0.0, 0.0, 0.0, 0.0, 0.0, 0.0], 
            "evaluate_basis_derivatives_8_0": [0.0, 0.0, -2.4985557203629258e+00], 
            "evaluate_basis_derivatives_8_1": [0.0, 0.0, 0.0, 0.0, 2.2787085020077340e+00, 1.8293856987949413e+00], 
            "evaluate_basis_derivatives_8_2": [0.0, 0.0, 0.0, 0.0, 0.0, 0.0, 0.0, 0.0, 0.0, 0.0, 0.0, 0.0], 
            "evaluate_basis_derivatives_all_0": [1.4718852622922434e+00, 0.0, 0.0, 2.0266705413493233e+00, 0.0, 0.0, -2.4985557203629258e+00, 0.0, 0.0, 0.0, 1.4718852622922434e+00, 0.0, 0.0, 2.0266705413493233e+00, 0.0, 0.0, -2.4985557203629258e+00, 0.0, 0.0, 0.0, 1.4718852622922434e+00, 0.0, 0.0, 2.0266705413493233e+00, 0.0, 0.0, -2.4985557203629258e+00], 
            "evaluate_basis_derivatives_all_1": [8.5585277568607676e-02, -2.2787085025842555e+00, 0.0, 0.0, 0.0, 0.0, -2.3642938479375970e+00, 4.4932274890774304e-01, 0.0, 0.0, 0.0, 0.0, 2.2787085020077340e+00, 1.8293856987949413e+00, 0.0, 0.0, 0.0, 0.0, 0.0, 0.0, 8.5585277568607676e-02, -2.2787085025842555e+00, 0.0, 0.0, 0.0, 0.0, -2.3642938479375970e+00, 4.4932274890774304e-01, 0.0, 0.0, 0.0, 0.0, 2.2787085020077340e+00, 1.8293856987949413e+00, 0.0, 0.0, 0.0, 0.0, 0.0, 0.0, 8.5585277568607676e-02, -2.2787085025842555e+00, 0.0, 0.0, 0.0, 0.0, -2.3642938479375970e+00, 4.4932274890774304e-01, 0.0, 0.0, 0.0, 0.0, 2.2787085020077340e+00, 1.8293856987949413e+00], 
            "evaluate_basis_derivatives_all_2": [0.0, 0.0, 0.0, 0.0, 0.0, 0.0, 0.0, 0.0, 0.0, 0.0, 0.0, 0.0, 0.0, 0.0, 0.0, 0.0, 0.0, 0.0, 0.0, 0.0, 0.0, 0.0, 0.0, 0.0, 0.0, 0.0, 0.0, 0.0, 0.0, 0.0, 0.0, 0.0, 0.0, 0.0, 0.0, 0.0, 0.0, 0.0, 0.0, 0.0, 0.0, 0.0, 0.0, 0.0, 0.0, 0.0, 0.0, 0.0, 0.0, 0.0, 0.0, 0.0, 0.0, 0.0, 0.0, 0.0, 0.0, 0.0, 0.0, 0.0, 0.0, 0.0, 0.0, 0.0, 0.0, 0.0, 0.0, 0.0, 0.0, 0.0, 0.0, 0.0, 0.0, 0.0, 0.0, 0.0, 0.0, 0.0, 0.0, 0.0, 0.0, 0.0, 0.0, 0.0, 0.0, 0.0, 0.0, 0.0, 0.0, 0.0, 0.0, 0.0, 0.0, 0.0, 0.0, 0.0, 0.0, 0.0, 0.0, 0.0, 0.0, 0.0, 0.0, 0.0, 0.0, 0.0, 0.0, 0.0], 
            "evaluate_dof_0": 3.0792300000000006e-01, 
            "evaluate_dof_1": 4.3028700000000003e-01, 
            "evaluate_dof_2": 7.7282099999999998e-01, 
            "evaluate_dof_3": 1.2316920000000002e+00, 
            "evaluate_dof_4": 1.7211480000000001e+00, 
            "evaluate_dof_5": 3.0912839999999999e+00, 
            "evaluate_dof_6": 2.7713070000000006e+00, 
            "evaluate_dof_7": 3.8725830000000010e+00, 
            "evaluate_dof_8": 6.9553890000000003e+00, 
            "evaluate_dofs": [3.0792300000000006e-01, 4.3028700000000003e-01, 7.7282099999999998e-01, 1.2316920000000002e+00, 1.7211480000000001e+00, 3.0912839999999999e+00, 2.7713070000000006e+00, 3.8725830000000010e+00, 6.9553890000000003e+00], 
            "interpolate_vertex_values": [3.0792300000000006e-01, 1.2316920000000002e+00, 2.7713070000000006e+00, 4.3028700000000003e-01, 1.7211480000000001e+00, 3.8725830000000010e+00, 7.7282099999999998e-01, 3.0912839999999999e+00, 6.9553890000000003e+00], 
            "tabulate_dof_coordinates": [9.0300000000000002e-01, 3.4100000000000003e-01, 5.6100000000000005e-01, 7.6700000000000002e-01, 9.8699999999999999e-01, 7.8300000000000003e-01, 9.0300000000000002e-01, 3.4100000000000003e-01, 5.6100000000000005e-01, 7.6700000000000002e-01, 9.8699999999999999e-01, 7.8300000000000003e-01, 9.0300000000000002e-01, 3.4100000000000003e-01, 5.6100000000000005e-01, 7.6700000000000002e-01, 9.8699999999999999e-01, 7.8300000000000003e-01], 
            "num_sub_elements": 2, 
            "finite_element_0": {
                "cell_shape": 1, 
                "space_dimension": 6, 
                "value_rank": 1, 
                "value_dimension_0": 2, 
                "evaluate_basis:_0": [1.4718852622922434e+00, 0.0], 
                "evaluate_basis:_1": [2.0266705413493233e+00, 0.0], 
                "evaluate_basis:_2": [-2.4985557203629258e+00, 0.0], 
                "evaluate_basis:_3": [0.0, 1.4718852622922434e+00], 
                "evaluate_basis:_4": [0.0, 2.0266705413493233e+00], 
                "evaluate_basis:_5": [0.0, -2.4985557203629258e+00], 
                "evaluate_basis_all": [1.4718852622922434e+00, 0.0, 2.0266705413493233e+00, 0.0, -2.4985557203629258e+00, 0.0, 0.0, 1.4718852622922434e+00, 0.0, 2.0266705413493233e+00, 0.0, -2.4985557203629258e+00, 0.0, 0.0, 0.0, 0.0, 0.0, 0.0, 0.0, 0.0, 0.0, 0.0, 0.0, 0.0, 0.0, 0.0, 0.0, 0.0, 0.0, 0.0, 0.0, 0.0, 0.0, 0.0, 0.0, 0.0, 0.0, 0.0, 0.0, 0.0, 0.0, 0.0, 0.0, 0.0, 0.0, 0.0, 0.0, 0.0], 
                "evaluate_basis_derivatives_0_0": [1.4718852622922434e+00, 0.0], 
                "evaluate_basis_derivatives_0_1": [8.5585277568607676e-02, -2.2787085025842555e+00, 0.0, 0.0], 
                "evaluate_basis_derivatives_0_2": [0.0, 0.0, 0.0, 0.0, 0.0, 0.0, 0.0, 0.0], 
                "evaluate_basis_derivatives_1_0": [2.0266705413493233e+00, 0.0], 
                "evaluate_basis_derivatives_1_1": [-2.3642938479375970e+00, 4.4932274890774304e-01, 0.0, 0.0], 
                "evaluate_basis_derivatives_1_2": [0.0, 0.0, 0.0, 0.0, 0.0, 0.0, 0.0, 0.0], 
                "evaluate_basis_derivatives_2_0": [-2.4985557203629258e+00, 0.0], 
                "evaluate_basis_derivatives_2_1": [2.2787085020077340e+00, 1.8293856987949413e+00, 0.0, 0.0], 
                "evaluate_basis_derivatives_2_2": [0.0, 0.0, 0.0, 0.0, 0.0, 0.0, 0.0, 0.0], 
                "evaluate_basis_derivatives_3_0": [0.0, 1.4718852622922434e+00], 
                "evaluate_basis_derivatives_3_1": [0.0, 0.0, 8.5585277568607676e-02, -2.2787085025842555e+00], 
                "evaluate_basis_derivatives_3_2": [0.0, 0.0, 0.0, 0.0, 0.0, 0.0, 0.0, 0.0], 
                "evaluate_basis_derivatives_4_0": [0.0, 2.0266705413493233e+00], 
                "evaluate_basis_derivatives_4_1": [0.0, 0.0, -2.3642938479375970e+00, 4.4932274890774304e-01], 
                "evaluate_basis_derivatives_4_2": [0.0, 0.0, 0.0, 0.0, 0.0, 0.0, 0.0, 0.0], 
                "evaluate_basis_derivatives_5_0": [0.0, -2.4985557203629258e+00], 
                "evaluate_basis_derivatives_5_1": [0.0, 0.0, 2.2787085020077340e+00, 1.8293856987949413e+00], 
                "evaluate_basis_derivatives_5_2": [0.0, 0.0, 0.0, 0.0, 0.0, 0.0, 0.0, 0.0], 
                "evaluate_basis_derivatives_all_0": [1.4718852622922434e+00, 0.0, 2.0266705413493233e+00, 0.0, -2.4985557203629258e+00, 0.0, 0.0, 1.4718852622922434e+00, 0.0, 2.0266705413493233e+00, 0.0, -2.4985557203629258e+00], 
                "evaluate_basis_derivatives_all_1": [8.5585277568607676e-02, -2.2787085025842555e+00, 0.0, 0.0, -2.3642938479375970e+00, 4.4932274890774304e-01, 0.0, 0.0, 2.2787085020077340e+00, 1.8293856987949413e+00, 0.0, 0.0, 0.0, 0.0, 8.5585277568607676e-02, -2.2787085025842555e+00, 0.0, 0.0, -2.3642938479375970e+00, 4.4932274890774304e-01, 0.0, 0.0, 2.2787085020077340e+00, 1.8293856987949413e+00], 
                "evaluate_basis_derivatives_all_2": [0.0, 0.0, 0.0, 0.0, 0.0, 0.0, 0.0, 0.0, 0.0, 0.0, 0.0, 0.0, 0.0, 0.0, 0.0, 0.0, 0.0, 0.0, 0.0, 0.0, 0.0, 0.0, 0.0, 0.0, 0.0, 0.0, 0.0, 0.0, 0.0, 0.0, 0.0, 0.0, 0.0, 0.0, 0.0, 0.0, 0.0, 0.0, 0.0, 0.0, 0.0, 0.0, 0.0, 0.0, 0.0, 0.0, 0.0, 0.0], 
                "evaluate_dof_0": 3.0792300000000006e-01, 
                "evaluate_dof_1": 4.3028700000000003e-01, 
                "evaluate_dof_2": 7.7282099999999998e-01, 
                "evaluate_dof_3": 1.2316920000000002e+00, 
                "evaluate_dof_4": 1.7211480000000001e+00, 
                "evaluate_dof_5": 3.0912839999999999e+00, 
                "evaluate_dofs": [3.0792300000000006e-01, 4.3028700000000003e-01, 7.7282099999999998e-01, 1.2316920000000002e+00, 1.7211480000000001e+00, 3.0912839999999999e+00], 
                "interpolate_vertex_values": [3.0792300000000006e-01, 1.2316920000000002e+00, 4.3028700000000003e-01, 1.7211480000000001e+00, 7.7282099999999998e-01, 3.0912839999999999e+00], 
                "tabulate_dof_coordinates": [9.0300000000000002e-01, 3.4100000000000003e-01, 5.6100000000000005e-01, 7.6700000000000002e-01, 9.8699999999999999e-01, 7.8300000000000003e-01, 9.0300000000000002e-01, 3.4100000000000003e-01, 5.6100000000000005e-01, 7.6700000000000002e-01, 9.8699999999999999e-01, 7.8300000000000003e-01], 
                "num_sub_elements": 2, 
                "finite_element_0": {
                    "cell_shape": 1, 
                    "space_dimension": 3, 
                    "value_rank": 0, 
                    "evaluate_basis:_0": [1.4718852622922434e+00], 
                    "evaluate_basis:_1": [2.0266705413493233e+00], 
                    "evaluate_basis:_2": [-2.4985557203629258e+00], 
                    "evaluate_basis_all": [1.4718852622922434e+00, 2.0266705413493233e+00, -2.4985557203629258e+00, 0.0, 0.0, 0.0, 0.0, 0.0, 0.0, 0.0, 0.0, 0.0], 
                    "evaluate_basis_derivatives_0_0": [1.4718852622922434e+00], 
                    "evaluate_basis_derivatives_0_1": [8.5585277568607676e-02, -2.2787085025842555e+00], 
                    "evaluate_basis_derivatives_0_2": [0.0, 0.0, 0.0, 0.0], 
                    "evaluate_basis_derivatives_1_0": [2.0266705413493233e+00], 
                    "evaluate_basis_derivatives_1_1": [-2.3642938479375970e+00, 4.4932274890774304e-01], 
                    "evaluate_basis_derivatives_1_2": [0.0, 0.0, 0.0, 0.0], 
                    "evaluate_basis_derivatives_2_0": [-2.4985557203629258e+00], 
                    "evaluate_basis_derivatives_2_1": [2.2787085020077340e+00, 1.8293856987949413e+00], 
                    "evaluate_basis_derivatives_2_2": [0.0, 0.0, 0.0, 0.0], 
                    "evaluate_basis_derivatives_all_0": [1.4718852622922434e+00, 2.0266705413493233e+00, -2.4985557203629258e+00], 
                    "evaluate_basis_derivatives_all_1": [8.5585277568607676e-02, -2.2787085025842555e+00, -2.3642938479375970e+00, 4.4932274890774304e-01, 2.2787085020077340e+00, 1.8293856987949413e+00], 
                    "evaluate_basis_derivatives_all_2": [0.0, 0.0, 0.0, 0.0, 0.0, 0.0, 0.0, 0.0, 0.0, 0.0, 0.0, 0.0], 
                    "evaluate_dof_0": 3.0792300000000006e-01, 
                    "evaluate_dof_1": 4.3028700000000003e-01, 
                    "evaluate_dof_2": 7.7282099999999998e-01, 
                    "evaluate_dofs": [3.0792300000000006e-01, 4.3028700000000003e-01, 7.7282099999999998e-01], 
                    "interpolate_vertex_values": [3.0792300000000006e-01, 4.3028700000000003e-01, 7.7282099999999998e-01], 
                    "tabulate_dof_coordinates": [9.0300000000000002e-01, 3.4100000000000003e-01, 5.6100000000000005e-01, 7.6700000000000002e-01, 9.8699999999999999e-01, 7.8300000000000003e-01], 
                    "num_sub_elements": 0, 
                },
                "finite_element_1": {
                    "cell_shape": 1, 
                    "space_dimension": 3, 
                    "value_rank": 0, 
                    "evaluate_basis:_0": [1.4718852622922434e+00], 
                    "evaluate_basis:_1": [2.0266705413493233e+00], 
                    "evaluate_basis:_2": [-2.4985557203629258e+00], 
                    "evaluate_basis_all": [1.4718852622922434e+00, 2.0266705413493233e+00, -2.4985557203629258e+00, 0.0, 0.0, 0.0, 0.0, 0.0, 0.0, 0.0, 0.0, 0.0], 
                    "evaluate_basis_derivatives_0_0": [1.4718852622922434e+00], 
                    "evaluate_basis_derivatives_0_1": [8.5585277568607676e-02, -2.2787085025842555e+00], 
                    "evaluate_basis_derivatives_0_2": [0.0, 0.0, 0.0, 0.0], 
                    "evaluate_basis_derivatives_1_0": [2.0266705413493233e+00], 
                    "evaluate_basis_derivatives_1_1": [-2.3642938479375970e+00, 4.4932274890774304e-01], 
                    "evaluate_basis_derivatives_1_2": [0.0, 0.0, 0.0, 0.0], 
                    "evaluate_basis_derivatives_2_0": [-2.4985557203629258e+00], 
                    "evaluate_basis_derivatives_2_1": [2.2787085020077340e+00, 1.8293856987949413e+00], 
                    "evaluate_basis_derivatives_2_2": [0.0, 0.0, 0.0, 0.0], 
                    "evaluate_basis_derivatives_all_0": [1.4718852622922434e+00, 2.0266705413493233e+00, -2.4985557203629258e+00], 
                    "evaluate_basis_derivatives_all_1": [8.5585277568607676e-02, -2.2787085025842555e+00, -2.3642938479375970e+00, 4.4932274890774304e-01, 2.2787085020077340e+00, 1.8293856987949413e+00], 
                    "evaluate_basis_derivatives_all_2": [0.0, 0.0, 0.0, 0.0, 0.0, 0.0, 0.0, 0.0, 0.0, 0.0, 0.0, 0.0], 
                    "evaluate_dof_0": 3.0792300000000006e-01, 
                    "evaluate_dof_1": 4.3028700000000003e-01, 
                    "evaluate_dof_2": 7.7282099999999998e-01, 
                    "evaluate_dofs": [3.0792300000000006e-01, 4.3028700000000003e-01, 7.7282099999999998e-01], 
                    "interpolate_vertex_values": [3.0792300000000006e-01, 4.3028700000000003e-01, 7.7282099999999998e-01], 
                    "tabulate_dof_coordinates": [9.0300000000000002e-01, 3.4100000000000003e-01, 5.6100000000000005e-01, 7.6700000000000002e-01, 9.8699999999999999e-01, 7.8300000000000003e-01], 
                    "num_sub_elements": 0, 
                },
            },
            "finite_element_1": {
                "cell_shape": 1, 
                "space_dimension": 3, 
                "value_rank": 0, 
                "evaluate_basis:_0": [1.4718852622922434e+00], 
                "evaluate_basis:_1": [2.0266705413493233e+00], 
                "evaluate_basis:_2": [-2.4985557203629258e+00], 
                "evaluate_basis_all": [1.4718852622922434e+00, 2.0266705413493233e+00, -2.4985557203629258e+00, 0.0, 0.0, 0.0, 0.0, 0.0, 0.0, 0.0, 0.0, 0.0], 
                "evaluate_basis_derivatives_0_0": [1.4718852622922434e+00], 
                "evaluate_basis_derivatives_0_1": [8.5585277568607676e-02, -2.2787085025842555e+00], 
                "evaluate_basis_derivatives_0_2": [0.0, 0.0, 0.0, 0.0], 
                "evaluate_basis_derivatives_1_0": [2.0266705413493233e+00], 
                "evaluate_basis_derivatives_1_1": [-2.3642938479375970e+00, 4.4932274890774304e-01], 
                "evaluate_basis_derivatives_1_2": [0.0, 0.0, 0.0, 0.0], 
                "evaluate_basis_derivatives_2_0": [-2.4985557203629258e+00], 
                "evaluate_basis_derivatives_2_1": [2.2787085020077340e+00, 1.8293856987949413e+00], 
                "evaluate_basis_derivatives_2_2": [0.0, 0.0, 0.0, 0.0], 
                "evaluate_basis_derivatives_all_0": [1.4718852622922434e+00, 2.0266705413493233e+00, -2.4985557203629258e+00], 
                "evaluate_basis_derivatives_all_1": [8.5585277568607676e-02, -2.2787085025842555e+00, -2.3642938479375970e+00, 4.4932274890774304e-01, 2.2787085020077340e+00, 1.8293856987949413e+00], 
                "evaluate_basis_derivatives_all_2": [0.0, 0.0, 0.0, 0.0, 0.0, 0.0, 0.0, 0.0, 0.0, 0.0, 0.0, 0.0], 
                "evaluate_dof_0": 3.0792300000000006e-01, 
                "evaluate_dof_1": 4.3028700000000003e-01, 
                "evaluate_dof_2": 7.7282099999999998e-01, 
                "evaluate_dofs": [3.0792300000000006e-01, 4.3028700000000003e-01, 7.7282099999999998e-01], 
                "interpolate_vertex_values": [3.0792300000000006e-01, 4.3028700000000003e-01, 7.7282099999999998e-01], 
                "tabulate_dof_coordinates": [9.0300000000000002e-01, 3.4100000000000003e-01, 5.6100000000000005e-01, 7.6700000000000002e-01, 9.8699999999999999e-01, 7.8300000000000003e-01], 
                "num_sub_elements": 0, 
            },
        },
        "finite_element_2": {
            "cell_shape": 1, 
            "space_dimension": 3, 
            "value_rank": 0, 
            "evaluate_basis:_0": [1.4718852622922434e+00], 
            "evaluate_basis:_1": [2.0266705413493233e+00], 
            "evaluate_basis:_2": [-2.4985557203629258e+00], 
            "evaluate_basis_all": [1.4718852622922434e+00, 2.0266705413493233e+00, -2.4985557203629258e+00, 0.0, 0.0, 0.0, 0.0, 0.0, 0.0, 0.0, 0.0, 0.0], 
            "evaluate_basis_derivatives_0_0": [1.4718852622922434e+00], 
            "evaluate_basis_derivatives_0_1": [8.5585277568607676e-02, -2.2787085025842555e+00], 
            "evaluate_basis_derivatives_0_2": [0.0, 0.0, 0.0, 0.0], 
            "evaluate_basis_derivatives_1_0": [2.0266705413493233e+00], 
            "evaluate_basis_derivatives_1_1": [-2.3642938479375970e+00, 4.4932274890774304e-01], 
            "evaluate_basis_derivatives_1_2": [0.0, 0.0, 0.0, 0.0], 
            "evaluate_basis_derivatives_2_0": [-2.4985557203629258e+00], 
            "evaluate_basis_derivatives_2_1": [2.2787085020077340e+00, 1.8293856987949413e+00], 
            "evaluate_basis_derivatives_2_2": [0.0, 0.0, 0.0, 0.0], 
            "evaluate_basis_derivatives_all_0": [1.4718852622922434e+00, 2.0266705413493233e+00, -2.4985557203629258e+00], 
            "evaluate_basis_derivatives_all_1": [8.5585277568607676e-02, -2.2787085025842555e+00, -2.3642938479375970e+00, 4.4932274890774304e-01, 2.2787085020077340e+00, 1.8293856987949413e+00], 
            "evaluate_basis_derivatives_all_2": [0.0, 0.0, 0.0, 0.0, 0.0, 0.0, 0.0, 0.0, 0.0, 0.0, 0.0, 0.0], 
            "evaluate_dof_0": 3.0792300000000006e-01, 
            "evaluate_dof_1": 4.3028700000000003e-01, 
            "evaluate_dof_2": 7.7282099999999998e-01, 
            "evaluate_dofs": [3.0792300000000006e-01, 4.3028700000000003e-01, 7.7282099999999998e-01], 
            "interpolate_vertex_values": [3.0792300000000006e-01, 4.3028700000000003e-01, 7.7282099999999998e-01], 
            "tabulate_dof_coordinates": [9.0300000000000002e-01, 3.4100000000000003e-01, 5.6100000000000005e-01, 7.6700000000000002e-01, 9.8699999999999999e-01, 7.8300000000000003e-01], 
            "num_sub_elements": 0, 
        },
        "dofmap_0": {
            "needs_mesh_entities_0": 1, 
            "needs_mesh_entities_1": 0, 
            "needs_mesh_entities_2": 0, 
            "global_dimension": 30003, 
            "num_element_dofs": 9, 
            "num_facet_dofs": 6, 
            "num_entity_dofs_0": 3, 
            "num_entity_dofs_1": 0, 
            "num_entity_dofs_2": 0, 
            "tabulate_dofs": [0, 0, 0, 10001, 10001, 10001, 20002, 20002, 20002], 
            "tabulate_facet_dofs_0": [1, 2, 4, 5, 7, 8], 
            "tabulate_facet_dofs_1": [0, 2, 3, 5, 6, 8], 
            "tabulate_facet_dofs_2": [0, 1, 3, 4, 6, 7], 
            "tabulate_entity_dofs_0_0": [0, 3, 6], 
            "tabulate_entity_dofs_0_1": [1, 4, 7], 
            "tabulate_entity_dofs_0_2": [2, 5, 8], 
            "tabulate_entity_dofs_1_0": [], 
            "tabulate_entity_dofs_1_1": [], 
            "tabulate_entity_dofs_1_2": [], 
            "tabulate_entity_dofs_2_0": [], 
            "num_sub_dofmaps": 2, 
            "dofmap_0": {
                "needs_mesh_entities_0": 1, 
                "needs_mesh_entities_1": 0, 
                "needs_mesh_entities_2": 0, 
                "global_dimension": 20002, 
                "num_element_dofs": 6, 
                "num_facet_dofs": 4, 
                "num_entity_dofs_0": 2, 
                "num_entity_dofs_1": 0, 
                "num_entity_dofs_2": 0, 
                "tabulate_dofs": [0, 0, 0, 10001, 10001, 10001], 
                "tabulate_facet_dofs_0": [1, 2, 4, 5], 
                "tabulate_facet_dofs_1": [0, 2, 3, 5], 
                "tabulate_facet_dofs_2": [0, 1, 3, 4], 
                "tabulate_entity_dofs_0_0": [0, 3], 
                "tabulate_entity_dofs_0_1": [1, 4], 
                "tabulate_entity_dofs_0_2": [2, 5], 
                "tabulate_entity_dofs_1_0": [], 
                "tabulate_entity_dofs_1_1": [], 
                "tabulate_entity_dofs_1_2": [], 
                "tabulate_entity_dofs_2_0": [], 
                "num_sub_dofmaps": 2, 
                "dofmap_0": {
                    "needs_mesh_entities_0": 1, 
                    "needs_mesh_entities_1": 0, 
                    "needs_mesh_entities_2": 0, 
                    "global_dimension": 10001, 
                    "num_element_dofs": 3, 
                    "num_facet_dofs": 2, 
                    "num_entity_dofs_0": 1, 
                    "num_entity_dofs_1": 0, 
                    "num_entity_dofs_2": 0, 
                    "tabulate_dofs": [0, 0, 0], 
                    "tabulate_facet_dofs_0": [1, 2], 
                    "tabulate_facet_dofs_1": [0, 2], 
                    "tabulate_facet_dofs_2": [0, 1], 
                    "tabulate_entity_dofs_0_0": [0], 
                    "tabulate_entity_dofs_0_1": [1], 
                    "tabulate_entity_dofs_0_2": [2], 
                    "tabulate_entity_dofs_1_0": [], 
                    "tabulate_entity_dofs_1_1": [], 
                    "tabulate_entity_dofs_1_2": [], 
                    "tabulate_entity_dofs_2_0": [], 
                    "num_sub_dofmaps": 0, 
                },
                "dofmap_1": {
                    "needs_mesh_entities_0": 1, 
                    "needs_mesh_entities_1": 0, 
                    "needs_mesh_entities_2": 0, 
                    "global_dimension": 10001, 
                    "num_element_dofs": 3, 
                    "num_facet_dofs": 2, 
                    "num_entity_dofs_0": 1, 
                    "num_entity_dofs_1": 0, 
                    "num_entity_dofs_2": 0, 
                    "tabulate_dofs": [0, 0, 0], 
                    "tabulate_facet_dofs_0": [1, 2], 
                    "tabulate_facet_dofs_1": [0, 2], 
                    "tabulate_facet_dofs_2": [0, 1], 
                    "tabulate_entity_dofs_0_0": [0], 
                    "tabulate_entity_dofs_0_1": [1], 
                    "tabulate_entity_dofs_0_2": [2], 
                    "tabulate_entity_dofs_1_0": [], 
                    "tabulate_entity_dofs_1_1": [], 
                    "tabulate_entity_dofs_1_2": [], 
                    "tabulate_entity_dofs_2_0": [], 
                    "num_sub_dofmaps": 0, 
                },
            },
            "dofmap_1": {
                "needs_mesh_entities_0": 1, 
                "needs_mesh_entities_1": 0, 
                "needs_mesh_entities_2": 0, 
                "global_dimension": 10001, 
                "num_element_dofs": 3, 
                "num_facet_dofs": 2, 
                "num_entity_dofs_0": 1, 
                "num_entity_dofs_1": 0, 
                "num_entity_dofs_2": 0, 
                "tabulate_dofs": [0, 0, 0], 
                "tabulate_facet_dofs_0": [1, 2], 
                "tabulate_facet_dofs_1": [0, 2], 
                "tabulate_facet_dofs_2": [0, 1], 
                "tabulate_entity_dofs_0_0": [0], 
                "tabulate_entity_dofs_0_1": [1], 
                "tabulate_entity_dofs_0_2": [2], 
                "tabulate_entity_dofs_1_0": [], 
                "tabulate_entity_dofs_1_1": [], 
                "tabulate_entity_dofs_1_2": [], 
                "tabulate_entity_dofs_2_0": [], 
                "num_sub_dofmaps": 0, 
            },
        },
        "dofmap_1": {
            "needs_mesh_entities_0": 1, 
            "needs_mesh_entities_1": 0, 
            "needs_mesh_entities_2": 0, 
            "global_dimension": 30003, 
            "num_element_dofs": 9, 
            "num_facet_dofs": 6, 
            "num_entity_dofs_0": 3, 
            "num_entity_dofs_1": 0, 
            "num_entity_dofs_2": 0, 
            "tabulate_dofs": [0, 0, 0, 10001, 10001, 10001, 20002, 20002, 20002], 
            "tabulate_facet_dofs_0": [1, 2, 4, 5, 7, 8], 
            "tabulate_facet_dofs_1": [0, 2, 3, 5, 6, 8], 
            "tabulate_facet_dofs_2": [0, 1, 3, 4, 6, 7], 
            "tabulate_entity_dofs_0_0": [0, 3, 6], 
            "tabulate_entity_dofs_0_1": [1, 4, 7], 
            "tabulate_entity_dofs_0_2": [2, 5, 8], 
            "tabulate_entity_dofs_1_0": [], 
            "tabulate_entity_dofs_1_1": [], 
            "tabulate_entity_dofs_1_2": [], 
            "tabulate_entity_dofs_2_0": [], 
            "num_sub_dofmaps": 2, 
            "dofmap_0": {
                "needs_mesh_entities_0": 1, 
                "needs_mesh_entities_1": 0, 
                "needs_mesh_entities_2": 0, 
                "global_dimension": 20002, 
                "num_element_dofs": 6, 
                "num_facet_dofs": 4, 
                "num_entity_dofs_0": 2, 
                "num_entity_dofs_1": 0, 
                "num_entity_dofs_2": 0, 
                "tabulate_dofs": [0, 0, 0, 10001, 10001, 10001], 
                "tabulate_facet_dofs_0": [1, 2, 4, 5], 
                "tabulate_facet_dofs_1": [0, 2, 3, 5], 
                "tabulate_facet_dofs_2": [0, 1, 3, 4], 
                "tabulate_entity_dofs_0_0": [0, 3], 
                "tabulate_entity_dofs_0_1": [1, 4], 
                "tabulate_entity_dofs_0_2": [2, 5], 
                "tabulate_entity_dofs_1_0": [], 
                "tabulate_entity_dofs_1_1": [], 
                "tabulate_entity_dofs_1_2": [], 
                "tabulate_entity_dofs_2_0": [], 
                "num_sub_dofmaps": 2, 
                "dofmap_0": {
                    "needs_mesh_entities_0": 1, 
                    "needs_mesh_entities_1": 0, 
                    "needs_mesh_entities_2": 0, 
                    "global_dimension": 10001, 
                    "num_element_dofs": 3, 
                    "num_facet_dofs": 2, 
                    "num_entity_dofs_0": 1, 
                    "num_entity_dofs_1": 0, 
                    "num_entity_dofs_2": 0, 
                    "tabulate_dofs": [0, 0, 0], 
                    "tabulate_facet_dofs_0": [1, 2], 
                    "tabulate_facet_dofs_1": [0, 2], 
                    "tabulate_facet_dofs_2": [0, 1], 
                    "tabulate_entity_dofs_0_0": [0], 
                    "tabulate_entity_dofs_0_1": [1], 
                    "tabulate_entity_dofs_0_2": [2], 
                    "tabulate_entity_dofs_1_0": [], 
                    "tabulate_entity_dofs_1_1": [], 
                    "tabulate_entity_dofs_1_2": [], 
                    "tabulate_entity_dofs_2_0": [], 
                    "num_sub_dofmaps": 0, 
                },
                "dofmap_1": {
                    "needs_mesh_entities_0": 1, 
                    "needs_mesh_entities_1": 0, 
                    "needs_mesh_entities_2": 0, 
                    "global_dimension": 10001, 
                    "num_element_dofs": 3, 
                    "num_facet_dofs": 2, 
                    "num_entity_dofs_0": 1, 
                    "num_entity_dofs_1": 0, 
                    "num_entity_dofs_2": 0, 
                    "tabulate_dofs": [0, 0, 0], 
                    "tabulate_facet_dofs_0": [1, 2], 
                    "tabulate_facet_dofs_1": [0, 2], 
                    "tabulate_facet_dofs_2": [0, 1], 
                    "tabulate_entity_dofs_0_0": [0], 
                    "tabulate_entity_dofs_0_1": [1], 
                    "tabulate_entity_dofs_0_2": [2], 
                    "tabulate_entity_dofs_1_0": [], 
                    "tabulate_entity_dofs_1_1": [], 
                    "tabulate_entity_dofs_1_2": [], 
                    "tabulate_entity_dofs_2_0": [], 
                    "num_sub_dofmaps": 0, 
                },
            },
            "dofmap_1": {
                "needs_mesh_entities_0": 1, 
                "needs_mesh_entities_1": 0, 
                "needs_mesh_entities_2": 0, 
                "global_dimension": 10001, 
                "num_element_dofs": 3, 
                "num_facet_dofs": 2, 
                "num_entity_dofs_0": 1, 
                "num_entity_dofs_1": 0, 
                "num_entity_dofs_2": 0, 
                "tabulate_dofs": [0, 0, 0], 
                "tabulate_facet_dofs_0": [1, 2], 
                "tabulate_facet_dofs_1": [0, 2], 
                "tabulate_facet_dofs_2": [0, 1], 
                "tabulate_entity_dofs_0_0": [0], 
                "tabulate_entity_dofs_0_1": [1], 
                "tabulate_entity_dofs_0_2": [2], 
                "tabulate_entity_dofs_1_0": [], 
                "tabulate_entity_dofs_1_1": [], 
                "tabulate_entity_dofs_1_2": [], 
                "tabulate_entity_dofs_2_0": [], 
                "num_sub_dofmaps": 0, 
            },
        },
        "dofmap_2": {
            "needs_mesh_entities_0": 1, 
            "needs_mesh_entities_1": 0, 
            "needs_mesh_entities_2": 0, 
            "global_dimension": 10001, 
            "num_element_dofs": 3, 
            "num_facet_dofs": 2, 
            "num_entity_dofs_0": 1, 
            "num_entity_dofs_1": 0, 
            "num_entity_dofs_2": 0, 
            "tabulate_dofs": [0, 0, 0], 
            "tabulate_facet_dofs_0": [1, 2], 
            "tabulate_facet_dofs_1": [0, 2], 
            "tabulate_facet_dofs_2": [0, 1], 
            "tabulate_entity_dofs_0_0": [0], 
            "tabulate_entity_dofs_0_1": [1], 
            "tabulate_entity_dofs_0_2": [2], 
            "tabulate_entity_dofs_1_0": [], 
            "tabulate_entity_dofs_1_1": [], 
            "tabulate_entity_dofs_1_2": [], 
            "tabulate_entity_dofs_2_0": [], 
            "num_sub_dofmaps": 0, 
        },
        "default_cell_integral": 1, 
        "cell_integral": {
            "tabulate_tensor": [4.8604959667929037e-01, -1.1462010826539998e-01, -3.7142948841389040e-01, 0.0, 0.0, 0.0, -2.6666667200000022e-03, -2.6666667200000022e-03, -2.6666667200000022e-03, -1.1462010826539998e-01, 5.4138049083167528e-01, -4.2676038256627530e-01, 0.0, 0.0, 0.0, 7.3666668140000002e-02, 7.3666668140000002e-02, 7.3666668140000002e-02, -3.7142948841389040e-01, -4.2676038256627530e-01, 7.9818987098016569e-01, 0.0, 0.0, 0.0, -7.1000001420000000e-02, -7.1000001420000000e-02, -7.1000001420000000e-02, 0.0, 0.0, 0.0, 4.8604959667929037e-01, -1.1462010826539998e-01, -3.7142948841389040e-01, 7.1000001419999986e-02, 7.1000001419999986e-02, 7.1000001419999986e-02, 0.0, 0.0, 0.0, -1.1462010826539998e-01, 5.4138049083167528e-01, -4.2676038256627530e-01, -1.4000000279999992e-02, -1.4000000279999992e-02, -1.4000000279999992e-02, 0.0, 0.0, 0.0, -3.7142948841389040e-01, -4.2676038256627530e-01, 7.9818987098016569e-01, -5.7000001139999992e-02, -5.7000001139999992e-02, -5.7000001139999992e-02, 2.6666667200000022e-03, -7.3666668140000002e-02, 7.1000001420000000e-02, -7.1000001419999986e-02, 1.4000000279999992e-02, 5.7000001139999992e-02, 4.0504134644369577e-03, -9.5516760632090173e-04, -3.0952458581160560e-03, 2.6666667200000022e-03, -7.3666668140000002e-02, 7.1000001420000000e-02, -7.1000001419999986e-02, 1.4000000279999992e-02, 5.7000001139999992e-02, -9.5516760632090173e-04, 4.5115042671149234e-03, -3.5563366607940217e-03, 2.6666667200000022e-03, -7.3666668140000002e-02, 7.1000001420000000e-02, -7.1000001419999986e-02, 1.4000000279999992e-02, 5.7000001139999992e-02, -3.0952458581160560e-03, -3.5563366607940217e-03, 6.6515825189100777e-03], 
        },
        "default_exterior_facet_integral": 0, 
        "default_interior_facet_integral": 0, 
        "default_vertex_integral": 0, 
    },
    "form_1": {
        "rank": 1, 
        "num_coefficients": 2, 
        "has_cell_integrals": 1, 
        "has_exterior_facet_integrals": 0, 
        "has_interior_facet_integrals": 0, 
        "has_vertex_integrals": 0, 
        "max_cell_subdomain_id": 0, 
        "max_exterior_facet_subdomain_id": 0, 
        "max_interior_facet_subdomain_id": 0, 
        "max_vertex_subdomain_id": 0, 
        "finite_element_0": {
            "cell_shape": 1, 
            "space_dimension": 9, 
            "value_rank": 1, 
            "value_dimension_0": 3, 
            "evaluate_basis:_0": [1.4718852622922434e+00, 0.0, 0.0], 
            "evaluate_basis:_1": [2.0266705413493233e+00, 0.0, 0.0], 
            "evaluate_basis:_2": [-2.4985557203629258e+00, 0.0, 0.0], 
            "evaluate_basis:_3": [0.0, 1.4718852622922434e+00, 0.0], 
            "evaluate_basis:_4": [0.0, 2.0266705413493233e+00, 0.0], 
            "evaluate_basis:_5": [0.0, -2.4985557203629258e+00, 0.0], 
            "evaluate_basis:_6": [0.0, 0.0, 1.4718852622922434e+00], 
            "evaluate_basis:_7": [0.0, 0.0, 2.0266705413493233e+00], 
            "evaluate_basis:_8": [0.0, 0.0, -2.4985557203629258e+00], 
            "evaluate_basis_all": [1.4718852622922434e+00, 0.0, 0.0, 2.0266705413493233e+00, 0.0, 0.0, -2.4985557203629258e+00, 0.0, 0.0, 0.0, 1.4718852622922434e+00, 0.0, 0.0, 2.0266705413493233e+00, 0.0, 0.0, -2.4985557203629258e+00, 0.0, 0.0, 0.0, 1.4718852622922434e+00, 0.0, 0.0, 2.0266705413493233e+00, 0.0, 0.0, -2.4985557203629258e+00, 0.0, 0.0, 0.0, 0.0, 0.0, 0.0, 0.0, 0.0, 0.0, 0.0, 0.0, 0.0, 0.0, 0.0, 0.0, 0.0, 0.0, 0.0, 0.0, 0.0, 0.0, 0.0, 0.0, 0.0, 0.0, 0.0, 0.0, 0.0, 0.0, 0.0, 0.0, 0.0, 0.0, 0.0, 0.0, 0.0, 0.0, 0.0, 0.0, 0.0, 0.0, 0.0, 0.0, 0.0, 0.0, 0.0, 0.0, 0.0, 0.0, 0.0, 0.0, 0.0, 0.0, 0.0, 0.0, 0.0, 0.0, 0.0, 0.0, 0.0, 0.0, 0.0, 0.0, 0.0, 0.0, 0.0, 0.0, 0.0, 0.0, 0.0, 0.0, 0.0, 0.0, 0.0, 0.0, 0.0, 0.0, 0.0, 0.0, 0.0, 0.0], 
            "evaluate_basis_derivatives_0_0": [1.4718852622922434e+00, 0.0, 0.0], 
            "evaluate_basis_derivatives_0_1": [8.5585277568607676e-02, -2.2787085025842555e+00, 0.0, 0.0, 0.0, 0.0], 
            "evaluate_basis_derivatives_0_2": [0.0, 0.0, 0.0, 0.0, 0.0, 0.0, 0.0, 0.0, 0.0, 0.0, 0.0, 0.0], 
            "evaluate_basis_derivatives_1_0": [2.0266705413493233e+00, 0.0, 0.0], 
            "evaluate_basis_derivatives_1_1": [-2.3642938479375970e+00, 4.4932274890774304e-01, 0.0, 0.0, 0.0, 0.0], 
            "evaluate_basis_derivatives_1_2": [0.0, 0.0, 0.0, 0.0, 0.0, 0.0, 0.0, 0.0, 0.0, 0.0, 0.0, 0.0], 
            "evaluate_basis_derivatives_2_0": [-2.4985557203629258e+00, 0.0, 0.0], 
            "evaluate_basis_derivatives_2_1": [2.2787085020077340e+00, 1.8293856987949413e+00, 0.0, 0.0, 0.0, 0.0], 
            "evaluate_basis_derivatives_2_2": [0.0, 0.0, 0.0, 0.0, 0.0, 0.0, 0.0, 0.0, 0.0, 0.0, 0.0, 0.0], 
            "evaluate_basis_derivatives_3_0": [0.0, 1.4718852622922434e+00, 0.0], 
            "evaluate_basis_derivatives_3_1": [0.0, 0.0, 8.5585277568607676e-02, -2.2787085025842555e+00, 0.0, 0.0], 
            "evaluate_basis_derivatives_3_2": [0.0, 0.0, 0.0, 0.0, 0.0, 0.0, 0.0, 0.0, 0.0, 0.0, 0.0, 0.0], 
            "evaluate_basis_derivatives_4_0": [0.0, 2.0266705413493233e+00, 0.0], 
            "evaluate_basis_derivatives_4_1": [0.0, 0.0, -2.3642938479375970e+00, 4.4932274890774304e-01, 0.0, 0.0], 
            "evaluate_basis_derivatives_4_2": [0.0, 0.0, 0.0, 0.0, 0.0, 0.0, 0.0, 0.0, 0.0, 0.0, 0.0, 0.0], 
            "evaluate_basis_derivatives_5_0": [0.0, -2.4985557203629258e+00, 0.0], 
            "evaluate_basis_derivatives_5_1": [0.0, 0.0, 2.2787085020077340e+00, 1.8293856987949413e+00, 0.0, 0.0], 
            "evaluate_basis_derivatives_5_2": [0.0, 0.0, 0.0, 0.0, 0.0, 0.0, 0.0, 0.0, 0.0, 0.0, 0.0, 0.0], 
            "evaluate_basis_derivatives_6_0": [0.0, 0.0, 1.4718852622922434e+00], 
            "evaluate_basis_derivatives_6_1": [0.0, 0.0, 0.0, 0.0, 8.5585277568607676e-02, -2.2787085025842555e+00], 
            "evaluate_basis_derivatives_6_2": [0.0, 0.0, 0.0, 0.0, 0.0, 0.0, 0.0, 0.0, 0.0, 0.0, 0.0, 0.0], 
            "evaluate_basis_derivatives_7_0": [0.0, 0.0, 2.0266705413493233e+00], 
            "evaluate_basis_derivatives_7_1": [0.0, 0.0, 0.0, 0.0, -2.3642938479375970e+00, 4.4932274890774304e-01], 
            "evaluate_basis_derivatives_7_2": [0.0, 0.0, 0.0, 0.0, 0.0, 0.0, 0.0, 0.0, 0.0, 0.0, 0.0, 0.0], 
            "evaluate_basis_derivatives_8_0": [0.0, 0.0, -2.4985557203629258e+00], 
            "evaluate_basis_derivatives_8_1": [0.0, 0.0, 0.0, 0.0, 2.2787085020077340e+00, 1.8293856987949413e+00], 
            "evaluate_basis_derivatives_8_2": [0.0, 0.0, 0.0, 0.0, 0.0, 0.0, 0.0, 0.0, 0.0, 0.0, 0.0, 0.0], 
            "evaluate_basis_derivatives_all_0": [1.4718852622922434e+00, 0.0, 0.0, 2.0266705413493233e+00, 0.0, 0.0, -2.4985557203629258e+00, 0.0, 0.0, 0.0, 1.4718852622922434e+00, 0.0, 0.0, 2.0266705413493233e+00, 0.0, 0.0, -2.4985557203629258e+00, 0.0, 0.0, 0.0, 1.4718852622922434e+00, 0.0, 0.0, 2.0266705413493233e+00, 0.0, 0.0, -2.4985557203629258e+00], 
            "evaluate_basis_derivatives_all_1": [8.5585277568607676e-02, -2.2787085025842555e+00, 0.0, 0.0, 0.0, 0.0, -2.3642938479375970e+00, 4.4932274890774304e-01, 0.0, 0.0, 0.0, 0.0, 2.2787085020077340e+00, 1.8293856987949413e+00, 0.0, 0.0, 0.0, 0.0, 0.0, 0.0, 8.5585277568607676e-02, -2.2787085025842555e+00, 0.0, 0.0, 0.0, 0.0, -2.3642938479375970e+00, 4.4932274890774304e-01, 0.0, 0.0, 0.0, 0.0, 2.2787085020077340e+00, 1.8293856987949413e+00, 0.0, 0.0, 0.0, 0.0, 0.0, 0.0, 8.5585277568607676e-02, -2.2787085025842555e+00, 0.0, 0.0, 0.0, 0.0, -2.3642938479375970e+00, 4.4932274890774304e-01, 0.0, 0.0, 0.0, 0.0, 2.2787085020077340e+00, 1.8293856987949413e+00], 
            "evaluate_basis_derivatives_all_2": [0.0, 0.0, 0.0, 0.0, 0.0, 0.0, 0.0, 0.0, 0.0, 0.0, 0.0, 0.0, 0.0, 0.0, 0.0, 0.0, 0.0, 0.0, 0.0, 0.0, 0.0, 0.0, 0.0, 0.0, 0.0, 0.0, 0.0, 0.0, 0.0, 0.0, 0.0, 0.0, 0.0, 0.0, 0.0, 0.0, 0.0, 0.0, 0.0, 0.0, 0.0, 0.0, 0.0, 0.0, 0.0, 0.0, 0.0, 0.0, 0.0, 0.0, 0.0, 0.0, 0.0, 0.0, 0.0, 0.0, 0.0, 0.0, 0.0, 0.0, 0.0, 0.0, 0.0, 0.0, 0.0, 0.0, 0.0, 0.0, 0.0, 0.0, 0.0, 0.0, 0.0, 0.0, 0.0, 0.0, 0.0, 0.0, 0.0, 0.0, 0.0, 0.0, 0.0, 0.0, 0.0, 0.0, 0.0, 0.0, 0.0, 0.0, 0.0, 0.0, 0.0, 0.0, 0.0, 0.0, 0.0, 0.0, 0.0, 0.0, 0.0, 0.0, 0.0, 0.0, 0.0, 0.0, 0.0, 0.0], 
            "evaluate_dof_0": 3.0792300000000006e-01, 
            "evaluate_dof_1": 4.3028700000000003e-01, 
            "evaluate_dof_2": 7.7282099999999998e-01, 
            "evaluate_dof_3": 1.2316920000000002e+00, 
            "evaluate_dof_4": 1.7211480000000001e+00, 
            "evaluate_dof_5": 3.0912839999999999e+00, 
            "evaluate_dof_6": 2.7713070000000006e+00, 
            "evaluate_dof_7": 3.8725830000000010e+00, 
            "evaluate_dof_8": 6.9553890000000003e+00, 
            "evaluate_dofs": [3.0792300000000006e-01, 4.3028700000000003e-01, 7.7282099999999998e-01, 1.2316920000000002e+00, 1.7211480000000001e+00, 3.0912839999999999e+00, 2.7713070000000006e+00, 3.8725830000000010e+00, 6.9553890000000003e+00], 
            "interpolate_vertex_values": [3.0792300000000006e-01, 1.2316920000000002e+00, 2.7713070000000006e+00, 4.3028700000000003e-01, 1.7211480000000001e+00, 3.8725830000000010e+00, 7.7282099999999998e-01, 3.0912839999999999e+00, 6.9553890000000003e+00], 
            "tabulate_dof_coordinates": [9.0300000000000002e-01, 3.4100000000000003e-01, 5.6100000000000005e-01, 7.6700000000000002e-01, 9.8699999999999999e-01, 7.8300000000000003e-01, 9.0300000000000002e-01, 3.4100000000000003e-01, 5.6100000000000005e-01, 7.6700000000000002e-01, 9.8699999999999999e-01, 7.8300000000000003e-01, 9.0300000000000002e-01, 3.4100000000000003e-01, 5.6100000000000005e-01, 7.6700000000000002e-01, 9.8699999999999999e-01, 7.8300000000000003e-01], 
            "num_sub_elements": 2, 
            "finite_element_0": {
                "cell_shape": 1, 
                "space_dimension": 6, 
                "value_rank": 1, 
                "value_dimension_0": 2, 
                "evaluate_basis:_0": [1.4718852622922434e+00, 0.0], 
                "evaluate_basis:_1": [2.0266705413493233e+00, 0.0], 
                "evaluate_basis:_2": [-2.4985557203629258e+00, 0.0], 
                "evaluate_basis:_3": [0.0, 1.4718852622922434e+00], 
                "evaluate_basis:_4": [0.0, 2.0266705413493233e+00], 
                "evaluate_basis:_5": [0.0, -2.4985557203629258e+00], 
                "evaluate_basis_all": [1.4718852622922434e+00, 0.0, 2.0266705413493233e+00, 0.0, -2.4985557203629258e+00, 0.0, 0.0, 1.4718852622922434e+00, 0.0, 2.0266705413493233e+00, 0.0, -2.4985557203629258e+00, 0.0, 0.0, 0.0, 0.0, 0.0, 0.0, 0.0, 0.0, 0.0, 0.0, 0.0, 0.0, 0.0, 0.0, 0.0, 0.0, 0.0, 0.0, 0.0, 0.0, 0.0, 0.0, 0.0, 0.0, 0.0, 0.0, 0.0, 0.0, 0.0, 0.0, 0.0, 0.0, 0.0, 0.0, 0.0, 0.0], 
                "evaluate_basis_derivatives_0_0": [1.4718852622922434e+00, 0.0], 
                "evaluate_basis_derivatives_0_1": [8.5585277568607676e-02, -2.2787085025842555e+00, 0.0, 0.0], 
                "evaluate_basis_derivatives_0_2": [0.0, 0.0, 0.0, 0.0, 0.0, 0.0, 0.0, 0.0], 
                "evaluate_basis_derivatives_1_0": [2.0266705413493233e+00, 0.0], 
                "evaluate_basis_derivatives_1_1": [-2.3642938479375970e+00, 4.4932274890774304e-01, 0.0, 0.0], 
                "evaluate_basis_derivatives_1_2": [0.0, 0.0, 0.0, 0.0, 0.0, 0.0, 0.0, 0.0], 
                "evaluate_basis_derivatives_2_0": [-2.4985557203629258e+00, 0.0], 
                "evaluate_basis_derivatives_2_1": [2.2787085020077340e+00, 1.8293856987949413e+00, 0.0, 0.0], 
                "evaluate_basis_derivatives_2_2": [0.0, 0.0, 0.0, 0.0, 0.0, 0.0, 0.0, 0.0], 
                "evaluate_basis_derivatives_3_0": [0.0, 1.4718852622922434e+00], 
                "evaluate_basis_derivatives_3_1": [0.0, 0.0, 8.5585277568607676e-02, -2.2787085025842555e+00], 
                "evaluate_basis_derivatives_3_2": [0.0, 0.0, 0.0, 0.0, 0.0, 0.0, 0.0, 0.0], 
                "evaluate_basis_derivatives_4_0": [0.0, 2.0266705413493233e+00], 
                "evaluate_basis_derivatives_4_1": [0.0, 0.0, -2.3642938479375970e+00, 4.4932274890774304e-01], 
                "evaluate_basis_derivatives_4_2": [0.0, 0.0, 0.0, 0.0, 0.0, 0.0, 0.0, 0.0], 
                "evaluate_basis_derivatives_5_0": [0.0, -2.4985557203629258e+00], 
                "evaluate_basis_derivatives_5_1": [0.0, 0.0, 2.2787085020077340e+00, 1.8293856987949413e+00], 
                "evaluate_basis_derivatives_5_2": [0.0, 0.0, 0.0, 0.0, 0.0, 0.0, 0.0, 0.0], 
                "evaluate_basis_derivatives_all_0": [1.4718852622922434e+00, 0.0, 2.0266705413493233e+00, 0.0, -2.4985557203629258e+00, 0.0, 0.0, 1.4718852622922434e+00, 0.0, 2.0266705413493233e+00, 0.0, -2.4985557203629258e+00], 
                "evaluate_basis_derivatives_all_1": [8.5585277568607676e-02, -2.2787085025842555e+00, 0.0, 0.0, -2.3642938479375970e+00, 4.4932274890774304e-01, 0.0, 0.0, 2.2787085020077340e+00, 1.8293856987949413e+00, 0.0, 0.0, 0.0, 0.0, 8.5585277568607676e-02, -2.2787085025842555e+00, 0.0, 0.0, -2.3642938479375970e+00, 4.4932274890774304e-01, 0.0, 0.0, 2.2787085020077340e+00, 1.8293856987949413e+00], 
                "evaluate_basis_derivatives_all_2": [0.0, 0.0, 0.0, 0.0, 0.0, 0.0, 0.0, 0.0, 0.0, 0.0, 0.0, 0.0, 0.0, 0.0, 0.0, 0.0, 0.0, 0.0, 0.0, 0.0, 0.0, 0.0, 0.0, 0.0, 0.0, 0.0, 0.0, 0.0, 0.0, 0.0, 0.0, 0.0, 0.0, 0.0, 0.0, 0.0, 0.0, 0.0, 0.0, 0.0, 0.0, 0.0, 0.0, 0.0, 0.0, 0.0, 0.0, 0.0], 
                "evaluate_dof_0": 3.0792300000000006e-01, 
                "evaluate_dof_1": 4.3028700000000003e-01, 
                "evaluate_dof_2": 7.7282099999999998e-01, 
                "evaluate_dof_3": 1.2316920000000002e+00, 
                "evaluate_dof_4": 1.7211480000000001e+00, 
                "evaluate_dof_5": 3.0912839999999999e+00, 
                "evaluate_dofs": [3.0792300000000006e-01, 4.3028700000000003e-01, 7.7282099999999998e-01, 1.2316920000000002e+00, 1.7211480000000001e+00, 3.0912839999999999e+00], 
                "interpolate_vertex_values": [3.0792300000000006e-01, 1.2316920000000002e+00, 4.3028700000000003e-01, 1.7211480000000001e+00, 7.7282099999999998e-01, 3.0912839999999999e+00], 
                "tabulate_dof_coordinates": [9.0300000000000002e-01, 3.4100000000000003e-01, 5.6100000000000005e-01, 7.6700000000000002e-01, 9.8699999999999999e-01, 7.8300000000000003e-01, 9.0300000000000002e-01, 3.4100000000000003e-01, 5.6100000000000005e-01, 7.6700000000000002e-01, 9.8699999999999999e-01, 7.8300000000000003e-01], 
                "num_sub_elements": 2, 
                "finite_element_0": {
                    "cell_shape": 1, 
                    "space_dimension": 3, 
                    "value_rank": 0, 
                    "evaluate_basis:_0": [1.4718852622922434e+00], 
                    "evaluate_basis:_1": [2.0266705413493233e+00], 
                    "evaluate_basis:_2": [-2.4985557203629258e+00], 
                    "evaluate_basis_all": [1.4718852622922434e+00, 2.0266705413493233e+00, -2.4985557203629258e+00, 0.0, 0.0, 0.0, 0.0, 0.0, 0.0, 0.0, 0.0, 0.0], 
                    "evaluate_basis_derivatives_0_0": [1.4718852622922434e+00], 
                    "evaluate_basis_derivatives_0_1": [8.5585277568607676e-02, -2.2787085025842555e+00], 
                    "evaluate_basis_derivatives_0_2": [0.0, 0.0, 0.0, 0.0], 
                    "evaluate_basis_derivatives_1_0": [2.0266705413493233e+00], 
                    "evaluate_basis_derivatives_1_1": [-2.3642938479375970e+00, 4.4932274890774304e-01], 
                    "evaluate_basis_derivatives_1_2": [0.0, 0.0, 0.0, 0.0], 
                    "evaluate_basis_derivatives_2_0": [-2.4985557203629258e+00], 
                    "evaluate_basis_derivatives_2_1": [2.2787085020077340e+00, 1.8293856987949413e+00], 
                    "evaluate_basis_derivatives_2_2": [0.0, 0.0, 0.0, 0.0], 
                    "evaluate_basis_derivatives_all_0": [1.4718852622922434e+00, 2.0266705413493233e+00, -2.4985557203629258e+00], 
                    "evaluate_basis_derivatives_all_1": [8.5585277568607676e-02, -2.2787085025842555e+00, -2.3642938479375970e+00, 4.4932274890774304e-01, 2.2787085020077340e+00, 1.8293856987949413e+00], 
                    "evaluate_basis_derivatives_all_2": [0.0, 0.0, 0.0, 0.0, 0.0, 0.0, 0.0, 0.0, 0.0, 0.0, 0.0, 0.0], 
                    "evaluate_dof_0": 3.0792300000000006e-01, 
                    "evaluate_dof_1": 4.3028700000000003e-01, 
                    "evaluate_dof_2": 7.7282099999999998e-01, 
                    "evaluate_dofs": [3.0792300000000006e-01, 4.3028700000000003e-01, 7.7282099999999998e-01], 
                    "interpolate_vertex_values": [3.0792300000000006e-01, 4.3028700000000003e-01, 7.7282099999999998e-01], 
                    "tabulate_dof_coordinates": [9.0300000000000002e-01, 3.4100000000000003e-01, 5.6100000000000005e-01, 7.6700000000000002e-01, 9.8699999999999999e-01, 7.8300000000000003e-01], 
                    "num_sub_elements": 0, 
                },
                "finite_element_1": {
                    "cell_shape": 1, 
                    "space_dimension": 3, 
                    "value_rank": 0, 
                    "evaluate_basis:_0": [1.4718852622922434e+00], 
                    "evaluate_basis:_1": [2.0266705413493233e+00], 
                    "evaluate_basis:_2": [-2.4985557203629258e+00], 
                    "evaluate_basis_all": [1.4718852622922434e+00, 2.0266705413493233e+00, -2.4985557203629258e+00, 0.0, 0.0, 0.0, 0.0, 0.0, 0.0, 0.0, 0.0, 0.0], 
                    "evaluate_basis_derivatives_0_0": [1.4718852622922434e+00], 
                    "evaluate_basis_derivatives_0_1": [8.5585277568607676e-02, -2.2787085025842555e+00], 
                    "evaluate_basis_derivatives_0_2": [0.0, 0.0, 0.0, 0.0], 
                    "evaluate_basis_derivatives_1_0": [2.0266705413493233e+00], 
                    "evaluate_basis_derivatives_1_1": [-2.3642938479375970e+00, 4.4932274890774304e-01], 
                    "evaluate_basis_derivatives_1_2": [0.0, 0.0, 0.0, 0.0], 
                    "evaluate_basis_derivatives_2_0": [-2.4985557203629258e+00], 
                    "evaluate_basis_derivatives_2_1": [2.2787085020077340e+00, 1.8293856987949413e+00], 
                    "evaluate_basis_derivatives_2_2": [0.0, 0.0, 0.0, 0.0], 
                    "evaluate_basis_derivatives_all_0": [1.4718852622922434e+00, 2.0266705413493233e+00, -2.4985557203629258e+00], 
                    "evaluate_basis_derivatives_all_1": [8.5585277568607676e-02, -2.2787085025842555e+00, -2.3642938479375970e+00, 4.4932274890774304e-01, 2.2787085020077340e+00, 1.8293856987949413e+00], 
                    "evaluate_basis_derivatives_all_2": [0.0, 0.0, 0.0, 0.0, 0.0, 0.0, 0.0, 0.0, 0.0, 0.0, 0.0, 0.0], 
                    "evaluate_dof_0": 3.0792300000000006e-01, 
                    "evaluate_dof_1": 4.3028700000000003e-01, 
                    "evaluate_dof_2": 7.7282099999999998e-01, 
                    "evaluate_dofs": [3.0792300000000006e-01, 4.3028700000000003e-01, 7.7282099999999998e-01], 
                    "interpolate_vertex_values": [3.0792300000000006e-01, 4.3028700000000003e-01, 7.7282099999999998e-01], 
                    "tabulate_dof_coordinates": [9.0300000000000002e-01, 3.4100000000000003e-01, 5.6100000000000005e-01, 7.6700000000000002e-01, 9.8699999999999999e-01, 7.8300000000000003e-01], 
                    "num_sub_elements": 0, 
                },
            },
            "finite_element_1": {
                "cell_shape": 1, 
                "space_dimension": 3, 
                "value_rank": 0, 
                "evaluate_basis:_0": [1.4718852622922434e+00], 
                "evaluate_basis:_1": [2.0266705413493233e+00], 
                "evaluate_basis:_2": [-2.4985557203629258e+00], 
                "evaluate_basis_all": [1.4718852622922434e+00, 2.0266705413493233e+00, -2.4985557203629258e+00, 0.0, 0.0, 0.0, 0.0, 0.0, 0.0, 0.0, 0.0, 0.0], 
                "evaluate_basis_derivatives_0_0": [1.4718852622922434e+00], 
                "evaluate_basis_derivatives_0_1": [8.5585277568607676e-02, -2.2787085025842555e+00], 
                "evaluate_basis_derivatives_0_2": [0.0, 0.0, 0.0, 0.0], 
                "evaluate_basis_derivatives_1_0": [2.0266705413493233e+00], 
                "evaluate_basis_derivatives_1_1": [-2.3642938479375970e+00, 4.4932274890774304e-01], 
                "evaluate_basis_derivatives_1_2": [0.0, 0.0, 0.0, 0.0], 
                "evaluate_basis_derivatives_2_0": [-2.4985557203629258e+00], 
                "evaluate_basis_derivatives_2_1": [2.2787085020077340e+00, 1.8293856987949413e+00], 
                "evaluate_basis_derivatives_2_2": [0.0, 0.0, 0.0, 0.0], 
                "evaluate_basis_derivatives_all_0": [1.4718852622922434e+00, 2.0266705413493233e+00, -2.4985557203629258e+00], 
                "evaluate_basis_derivatives_all_1": [8.5585277568607676e-02, -2.2787085025842555e+00, -2.3642938479375970e+00, 4.4932274890774304e-01, 2.2787085020077340e+00, 1.8293856987949413e+00], 
                "evaluate_basis_derivatives_all_2": [0.0, 0.0, 0.0, 0.0, 0.0, 0.0, 0.0, 0.0, 0.0, 0.0, 0.0, 0.0], 
                "evaluate_dof_0": 3.0792300000000006e-01, 
                "evaluate_dof_1": 4.3028700000000003e-01, 
                "evaluate_dof_2": 7.7282099999999998e-01, 
                "evaluate_dofs": [3.0792300000000006e-01, 4.3028700000000003e-01, 7.7282099999999998e-01], 
                "interpolate_vertex_values": [3.0792300000000006e-01, 4.3028700000000003e-01, 7.7282099999999998e-01], 
                "tabulate_dof_coordinates": [9.0300000000000002e-01, 3.4100000000000003e-01, 5.6100000000000005e-01, 7.6700000000000002e-01, 9.8699999999999999e-01, 7.8300000000000003e-01], 
                "num_sub_elements": 0, 
            },
        },
        "finite_element_1": {
            "cell_shape": 1, 
            "space_dimension": 6, 
            "value_rank": 1, 
            "value_dimension_0": 2, 
            "evaluate_basis:_0": [1.4718852622922434e+00, 0.0], 
            "evaluate_basis:_1": [2.0266705413493233e+00, 0.0], 
            "evaluate_basis:_2": [-2.4985557203629258e+00, 0.0], 
            "evaluate_basis:_3": [0.0, 1.4718852622922434e+00], 
            "evaluate_basis:_4": [0.0, 2.0266705413493233e+00], 
            "evaluate_basis:_5": [0.0, -2.4985557203629258e+00], 
            "evaluate_basis_all": [1.4718852622922434e+00, 0.0, 2.0266705413493233e+00, 0.0, -2.4985557203629258e+00, 0.0, 0.0, 1.4718852622922434e+00, 0.0, 2.0266705413493233e+00, 0.0, -2.4985557203629258e+00, 0.0, 0.0, 0.0, 0.0, 0.0, 0.0, 0.0, 0.0, 0.0, 0.0, 0.0, 0.0, 0.0, 0.0, 0.0, 0.0, 0.0, 0.0, 0.0, 0.0, 0.0, 0.0, 0.0, 0.0, 0.0, 0.0, 0.0, 0.0, 0.0, 0.0, 0.0, 0.0, 0.0, 0.0, 0.0, 0.0], 
            "evaluate_basis_derivatives_0_0": [1.4718852622922434e+00, 0.0], 
            "evaluate_basis_derivatives_0_1": [8.5585277568607676e-02, -2.2787085025842555e+00, 0.0, 0.0], 
            "evaluate_basis_derivatives_0_2": [0.0, 0.0, 0.0, 0.0, 0.0, 0.0, 0.0, 0.0], 
            "evaluate_basis_derivatives_1_0": [2.0266705413493233e+00, 0.0], 
            "evaluate_basis_derivatives_1_1": [-2.3642938479375970e+00, 4.4932274890774304e-01, 0.0, 0.0], 
            "evaluate_basis_derivatives_1_2": [0.0, 0.0, 0.0, 0.0, 0.0, 0.0, 0.0, 0.0], 
            "evaluate_basis_derivatives_2_0": [-2.4985557203629258e+00, 0.0], 
            "evaluate_basis_derivatives_2_1": [2.2787085020077340e+00, 1.8293856987949413e+00, 0.0, 0.0], 
            "evaluate_basis_derivatives_2_2": [0.0, 0.0, 0.0, 0.0, 0.0, 0.0, 0.0, 0.0], 
            "evaluate_basis_derivatives_3_0": [0.0, 1.4718852622922434e+00], 
            "evaluate_basis_derivatives_3_1": [0.0, 0.0, 8.5585277568607676e-02, -2.2787085025842555e+00], 
            "evaluate_basis_derivatives_3_2": [0.0, 0.0, 0.0, 0.0, 0.0, 0.0, 0.0, 0.0], 
            "evaluate_basis_derivatives_4_0": [0.0, 2.0266705413493233e+00], 
            "evaluate_basis_derivatives_4_1": [0.0, 0.0, -2.3642938479375970e+00, 4.4932274890774304e-01], 
            "evaluate_basis_derivatives_4_2": [0.0, 0.0, 0.0, 0.0, 0.0, 0.0, 0.0, 0.0], 
            "evaluate_basis_derivatives_5_0": [0.0, -2.4985557203629258e+00], 
            "evaluate_basis_derivatives_5_1": [0.0, 0.0, 2.2787085020077340e+00, 1.8293856987949413e+00], 
            "evaluate_basis_derivatives_5_2": [0.0, 0.0, 0.0, 0.0, 0.0, 0.0, 0.0, 0.0], 
            "evaluate_basis_derivatives_all_0": [1.4718852622922434e+00, 0.0, 2.0266705413493233e+00, 0.0, -2.4985557203629258e+00, 0.0, 0.0, 1.4718852622922434e+00, 0.0, 2.0266705413493233e+00, 0.0, -2.4985557203629258e+00], 
            "evaluate_basis_derivatives_all_1": [8.5585277568607676e-02, -2.2787085025842555e+00, 0.0, 0.0, -2.3642938479375970e+00, 4.4932274890774304e-01, 0.0, 0.0, 2.2787085020077340e+00, 1.8293856987949413e+00, 0.0, 0.0, 0.0, 0.0, 8.5585277568607676e-02, -2.2787085025842555e+00, 0.0, 0.0, -2.3642938479375970e+00, 4.4932274890774304e-01, 0.0, 0.0, 2.2787085020077340e+00, 1.8293856987949413e+00], 
            "evaluate_basis_derivatives_all_2": [0.0, 0.0, 0.0, 0.0, 0.0, 0.0, 0.0, 0.0, 0.0, 0.0, 0.0, 0.0, 0.0, 0.0, 0.0, 0.0, 0.0, 0.0, 0.0, 0.0, 0.0, 0.0, 0.0, 0.0, 0.0, 0.0, 0.0, 0.0, 0.0, 0.0, 0.0, 0.0, 0.0, 0.0, 0.0, 0.0, 0.0, 0.0, 0.0, 0.0, 0.0, 0.0, 0.0, 0.0, 0.0, 0.0, 0.0, 0.0], 
            "evaluate_dof_0": 3.0792300000000006e-01, 
            "evaluate_dof_1": 4.3028700000000003e-01, 
            "evaluate_dof_2": 7.7282099999999998e-01, 
            "evaluate_dof_3": 1.2316920000000002e+00, 
            "evaluate_dof_4": 1.7211480000000001e+00, 
            "evaluate_dof_5": 3.0912839999999999e+00, 
            "evaluate_dofs": [3.0792300000000006e-01, 4.3028700000000003e-01, 7.7282099999999998e-01, 1.2316920000000002e+00, 1.7211480000000001e+00, 3.0912839999999999e+00], 
            "interpolate_vertex_values": [3.0792300000000006e-01, 1.2316920000000002e+00, 4.3028700000000003e-01, 1.7211480000000001e+00, 7.7282099999999998e-01, 3.0912839999999999e+00], 
            "tabulate_dof_coordinates": [9.0300000000000002e-01, 3.4100000000000003e-01, 5.6100000000000005e-01, 7.6700000000000002e-01, 9.8699999999999999e-01, 7.8300000000000003e-01, 9.0300000000000002e-01, 3.4100000000000003e-01, 5.6100000000000005e-01, 7.6700000000000002e-01, 9.8699999999999999e-01, 7.8300000000000003e-01], 
            "num_sub_elements": 2, 
            "finite_element_0": {
                "cell_shape": 1, 
                "space_dimension": 3, 
                "value_rank": 0, 
                "evaluate_basis:_0": [1.4718852622922434e+00], 
                "evaluate_basis:_1": [2.0266705413493233e+00], 
                "evaluate_basis:_2": [-2.4985557203629258e+00], 
                "evaluate_basis_all": [1.4718852622922434e+00, 2.0266705413493233e+00, -2.4985557203629258e+00, 0.0, 0.0, 0.0, 0.0, 0.0, 0.0, 0.0, 0.0, 0.0], 
                "evaluate_basis_derivatives_0_0": [1.4718852622922434e+00], 
                "evaluate_basis_derivatives_0_1": [8.5585277568607676e-02, -2.2787085025842555e+00], 
                "evaluate_basis_derivatives_0_2": [0.0, 0.0, 0.0, 0.0], 
                "evaluate_basis_derivatives_1_0": [2.0266705413493233e+00], 
                "evaluate_basis_derivatives_1_1": [-2.3642938479375970e+00, 4.4932274890774304e-01], 
                "evaluate_basis_derivatives_1_2": [0.0, 0.0, 0.0, 0.0], 
                "evaluate_basis_derivatives_2_0": [-2.4985557203629258e+00], 
                "evaluate_basis_derivatives_2_1": [2.2787085020077340e+00, 1.8293856987949413e+00], 
                "evaluate_basis_derivatives_2_2": [0.0, 0.0, 0.0, 0.0], 
                "evaluate_basis_derivatives_all_0": [1.4718852622922434e+00, 2.0266705413493233e+00, -2.4985557203629258e+00], 
                "evaluate_basis_derivatives_all_1": [8.5585277568607676e-02, -2.2787085025842555e+00, -2.3642938479375970e+00, 4.4932274890774304e-01, 2.2787085020077340e+00, 1.8293856987949413e+00], 
                "evaluate_basis_derivatives_all_2": [0.0, 0.0, 0.0, 0.0, 0.0, 0.0, 0.0, 0.0, 0.0, 0.0, 0.0, 0.0], 
                "evaluate_dof_0": 3.0792300000000006e-01, 
                "evaluate_dof_1": 4.3028700000000003e-01, 
                "evaluate_dof_2": 7.7282099999999998e-01, 
                "evaluate_dofs": [3.0792300000000006e-01, 4.3028700000000003e-01, 7.7282099999999998e-01], 
                "interpolate_vertex_values": [3.0792300000000006e-01, 4.3028700000000003e-01, 7.7282099999999998e-01], 
                "tabulate_dof_coordinates": [9.0300000000000002e-01, 3.4100000000000003e-01, 5.6100000000000005e-01, 7.6700000000000002e-01, 9.8699999999999999e-01, 7.8300000000000003e-01], 
                "num_sub_elements": 0, 
            },
            "finite_element_1": {
                "cell_shape": 1, 
                "space_dimension": 3, 
                "value_rank": 0, 
                "evaluate_basis:_0": [1.4718852622922434e+00], 
                "evaluate_basis:_1": [2.0266705413493233e+00], 
                "evaluate_basis:_2": [-2.4985557203629258e+00], 
                "evaluate_basis_all": [1.4718852622922434e+00, 2.0266705413493233e+00, -2.4985557203629258e+00, 0.0, 0.0, 0.0, 0.0, 0.0, 0.0, 0.0, 0.0, 0.0], 
                "evaluate_basis_derivatives_0_0": [1.4718852622922434e+00], 
                "evaluate_basis_derivatives_0_1": [8.5585277568607676e-02, -2.2787085025842555e+00], 
                "evaluate_basis_derivatives_0_2": [0.0, 0.0, 0.0, 0.0], 
                "evaluate_basis_derivatives_1_0": [2.0266705413493233e+00], 
                "evaluate_basis_derivatives_1_1": [-2.3642938479375970e+00, 4.4932274890774304e-01], 
                "evaluate_basis_derivatives_1_2": [0.0, 0.0, 0.0, 0.0], 
                "evaluate_basis_derivatives_2_0": [-2.4985557203629258e+00], 
                "evaluate_basis_derivatives_2_1": [2.2787085020077340e+00, 1.8293856987949413e+00], 
                "evaluate_basis_derivatives_2_2": [0.0, 0.0, 0.0, 0.0], 
                "evaluate_basis_derivatives_all_0": [1.4718852622922434e+00, 2.0266705413493233e+00, -2.4985557203629258e+00], 
                "evaluate_basis_derivatives_all_1": [8.5585277568607676e-02, -2.2787085025842555e+00, -2.3642938479375970e+00, 4.4932274890774304e-01, 2.2787085020077340e+00, 1.8293856987949413e+00], 
                "evaluate_basis_derivatives_all_2": [0.0, 0.0, 0.0, 0.0, 0.0, 0.0, 0.0, 0.0, 0.0, 0.0, 0.0, 0.0], 
                "evaluate_dof_0": 3.0792300000000006e-01, 
                "evaluate_dof_1": 4.3028700000000003e-01, 
                "evaluate_dof_2": 7.7282099999999998e-01, 
                "evaluate_dofs": [3.0792300000000006e-01, 4.3028700000000003e-01, 7.7282099999999998e-01], 
                "interpolate_vertex_values": [3.0792300000000006e-01, 4.3028700000000003e-01, 7.7282099999999998e-01], 
                "tabulate_dof_coordinates": [9.0300000000000002e-01, 3.4100000000000003e-01, 5.6100000000000005e-01, 7.6700000000000002e-01, 9.8699999999999999e-01, 7.8300000000000003e-01], 
                "num_sub_elements": 0, 
            },
        },
        "finite_element_2": {
            "cell_shape": 1, 
            "space_dimension": 3, 
            "value_rank": 0, 
            "evaluate_basis:_0": [1.4718852622922434e+00], 
            "evaluate_basis:_1": [2.0266705413493233e+00], 
            "evaluate_basis:_2": [-2.4985557203629258e+00], 
            "evaluate_basis_all": [1.4718852622922434e+00, 2.0266705413493233e+00, -2.4985557203629258e+00, 0.0, 0.0, 0.0, 0.0, 0.0, 0.0, 0.0, 0.0, 0.0], 
            "evaluate_basis_derivatives_0_0": [1.4718852622922434e+00], 
            "evaluate_basis_derivatives_0_1": [8.5585277568607676e-02, -2.2787085025842555e+00], 
            "evaluate_basis_derivatives_0_2": [0.0, 0.0, 0.0, 0.0], 
            "evaluate_basis_derivatives_1_0": [2.0266705413493233e+00], 
            "evaluate_basis_derivatives_1_1": [-2.3642938479375970e+00, 4.4932274890774304e-01], 
            "evaluate_basis_derivatives_1_2": [0.0, 0.0, 0.0, 0.0], 
            "evaluate_basis_derivatives_2_0": [-2.4985557203629258e+00], 
            "evaluate_basis_derivatives_2_1": [2.2787085020077340e+00, 1.8293856987949413e+00], 
            "evaluate_basis_derivatives_2_2": [0.0, 0.0, 0.0, 0.0], 
            "evaluate_basis_derivatives_all_0": [1.4718852622922434e+00, 2.0266705413493233e+00, -2.4985557203629258e+00], 
            "evaluate_basis_derivatives_all_1": [8.5585277568607676e-02, -2.2787085025842555e+00, -2.3642938479375970e+00, 4.4932274890774304e-01, 2.2787085020077340e+00, 1.8293856987949413e+00], 
            "evaluate_basis_derivatives_all_2": [0.0, 0.0, 0.0, 0.0, 0.0, 0.0, 0.0, 0.0, 0.0, 0.0, 0.0, 0.0], 
            "evaluate_dof_0": 3.0792300000000006e-01, 
            "evaluate_dof_1": 4.3028700000000003e-01, 
            "evaluate_dof_2": 7.7282099999999998e-01, 
            "evaluate_dofs": [3.0792300000000006e-01, 4.3028700000000003e-01, 7.7282099999999998e-01], 
            "interpolate_vertex_values": [3.0792300000000006e-01, 4.3028700000000003e-01, 7.7282099999999998e-01], 
            "tabulate_dof_coordinates": [9.0300000000000002e-01, 3.4100000000000003e-01, 5.6100000000000005e-01, 7.6700000000000002e-01, 9.8699999999999999e-01, 7.8300000000000003e-01], 
            "num_sub_elements": 0, 
        },
        "dofmap_0": {
            "needs_mesh_entities_0": 1, 
            "needs_mesh_entities_1": 0, 
            "needs_mesh_entities_2": 0, 
            "global_dimension": 30003, 
            "num_element_dofs": 9, 
            "num_facet_dofs": 6, 
            "num_entity_dofs_0": 3, 
            "num_entity_dofs_1": 0, 
            "num_entity_dofs_2": 0, 
            "tabulate_dofs": [0, 0, 0, 10001, 10001, 10001, 20002, 20002, 20002], 
            "tabulate_facet_dofs_0": [1, 2, 4, 5, 7, 8], 
            "tabulate_facet_dofs_1": [0, 2, 3, 5, 6, 8], 
            "tabulate_facet_dofs_2": [0, 1, 3, 4, 6, 7], 
            "tabulate_entity_dofs_0_0": [0, 3, 6], 
            "tabulate_entity_dofs_0_1": [1, 4, 7], 
            "tabulate_entity_dofs_0_2": [2, 5, 8], 
            "tabulate_entity_dofs_1_0": [], 
            "tabulate_entity_dofs_1_1": [], 
            "tabulate_entity_dofs_1_2": [], 
            "tabulate_entity_dofs_2_0": [], 
            "num_sub_dofmaps": 2, 
            "dofmap_0": {
                "needs_mesh_entities_0": 1, 
                "needs_mesh_entities_1": 0, 
                "needs_mesh_entities_2": 0, 
                "global_dimension": 20002, 
                "num_element_dofs": 6, 
                "num_facet_dofs": 4, 
                "num_entity_dofs_0": 2, 
                "num_entity_dofs_1": 0, 
                "num_entity_dofs_2": 0, 
                "tabulate_dofs": [0, 0, 0, 10001, 10001, 10001], 
                "tabulate_facet_dofs_0": [1, 2, 4, 5], 
                "tabulate_facet_dofs_1": [0, 2, 3, 5], 
                "tabulate_facet_dofs_2": [0, 1, 3, 4], 
                "tabulate_entity_dofs_0_0": [0, 3], 
                "tabulate_entity_dofs_0_1": [1, 4], 
                "tabulate_entity_dofs_0_2": [2, 5], 
                "tabulate_entity_dofs_1_0": [], 
                "tabulate_entity_dofs_1_1": [], 
                "tabulate_entity_dofs_1_2": [], 
                "tabulate_entity_dofs_2_0": [], 
                "num_sub_dofmaps": 2, 
                "dofmap_0": {
                    "needs_mesh_entities_0": 1, 
                    "needs_mesh_entities_1": 0, 
                    "needs_mesh_entities_2": 0, 
                    "global_dimension": 10001, 
                    "num_element_dofs": 3, 
                    "num_facet_dofs": 2, 
                    "num_entity_dofs_0": 1, 
                    "num_entity_dofs_1": 0, 
                    "num_entity_dofs_2": 0, 
                    "tabulate_dofs": [0, 0, 0], 
                    "tabulate_facet_dofs_0": [1, 2], 
                    "tabulate_facet_dofs_1": [0, 2], 
                    "tabulate_facet_dofs_2": [0, 1], 
                    "tabulate_entity_dofs_0_0": [0], 
                    "tabulate_entity_dofs_0_1": [1], 
                    "tabulate_entity_dofs_0_2": [2], 
                    "tabulate_entity_dofs_1_0": [], 
                    "tabulate_entity_dofs_1_1": [], 
                    "tabulate_entity_dofs_1_2": [], 
                    "tabulate_entity_dofs_2_0": [], 
                    "num_sub_dofmaps": 0, 
                },
                "dofmap_1": {
                    "needs_mesh_entities_0": 1, 
                    "needs_mesh_entities_1": 0, 
                    "needs_mesh_entities_2": 0, 
                    "global_dimension": 10001, 
                    "num_element_dofs": 3, 
                    "num_facet_dofs": 2, 
                    "num_entity_dofs_0": 1, 
                    "num_entity_dofs_1": 0, 
                    "num_entity_dofs_2": 0, 
                    "tabulate_dofs": [0, 0, 0], 
                    "tabulate_facet_dofs_0": [1, 2], 
                    "tabulate_facet_dofs_1": [0, 2], 
                    "tabulate_facet_dofs_2": [0, 1], 
                    "tabulate_entity_dofs_0_0": [0], 
                    "tabulate_entity_dofs_0_1": [1], 
                    "tabulate_entity_dofs_0_2": [2], 
                    "tabulate_entity_dofs_1_0": [], 
                    "tabulate_entity_dofs_1_1": [], 
                    "tabulate_entity_dofs_1_2": [], 
                    "tabulate_entity_dofs_2_0": [], 
                    "num_sub_dofmaps": 0, 
                },
            },
            "dofmap_1": {
                "needs_mesh_entities_0": 1, 
                "needs_mesh_entities_1": 0, 
                "needs_mesh_entities_2": 0, 
                "global_dimension": 10001, 
                "num_element_dofs": 3, 
                "num_facet_dofs": 2, 
                "num_entity_dofs_0": 1, 
                "num_entity_dofs_1": 0, 
                "num_entity_dofs_2": 0, 
                "tabulate_dofs": [0, 0, 0], 
                "tabulate_facet_dofs_0": [1, 2], 
                "tabulate_facet_dofs_1": [0, 2], 
                "tabulate_facet_dofs_2": [0, 1], 
                "tabulate_entity_dofs_0_0": [0], 
                "tabulate_entity_dofs_0_1": [1], 
                "tabulate_entity_dofs_0_2": [2], 
                "tabulate_entity_dofs_1_0": [], 
                "tabulate_entity_dofs_1_1": [], 
                "tabulate_entity_dofs_1_2": [], 
                "tabulate_entity_dofs_2_0": [], 
                "num_sub_dofmaps": 0, 
            },
        },
        "dofmap_1": {
            "needs_mesh_entities_0": 1, 
            "needs_mesh_entities_1": 0, 
            "needs_mesh_entities_2": 0, 
            "global_dimension": 20002, 
            "num_element_dofs": 6, 
            "num_facet_dofs": 4, 
            "num_entity_dofs_0": 2, 
            "num_entity_dofs_1": 0, 
            "num_entity_dofs_2": 0, 
            "tabulate_dofs": [0, 0, 0, 10001, 10001, 10001], 
            "tabulate_facet_dofs_0": [1, 2, 4, 5], 
            "tabulate_facet_dofs_1": [0, 2, 3, 5], 
            "tabulate_facet_dofs_2": [0, 1, 3, 4], 
            "tabulate_entity_dofs_0_0": [0, 3], 
            "tabulate_entity_dofs_0_1": [1, 4], 
            "tabulate_entity_dofs_0_2": [2, 5], 
            "tabulate_entity_dofs_1_0": [], 
            "tabulate_entity_dofs_1_1": [], 
            "tabulate_entity_dofs_1_2": [], 
            "tabulate_entity_dofs_2_0": [], 
            "num_sub_dofmaps": 2, 
            "dofmap_0": {
                "needs_mesh_entities_0": 1, 
                "needs_mesh_entities_1": 0, 
                "needs_mesh_entities_2": 0, 
                "global_dimension": 10001, 
                "num_element_dofs": 3, 
                "num_facet_dofs": 2, 
                "num_entity_dofs_0": 1, 
                "num_entity_dofs_1": 0, 
                "num_entity_dofs_2": 0, 
                "tabulate_dofs": [0, 0, 0], 
                "tabulate_facet_dofs_0": [1, 2], 
                "tabulate_facet_dofs_1": [0, 2], 
                "tabulate_facet_dofs_2": [0, 1], 
                "tabulate_entity_dofs_0_0": [0], 
                "tabulate_entity_dofs_0_1": [1], 
                "tabulate_entity_dofs_0_2": [2], 
                "tabulate_entity_dofs_1_0": [], 
                "tabulate_entity_dofs_1_1": [], 
                "tabulate_entity_dofs_1_2": [], 
                "tabulate_entity_dofs_2_0": [], 
                "num_sub_dofmaps": 0, 
            },
            "dofmap_1": {
                "needs_mesh_entities_0": 1, 
                "needs_mesh_entities_1": 0, 
                "needs_mesh_entities_2": 0, 
                "global_dimension": 10001, 
                "num_element_dofs": 3, 
                "num_facet_dofs": 2, 
                "num_entity_dofs_0": 1, 
                "num_entity_dofs_1": 0, 
                "num_entity_dofs_2": 0, 
                "tabulate_dofs": [0, 0, 0], 
                "tabulate_facet_dofs_0": [1, 2], 
                "tabulate_facet_dofs_1": [0, 2], 
                "tabulate_facet_dofs_2": [0, 1], 
                "tabulate_entity_dofs_0_0": [0], 
                "tabulate_entity_dofs_0_1": [1], 
                "tabulate_entity_dofs_0_2": [2], 
                "tabulate_entity_dofs_1_0": [], 
                "tabulate_entity_dofs_1_1": [], 
                "tabulate_entity_dofs_1_2": [], 
                "tabulate_entity_dofs_2_0": [], 
                "num_sub_dofmaps": 0, 
            },
        },
        "dofmap_2": {
            "needs_mesh_entities_0": 1, 
            "needs_mesh_entities_1": 0, 
            "needs_mesh_entities_2": 0, 
            "global_dimension": 10001, 
            "num_element_dofs": 3, 
            "num_facet_dofs": 2, 
            "num_entity_dofs_0": 1, 
            "num_entity_dofs_1": 0, 
            "num_entity_dofs_2": 0, 
            "tabulate_dofs": [0, 0, 0], 
            "tabulate_facet_dofs_0": [1, 2], 
            "tabulate_facet_dofs_1": [0, 2], 
            "tabulate_facet_dofs_2": [0, 1], 
            "tabulate_entity_dofs_0_0": [0], 
            "tabulate_entity_dofs_0_1": [1], 
            "tabulate_entity_dofs_0_2": [2], 
            "tabulate_entity_dofs_1_0": [], 
            "tabulate_entity_dofs_1_1": [], 
            "tabulate_entity_dofs_1_2": [], 
            "tabulate_entity_dofs_2_0": [], 
            "num_sub_dofmaps": 0, 
        },
        "default_cell_integral": 1, 
        "cell_integral": {
            "tabulate_tensor": [5.4526499887323256e-03, 6.2315999750736000e-03, 7.0105499614148735e-03, 1.4800049951342722e-02, 1.5578999937683998e-02, 1.6357949924025273e-02, -3.6059999822031308e-03, -8.6879999481400305e-04, 4.4747999770171337e-03], 
        },
        "default_exterior_facet_integral": 0, 
        "default_interior_facet_integral": 0, 
        "default_vertex_integral": 0, 
    },
}
