{
    "finite_element_0": {
        "cell_shape": 0, 
        "space_dimension": 2, 
        "value_rank": 0, 
        "evaluate_basis:_0": [-7.1080477171840029e-01], 
        "evaluate_basis:_1": [1.7108047700403688e+00], 
        "evaluate_basis_all": [-7.1080477171840029e-01, 1.7108047700403688e+00, 0.0, 0.0, 0.0, 0.0, 0.0, 0.0], 
        "evaluate_basis_derivatives_0_0": [-7.1080477171840029e-01], 
        "evaluate_basis_derivatives_0_1": [1.1459589804212122e+00, -1.4274225896474753e+00], 
        "evaluate_basis_derivatives_0_2": [0.0, 0.0, 0.0, 0.0], 
        "evaluate_basis_derivatives_1_0": [1.7108047700403688e+00], 
        "evaluate_basis_derivatives_1_1": [-1.1459589804212122e+00, 1.4274225896474753e+00], 
        "evaluate_basis_derivatives_1_2": [0.0, 0.0, 0.0, 0.0], 
        "evaluate_basis_derivatives_all_0": [-7.1080477171840029e-01, 1.7108047700403688e+00], 
        "evaluate_basis_derivatives_all_1": [1.1459589804212122e+00, -1.4274225896474753e+00, -1.1459589804212122e+00, 1.4274225896474753e+00], 
        "evaluate_basis_derivatives_all_2": [0.0, 0.0, 0.0, 0.0, 0.0, 0.0, 0.0, 0.0], 
        "evaluate_dof_0": 3.0792300000000006e-01, 
        "evaluate_dof_1": 4.3028700000000003e-01, 
        "evaluate_dofs": [3.0792300000000006e-01, 4.3028700000000003e-01], 
        "interpolate_vertex_values": [3.0792300000000006e-01, 4.3028700000000003e-01], 
        "tabulate_dof_coordinates": [9.0300000000000002e-01, 3.4100000000000003e-01, 5.6100000000000005e-01, 7.6700000000000002e-01], 
        "num_sub_elements": 0, 
    },
    "finite_element_1": {
        "cell_shape": 0, 
        "space_dimension": 4, 
        "value_rank": 1, 
        "value_dimension_0": 2, 
        "evaluate_basis:_0": [-7.1080477171840029e-01, 0.0], 
        "evaluate_basis:_1": [1.7108047700403688e+00, 0.0], 
        "evaluate_basis:_2": [0.0, -7.1080477171840029e-01], 
        "evaluate_basis:_3": [0.0, 1.7108047700403688e+00], 
        "evaluate_basis_all": [-7.1080477171840029e-01, 0.0, 1.7108047700403688e+00, 0.0, 0.0, -7.1080477171840029e-01, 0.0, 1.7108047700403688e+00, 0.0, 0.0, 0.0, 0.0, 0.0, 0.0, 0.0, 0.0, 0.0, 0.0, 0.0, 0.0, 0.0, 0.0, 0.0, 0.0, 0.0, 0.0, 0.0, 0.0, 0.0, 0.0, 0.0, 0.0], 
        "evaluate_basis_derivatives_0_0": [-7.1080477171840029e-01, 0.0], 
        "evaluate_basis_derivatives_0_1": [1.1459589804212122e+00, -1.4274225896474753e+00, 0.0, 0.0], 
        "evaluate_basis_derivatives_0_2": [0.0, 0.0, 0.0, 0.0, 0.0, 0.0, 0.0, 0.0], 
        "evaluate_basis_derivatives_1_0": [1.7108047700403688e+00, 0.0], 
        "evaluate_basis_derivatives_1_1": [-1.1459589804212122e+00, 1.4274225896474753e+00, 0.0, 0.0], 
        "evaluate_basis_derivatives_1_2": [0.0, 0.0, 0.0, 0.0, 0.0, 0.0, 0.0, 0.0], 
        "evaluate_basis_derivatives_2_0": [0.0, -7.1080477171840029e-01], 
        "evaluate_basis_derivatives_2_1": [0.0, 0.0, 1.1459589804212122e+00, -1.4274225896474753e+00], 
        "evaluate_basis_derivatives_2_2": [0.0, 0.0, 0.0, 0.0, 0.0, 0.0, 0.0, 0.0], 
        "evaluate_basis_derivatives_3_0": [0.0, 1.7108047700403688e+00], 
        "evaluate_basis_derivatives_3_1": [0.0, 0.0, -1.1459589804212122e+00, 1.4274225896474753e+00], 
        "evaluate_basis_derivatives_3_2": [0.0, 0.0, 0.0, 0.0, 0.0, 0.0, 0.0, 0.0], 
        "evaluate_basis_derivatives_all_0": [-7.1080477171840029e-01, 0.0, 1.7108047700403688e+00, 0.0, 0.0, -7.1080477171840029e-01, 0.0, 1.7108047700403688e+00], 
        "evaluate_basis_derivatives_all_1": [1.1459589804212122e+00, -1.4274225896474753e+00, 0.0, 0.0, -1.1459589804212122e+00, 1.4274225896474753e+00, 0.0, 0.0, 0.0, 0.0, 1.1459589804212122e+00, -1.4274225896474753e+00, 0.0, 0.0, -1.1459589804212122e+00, 1.4274225896474753e+00], 
        "evaluate_basis_derivatives_all_2": [0.0, 0.0, 0.0, 0.0, 0.0, 0.0, 0.0, 0.0, 0.0, 0.0, 0.0, 0.0, 0.0, 0.0, 0.0, 0.0, 0.0, 0.0, 0.0, 0.0, 0.0, 0.0, 0.0, 0.0, 0.0, 0.0, 0.0, 0.0, 0.0, 0.0, 0.0, 0.0], 
        "evaluate_dof_0": 3.0792300000000006e-01, 
        "evaluate_dof_1": 4.3028700000000003e-01, 
        "evaluate_dof_2": 1.2316920000000002e+00, 
        "evaluate_dof_3": 1.7211480000000001e+00, 
        "evaluate_dofs": [3.0792300000000006e-01, 4.3028700000000003e-01, 1.2316920000000002e+00, 1.7211480000000001e+00], 
        "interpolate_vertex_values": [3.0792300000000006e-01, 1.2316920000000002e+00, 4.3028700000000003e-01, 1.7211480000000001e+00], 
        "tabulate_dof_coordinates": [9.0300000000000002e-01, 3.4100000000000003e-01, 5.6100000000000005e-01, 7.6700000000000002e-01, 9.0300000000000002e-01, 3.4100000000000003e-01, 5.6100000000000005e-01, 7.6700000000000002e-01], 
        "num_sub_elements": 2, 
        "finite_element_0": {
            "cell_shape": 0, 
            "space_dimension": 2, 
            "value_rank": 0, 
            "evaluate_basis:_0": [-7.1080477171840029e-01], 
            "evaluate_basis:_1": [1.7108047700403688e+00], 
            "evaluate_basis_all": [-7.1080477171840029e-01, 1.7108047700403688e+00, 0.0, 0.0, 0.0, 0.0, 0.0, 0.0], 
            "evaluate_basis_derivatives_0_0": [-7.1080477171840029e-01], 
            "evaluate_basis_derivatives_0_1": [1.1459589804212122e+00, -1.4274225896474753e+00], 
            "evaluate_basis_derivatives_0_2": [0.0, 0.0, 0.0, 0.0], 
            "evaluate_basis_derivatives_1_0": [1.7108047700403688e+00], 
            "evaluate_basis_derivatives_1_1": [-1.1459589804212122e+00, 1.4274225896474753e+00], 
            "evaluate_basis_derivatives_1_2": [0.0, 0.0, 0.0, 0.0], 
            "evaluate_basis_derivatives_all_0": [-7.1080477171840029e-01, 1.7108047700403688e+00], 
            "evaluate_basis_derivatives_all_1": [1.1459589804212122e+00, -1.4274225896474753e+00, -1.1459589804212122e+00, 1.4274225896474753e+00], 
            "evaluate_basis_derivatives_all_2": [0.0, 0.0, 0.0, 0.0, 0.0, 0.0, 0.0, 0.0], 
            "evaluate_dof_0": 3.0792300000000006e-01, 
            "evaluate_dof_1": 4.3028700000000003e-01, 
            "evaluate_dofs": [3.0792300000000006e-01, 4.3028700000000003e-01], 
            "interpolate_vertex_values": [3.0792300000000006e-01, 4.3028700000000003e-01], 
            "tabulate_dof_coordinates": [9.0300000000000002e-01, 3.4100000000000003e-01, 5.6100000000000005e-01, 7.6700000000000002e-01], 
            "num_sub_elements": 0, 
        },
        "finite_element_1": {
            "cell_shape": 0, 
            "space_dimension": 2, 
            "value_rank": 0, 
            "evaluate_basis:_0": [-7.1080477171840029e-01], 
            "evaluate_basis:_1": [1.7108047700403688e+00], 
            "evaluate_basis_all": [-7.1080477171840029e-01, 1.7108047700403688e+00, 0.0, 0.0, 0.0, 0.0, 0.0, 0.0], 
            "evaluate_basis_derivatives_0_0": [-7.1080477171840029e-01], 
            "evaluate_basis_derivatives_0_1": [1.1459589804212122e+00, -1.4274225896474753e+00], 
            "evaluate_basis_derivatives_0_2": [0.0, 0.0, 0.0, 0.0], 
            "evaluate_basis_derivatives_1_0": [1.7108047700403688e+00], 
            "evaluate_basis_derivatives_1_1": [-1.1459589804212122e+00, 1.4274225896474753e+00], 
            "evaluate_basis_derivatives_1_2": [0.0, 0.0, 0.0, 0.0], 
            "evaluate_basis_derivatives_all_0": [-7.1080477171840029e-01, 1.7108047700403688e+00], 
            "evaluate_basis_derivatives_all_1": [1.1459589804212122e+00, -1.4274225896474753e+00, -1.1459589804212122e+00, 1.4274225896474753e+00], 
            "evaluate_basis_derivatives_all_2": [0.0, 0.0, 0.0, 0.0, 0.0, 0.0, 0.0, 0.0], 
            "evaluate_dof_0": 3.0792300000000006e-01, 
            "evaluate_dof_1": 4.3028700000000003e-01, 
            "evaluate_dofs": [3.0792300000000006e-01, 4.3028700000000003e-01], 
            "interpolate_vertex_values": [3.0792300000000006e-01, 4.3028700000000003e-01], 
            "tabulate_dof_coordinates": [9.0300000000000002e-01, 3.4100000000000003e-01, 5.6100000000000005e-01, 7.6700000000000002e-01], 
            "num_sub_elements": 0, 
        },
    },
}
