{
    "form_0": {
        "rank": 2, 
        "num_coefficients": 0, 
        "has_cell_integrals": 1, 
        "has_exterior_facet_integrals": 0, 
        "has_interior_facet_integrals": 0, 
        "has_vertex_integrals": 0, 
        "max_cell_subdomain_id": 0, 
        "max_exterior_facet_subdomain_id": 0, 
        "max_interior_facet_subdomain_id": 0, 
        "max_vertex_subdomain_id": 0, 
        "finite_element_0": {
            "cell_shape": 3, 
            "space_dimension": 20, 
            "value_rank": 0, 
            "evaluate_basis:_0": [-1.4250896240417532e-02], 
            "evaluate_basis:_1": [-3.4874589894254761e+01], 
            "evaluate_basis:_2": [6.2079436610431582e-02], 
            "evaluate_basis:_3": [1.6508576761316395e+01], 
            "evaluate_basis:_4": [-6.3933809244446937e-01], 
            "evaluate_basis:_5": [4.5512063401604319e+00], 
            "evaluate_basis:_6": [8.5263013412601495e+01], 
            "evaluate_basis:_7": [-6.6852227846838460e+01], 
            "evaluate_basis:_8": [5.0855519421754867e+00], 
            "evaluate_basis:_9": [5.6014104756557770e-01], 
            "evaluate_basis:_10": [5.3128853442362045e+00], 
            "evaluate_basis:_11": [2.6164590857408093e+01], 
            "evaluate_basis:_12": [3.1688931081508342e-01], 
            "evaluate_basis:_13": [-2.1922771598085133e-01], 
            "evaluate_basis:_14": [-4.6547586387986470e+00], 
            "evaluate_basis:_15": [2.9236506369258414e+01], 
            "evaluate_basis:_16": [-9.6720397616729485e+00], 
            "evaluate_basis:_17": [3.7854382500424499e+00], 
            "evaluate_basis:_18": [-5.5603925518333071e+01], 
            "evaluate_basis:_19": [-3.3165222123661855e+00], 
            "evaluate_basis_all": [-1.4250896240417532e-02, -3.4874589894254761e+01, 6.2079436610431582e-02, 1.6508576761316395e+01, -6.3933809244446937e-01, 4.5512063401604319e+00, 8.5263013412601495e+01, -6.6852227846838460e+01, 5.0855519421754867e+00, 5.6014104756557770e-01, 5.3128853442362045e+00, 2.6164590857408093e+01, 3.1688931081508342e-01, -2.1922771598085133e-01, -4.6547586387986470e+00, 2.9236506369258414e+01, -9.6720397616729485e+00, 3.7854382500424499e+00, -5.5603925518333071e+01, -3.3165222123661855e+00, 0.0, 0.0, 0.0, 0.0, 0.0, 0.0, 0.0, 0.0, 0.0, 0.0, 0.0, 0.0, 0.0, 0.0, 0.0, 0.0, 0.0, 0.0, 0.0, 0.0, 0.0, 0.0, 0.0, 0.0, 0.0, 0.0, 0.0, 0.0, 0.0, 0.0, 0.0, 0.0, 0.0, 0.0, 0.0, 0.0, 0.0, 0.0, 0.0, 0.0, 0.0, 0.0, 0.0, 0.0, 0.0, 0.0, 0.0, 0.0, 0.0, 0.0, 0.0, 0.0, 0.0, 0.0, 0.0, 0.0, 0.0, 0.0, 0.0, 0.0, 0.0, 0.0, 0.0, 0.0, 0.0, 0.0, 0.0, 0.0, 0.0, 0.0, 0.0, 0.0, 0.0, 0.0, 0.0, 0.0, 0.0, 0.0, 0.0, 0.0, 0.0, 0.0, 0.0, 0.0, 0.0, 0.0, 0.0, 0.0, 0.0, 0.0, 0.0, 0.0, 0.0, 0.0, 0.0, 0.0, 0.0, 0.0, 0.0, 0.0, 0.0, 0.0, 0.0, 0.0, 0.0, 0.0, 0.0, 0.0, 0.0, 0.0, 0.0, 0.0, 0.0, 0.0, 0.0, 0.0, 0.0, 0.0, 0.0, 0.0, 0.0, 0.0, 0.0, 0.0, 0.0, 0.0, 0.0, 0.0, 0.0, 0.0, 0.0, 0.0, 0.0, 0.0, 0.0, 0.0, 0.0, 0.0, 0.0, 0.0, 0.0, 0.0, 0.0, 0.0, 0.0, 0.0, 0.0, 0.0, 0.0, 0.0, 0.0, 0.0, 0.0, 0.0, 0.0, 0.0, 0.0, 0.0, 0.0, 0.0], 
            "evaluate_basis_derivatives_0_0": [-1.4250896240417532e-02], 
            "evaluate_basis_derivatives_0_1": [7.0476493032965071e-01, -1.8384007576829962e+00, 4.2183014995650447e-01], 
            "evaluate_basis_derivatives_0_2": [5.6928391969138019e+00, -1.4849959390065354e+01, 3.4074007387129761e+00, -1.4849961432461328e+01, 3.8736605752450458e+01, -8.8883164649758619e+00, 3.4074007446538683e+00, -8.8883137525155345e+00, 2.0394737339819251e+00], 
            "evaluate_basis_derivatives_1_0": [-3.4874589894254761e+01], 
            "evaluate_basis_derivatives_1_1": [4.8750278045374500e+01, 6.1152059994179645e+01, 1.1700840014966920e+02], 
            "evaluate_basis_derivatives_1_2": [-4.4997589356986616e+01, -5.6444709555955093e+01, -1.0800135261859927e+02, -5.6444707512197361e+01, -7.0803907404416577e+01, -1.3547625194357599e+02, -1.0800135158289351e+02, -1.3547625471613935e+02, -2.5922037358073050e+02], 
            "evaluate_basis_derivatives_2_0": [6.2079436610431582e-02], 
            "evaluate_basis_derivatives_2_1": [-6.2467213047685786e-03, 2.0525923821798844e-01, -2.3823620789120728e-01], 
            "evaluate_basis_derivatives_2_2": [-9.8307519511757480e-03, 3.2299586763089699e-01, -3.7488924675017082e-01, 3.2299624517424452e-01, -1.0612843348581711e+01, 1.2317914846663301e+01, -3.7488967449875077e-01, 1.2317914503259511e+01, -1.4296925125178522e+01], 
            "evaluate_basis_derivatives_3_0": [1.6508576761316395e+01], 
            "evaluate_basis_derivatives_3_1": [-5.5026399329569095e+01, -1.1691643185112593e+01, -3.6804224930464542e+01], 
            "evaluate_basis_derivatives_3_2": [1.2034429227063013e+02, 2.5569954453425964e+01, 8.0491881274989495e+01, 2.5569954453425964e+01, 5.4329337803571347e+00, 1.7102379342126444e+01, 8.0491881274989495e+01, 1.7102379342126444e+01, 5.3836728181650372e+01], 
            "evaluate_basis_derivatives_4_0": [-6.3933809244446937e-01], 
            "evaluate_basis_derivatives_4_1": [6.7907970324816547e-01, -3.5375141488453332e+00, 4.6256018242526196e+00], 
            "evaluate_basis_derivatives_4_2": [-1.1286447345157989e-01, 4.3889791468246458e-01, -5.9992064248715593e-01, 4.3889582875744443e-01, 9.3007213346720405e+01, -1.0497598540496770e+02, -5.9991827917848917e-01, -1.0497598350766356e+02, 1.1838988543294052e+02], 
            "evaluate_basis_derivatives_5_0": [4.5512063401604319e+00], 
            "evaluate_basis_derivatives_5_1": [-1.0577189115617657e+01, 5.1787325591797824e+01, -6.8294679201189140e+01], 
            "evaluate_basis_derivatives_5_2": [1.5127078004169130e+01, -1.0296550473207648e+02, 1.3041693003534689e+02, -1.0296550173157588e+02, -4.4437760761303984e+01, -4.3307754010328317e+01, 1.3041692663584354e+02, -4.3307756739507049e+01, 1.6769067361832049e+02], 
            "evaluate_basis_derivatives_6_0": [8.5263013412601495e+01], 
            "evaluate_basis_derivatives_6_1": [-1.6149249133154979e+02, -1.2368585215485362e+02, -2.5652073455123974e+02], 
            "evaluate_basis_derivatives_6_2": [1.9513350962296880e+02, 1.6540923688706823e+02, 3.3647404747426663e+02, 1.6540923204770496e+02, 1.0793326661210716e+02, 2.3158225063528315e+02, 3.3647404666111385e+02, 2.3158225851135612e+02, 4.9106457730170638e+02], 
            "evaluate_basis_derivatives_7_0": [-6.6852227846838460e+01], 
            "evaluate_basis_derivatives_7_1": [1.6805504758090791e+02, 7.3933891597945575e+01, 1.7592257071125994e+02], 
            "evaluate_basis_derivatives_7_2": [-2.7206375261118944e+02, -1.3292271862005848e+02, -3.0678645211518585e+02, -1.3292271661321962e+02, -4.4202772048644093e+01, -1.1542531321931928e+02, -3.0678645016185561e+02, -1.1542531414655620e+02, -2.8867688072901126e+02], 
            "evaluate_basis_derivatives_8_0": [5.0855519421754867e+00], 
            "evaluate_basis_derivatives_8_1": [-6.9420032231772346e+00, 5.3573080210853185e+01, -8.1908761611905277e+01], 
            "evaluate_basis_derivatives_8_2": [6.2258006071301910e+00, -5.4847043224527468e+01, 8.0583207698361733e+01, -5.4847042888960004e+01, -1.4739593593953973e+02, -4.9302798503653705e+01, 8.0583206073381930e+01, -4.9302800760799244e+01, 3.5095960280886260e+02], 
            "evaluate_basis_derivatives_9_0": [5.6014104756557770e-01], 
            "evaluate_basis_derivatives_9_1": [-4.0494922890715646e-01, 2.8193869339220505e+00, -4.4577399164688103e+00], 
            "evaluate_basis_derivatives_9_2": [3.2707152994480800e-02, 7.5141087495899384e-01, -6.6570975141368527e-01, 7.5140922614954342e-01, -8.4689355626262838e+01, 9.1513131381661537e+01, -6.6570918968832393e-01, 9.1513134749776526e+01, -9.8343539355929380e+01], 
            "evaluate_basis_derivatives_10_0": [5.3128853442362045e+00], 
            "evaluate_basis_derivatives_10_1": [1.5524171273481976e+01, -5.3804688498295143e+01, 8.9601610793594837e+00], 
            "evaluate_basis_derivatives_10_2": [-1.9486438378380058e+00, -4.5625707951706268e+01, -2.4301172789636922e+00, -4.5625701846816497e+01, 2.5129175319423163e+02, -2.4012277294449454e+01, -2.4301185800741081e+00, -2.4012281931863846e+01, -2.2109506587348875e+00], 
            "evaluate_basis_derivatives_11_0": [2.6164590857408093e+01], 
            "evaluate_basis_derivatives_11_1": [-1.8708988266391312e+01, -9.6236530368959436e+01, -1.4812793046322216e+01], 
            "evaluate_basis_derivatives_11_2": [-7.8485057587879794e+01, 1.6462004424998460e+02, -4.7976190987022221e+01, 1.6462003924264516e+02, 7.3497944047736084e+01, 1.1106558201626171e+02, -4.7976189540849134e+01, 1.1106558567267734e+02, -2.9066678974320183e+01], 
            "evaluate_basis_derivatives_12_0": [3.1688931081508342e-01], 
            "evaluate_basis_derivatives_12_1": [1.0935837050353927e+00, 5.8871718046890265e-01, -3.6160528501113860e+00], 
            "evaluate_basis_derivatives_12_2": [1.1611650371122666e+00, 1.0082681960104345e+01, -1.5576045662593096e+01, 1.0082681425208802e+01, -6.0503104847612299e+01, 4.8478471218752667e+01, -1.5576045300662315e+01, 4.8478469432149119e+01, -1.9061808310511637e+01], 
            "evaluate_basis_derivatives_13_0": [-2.1922771598085133e-01], 
            "evaluate_basis_derivatives_13_1": [-2.3585331478931432e-01, -5.3955412783980117e-01, 1.2918802214283009e+00], 
            "evaluate_basis_derivatives_13_2": [1.2453914491481030e-01, -2.6486185898455799e+00, 2.9582329440377908e+00, -2.6486157982100065e+00, 3.9598637140121021e+01, -4.2151957372481370e+01, 2.9582310875147471e+00, -4.2151961780081812e+01, 4.4503600004776985e+01], 
            "evaluate_basis_derivatives_14_0": [-4.6547586387986470e+00], 
            "evaluate_basis_derivatives_14_1": [-1.5180114516115967e+01, 4.9465841188831611e+01, -4.4836180337294387e+00], 
            "evaluate_basis_derivatives_14_2": [-1.0324593972055538e+01, 6.4529223198653980e+01, 1.1355122345655545e+01, 6.4529223831680198e+01, -2.6640009933337467e+02, -7.1167488615253127e+00, 1.1355123235428309e+01, -7.1167507320364329e+00, 1.7291822927581059e+01], 
            "evaluate_basis_derivatives_15_0": [2.9236506369258414e+01], 
            "evaluate_basis_derivatives_15_1": [7.1321399993942123e+00, -1.3222394922305494e+02, -4.8721738327588945e+01], 
            "evaluate_basis_derivatives_15_2": [-5.8858133553097630e+01, 6.8190443857488461e+01, -7.5031826219118386e+01, 6.8190442056495968e+01, 2.6368891426880356e+02, 2.4675521167414058e+02, -7.5031826828799623e+01, 2.4675521466586841e+02, -2.1108910537684540e+01], 
            "evaluate_basis_derivatives_16_0": [-9.6720397616729485e+00], 
            "evaluate_basis_derivatives_16_1": [1.7369411045406238e+01, -1.0561124399682291e+02, 1.5090993698037781e+02], 
            "evaluate_basis_derivatives_16_2": [-1.9405744382053630e+01, 1.5397376228003174e+02, -2.1137397978563413e+02, 1.5397376520814990e+02, 1.9763092945562755e+02, 9.5545241771822830e+01, -2.1137397947184479e+02, 9.5545234790250603e+01, -5.2130573537108990e+02], 
            "evaluate_basis_derivatives_17_0": [3.7854382500424499e+00], 
            "evaluate_basis_derivatives_17_1": [1.1134214462163783e-02, 3.1597207325204288e+01, -5.1244707988397657e+01], 
            "evaluate_basis_derivatives_17_2": [-9.3875231542213484e+00, 3.0918429155796716e+01, -2.4294560238485477e+01, 3.0918424334510554e+01, -3.0339295551311960e+02, 1.9245409845179816e+02, -2.4294558407355797e+01, 1.9245410715534766e+02, -1.9349476393568377e+01], 
            "evaluate_basis_derivatives_18_0": [-5.5603925518333071e+01], 
            "evaluate_basis_derivatives_18_1": [1.0389410078795592e+01, 2.3007237530131158e+02, 6.4667359028648093e+01], 
            "evaluate_basis_derivatives_18_2": [1.4553184849613524e+02, -2.3928812590482164e+02, 1.0944031072779711e+02, -2.3928812319125524e+02, -3.3248383194223385e+02, -3.4656549736699583e+02, 1.0944030833383260e+02, -3.4656550422493581e+02, 7.2007286990070099e+01], 
            "evaluate_basis_derivatives_19_0": [-3.3165222123661855e+00], 
            "evaluate_basis_derivatives_19_1": [-1.1347819029332360e+00, -2.6025766889619600e+01, 4.7295550841800662e+01], 
            "evaluate_basis_derivatives_19_2": [6.2199469024722296e+00, -3.5214694054333222e+01, 3.7983904466323516e+01, -3.5214694208770055e+01, 2.9410436873259118e+02, -1.6959138300690350e+02, 3.7983906130180685e+01, -1.6959137864137884e+02, -4.5142381304656219e+01], 
            "evaluate_basis_derivatives_all_0": [-1.4250896240417532e-02, -3.4874589894254761e+01, 6.2079436610431582e-02, 1.6508576761316395e+01, -6.3933809244446937e-01, 4.5512063401604319e+00, 8.5263013412601495e+01, -6.6852227846838460e+01, 5.0855519421754867e+00, 5.6014104756557770e-01, 5.3128853442362045e+00, 2.6164590857408093e+01, 3.1688931081508342e-01, -2.1922771598085133e-01, -4.6547586387986470e+00, 2.9236506369258414e+01, -9.6720397616729485e+00, 3.7854382500424499e+00, -5.5603925518333071e+01, -3.3165222123661855e+00], 
            "evaluate_basis_derivatives_all_1": [7.0476493032965071e-01, -1.8384007576829962e+00, 4.2183014995650447e-01, 4.8750278045374500e+01, 6.1152059994179645e+01, 1.1700840014966920e+02, -6.2467213047685786e-03, 2.0525923821798844e-01, -2.3823620789120728e-01, -5.5026399329569095e+01, -1.1691643185112593e+01, -3.6804224930464542e+01, 6.7907970324816547e-01, -3.5375141488453332e+00, 4.6256018242526196e+00, -1.0577189115617657e+01, 5.1787325591797824e+01, -6.8294679201189140e+01, -1.6149249133154979e+02, -1.2368585215485362e+02, -2.5652073455123974e+02, 1.6805504758090791e+02, 7.3933891597945575e+01, 1.7592257071125994e+02, -6.9420032231772346e+00, 5.3573080210853185e+01, -8.1908761611905277e+01, -4.0494922890715646e-01, 2.8193869339220505e+00, -4.4577399164688103e+00, 1.5524171273481976e+01, -5.3804688498295143e+01, 8.9601610793594837e+00, -1.8708988266391312e+01, -9.6236530368959436e+01, -1.4812793046322216e+01, 1.0935837050353927e+00, 5.8871718046890265e-01, -3.6160528501113860e+00, -2.3585331478931432e-01, -5.3955412783980117e-01, 1.2918802214283009e+00, -1.5180114516115967e+01, 4.9465841188831611e+01, -4.4836180337294387e+00, 7.1321399993942123e+00, -1.3222394922305494e+02, -4.8721738327588945e+01, 1.7369411045406238e+01, -1.0561124399682291e+02, 1.5090993698037781e+02, 1.1134214462163783e-02, 3.1597207325204288e+01, -5.1244707988397657e+01, 1.0389410078795592e+01, 2.3007237530131158e+02, 6.4667359028648093e+01, -1.1347819029332360e+00, -2.6025766889619600e+01, 4.7295550841800662e+01], 
            "evaluate_basis_derivatives_all_2": [5.6928391969138019e+00, -1.4849959390065354e+01, 3.4074007387129761e+00, -1.4849961432461328e+01, 3.8736605752450458e+01, -8.8883164649758619e+00, 3.4074007446538683e+00, -8.8883137525155345e+00, 2.0394737339819251e+00, -4.4997589356986616e+01, -5.6444709555955093e+01, -1.0800135261859927e+02, -5.6444707512197361e+01, -7.0803907404416577e+01, -1.3547625194357599e+02, -1.0800135158289351e+02, -1.3547625471613935e+02, -2.5922037358073050e+02, -9.8307519511757480e-03, 3.2299586763089699e-01, -3.7488924675017082e-01, 3.2299624517424452e-01, -1.0612843348581711e+01, 1.2317914846663301e+01, -3.7488967449875077e-01, 1.2317914503259511e+01, -1.4296925125178522e+01, 1.2034429227063013e+02, 2.5569954453425964e+01, 8.0491881274989495e+01, 2.5569954453425964e+01, 5.4329337803571347e+00, 1.7102379342126444e+01, 8.0491881274989495e+01, 1.7102379342126444e+01, 5.3836728181650372e+01, -1.1286447345157989e-01, 4.3889791468246458e-01, -5.9992064248715593e-01, 4.3889582875744443e-01, 9.3007213346720405e+01, -1.0497598540496770e+02, -5.9991827917848917e-01, -1.0497598350766356e+02, 1.1838988543294052e+02, 1.5127078004169130e+01, -1.0296550473207648e+02, 1.3041693003534689e+02, -1.0296550173157588e+02, -4.4437760761303984e+01, -4.3307754010328317e+01, 1.3041692663584354e+02, -4.3307756739507049e+01, 1.6769067361832049e+02, 1.9513350962296880e+02, 1.6540923688706823e+02, 3.3647404747426663e+02, 1.6540923204770496e+02, 1.0793326661210716e+02, 2.3158225063528315e+02, 3.3647404666111385e+02, 2.3158225851135612e+02, 4.9106457730170638e+02, -2.7206375261118944e+02, -1.3292271862005848e+02, -3.0678645211518585e+02, -1.3292271661321962e+02, -4.4202772048644093e+01, -1.1542531321931928e+02, -3.0678645016185561e+02, -1.1542531414655620e+02, -2.8867688072901126e+02, 6.2258006071301910e+00, -5.4847043224527468e+01, 8.0583207698361733e+01, -5.4847042888960004e+01, -1.4739593593953973e+02, -4.9302798503653705e+01, 8.0583206073381930e+01, -4.9302800760799244e+01, 3.5095960280886260e+02, 3.2707152994480800e-02, 7.5141087495899384e-01, -6.6570975141368527e-01, 7.5140922614954342e-01, -8.4689355626262838e+01, 9.1513131381661537e+01, -6.6570918968832393e-01, 9.1513134749776526e+01, -9.8343539355929380e+01, -1.9486438378380058e+00, -4.5625707951706268e+01, -2.4301172789636922e+00, -4.5625701846816497e+01, 2.5129175319423163e+02, -2.4012277294449454e+01, -2.4301185800741081e+00, -2.4012281931863846e+01, -2.2109506587348875e+00, -7.8485057587879794e+01, 1.6462004424998460e+02, -4.7976190987022221e+01, 1.6462003924264516e+02, 7.3497944047736084e+01, 1.1106558201626171e+02, -4.7976189540849134e+01, 1.1106558567267734e+02, -2.9066678974320183e+01, 1.1611650371122666e+00, 1.0082681960104345e+01, -1.5576045662593096e+01, 1.0082681425208802e+01, -6.0503104847612299e+01, 4.8478471218752667e+01, -1.5576045300662315e+01, 4.8478469432149119e+01, -1.9061808310511637e+01, 1.2453914491481030e-01, -2.6486185898455799e+00, 2.9582329440377908e+00, -2.6486157982100065e+00, 3.9598637140121021e+01, -4.2151957372481370e+01, 2.9582310875147471e+00, -4.2151961780081812e+01, 4.4503600004776985e+01, -1.0324593972055538e+01, 6.4529223198653980e+01, 1.1355122345655545e+01, 6.4529223831680198e+01, -2.6640009933337467e+02, -7.1167488615253127e+00, 1.1355123235428309e+01, -7.1167507320364329e+00, 1.7291822927581059e+01, -5.8858133553097630e+01, 6.8190443857488461e+01, -7.5031826219118386e+01, 6.8190442056495968e+01, 2.6368891426880356e+02, 2.4675521167414058e+02, -7.5031826828799623e+01, 2.4675521466586841e+02, -2.1108910537684540e+01, -1.9405744382053630e+01, 1.5397376228003174e+02, -2.1137397978563413e+02, 1.5397376520814990e+02, 1.9763092945562755e+02, 9.5545241771822830e+01, -2.1137397947184479e+02, 9.5545234790250603e+01, -5.2130573537108990e+02, -9.3875231542213484e+00, 3.0918429155796716e+01, -2.4294560238485477e+01, 3.0918424334510554e+01, -3.0339295551311960e+02, 1.9245409845179816e+02, -2.4294558407355797e+01, 1.9245410715534766e+02, -1.9349476393568377e+01, 1.4553184849613524e+02, -2.3928812590482164e+02, 1.0944031072779711e+02, -2.3928812319125524e+02, -3.3248383194223385e+02, -3.4656549736699583e+02, 1.0944030833383260e+02, -3.4656550422493581e+02, 7.2007286990070099e+01, 6.2199469024722296e+00, -3.5214694054333222e+01, 3.7983904466323516e+01, -3.5214694208770055e+01, 2.9410436873259118e+02, -1.6959138300690350e+02, 3.7983906130180685e+01, -1.6959137864137884e+02, -4.5142381304656219e+01], 
            "evaluate_dof_0": 1.4072081100000003e-01, 
            "evaluate_dof_1": 3.5842907099999999e-01, 
            "evaluate_dof_2": 1.4760881100000001e-01, 
            "evaluate_dof_3": 4.6025001000000010e-02, 
            "evaluate_dof_4": 1.7329165310852221e-01, 
            "evaluate_dof_5": 1.3266737432985171e-01, 
            "evaluate_dof_6": 2.2537428173040827e-01, 
            "evaluate_dof_7": 1.2234905988657878e-01, 
            "evaluate_dof_8": 3.3608625679317317e-01, 
            "evaluate_dof_9": 2.6613697405923348e-01, 
            "evaluate_dof_10": 1.4040140779939675e-01, 
            "evaluate_dof_11": 1.1150547054146465e-01, 
            "evaluate_dof_12": 1.6745845262529402e-01, 
            "evaluate_dof_13": 1.7048601179329848e-01, 
            "evaluate_dof_14": 2.2191966219058074e-01, 
            "evaluate_dof_15": 2.9854687570283606e-01, 
            "evaluate_dof_16": 2.2092482192781074e-01, 
            "evaluate_dof_17": 1.6519833115516111e-01, 
            "evaluate_dof_18": 1.9198191168498699e-01, 
            "evaluate_dof_19": 2.5422960426200059e-01, 
            "evaluate_dofs": [1.4072081100000003e-01, 3.5842907099999999e-01, 1.4760881100000001e-01, 4.6025001000000010e-02, 1.7329165310852221e-01, 1.3266737432985171e-01, 2.2537428173040827e-01, 1.2234905988657878e-01, 3.3608625679317317e-01, 2.6613697405923348e-01, 1.4040140779939675e-01, 1.1150547054146465e-01, 1.6745845262529402e-01, 1.7048601179329848e-01, 2.2191966219058074e-01, 2.9854687570283606e-01, 2.2092482192781074e-01, 1.6519833115516111e-01, 1.9198191168498699e-01, 2.5422960426200059e-01], 
            "interpolate_vertex_values": [1.4072081100000003e-01, 3.5842907099999999e-01, 1.4760881100000001e-01, 4.6025001000000010e-02], 
            "tabulate_dof_coordinates": [9.0300000000000002e-01, 3.4100000000000003e-01, 4.5700000000000002e-01, 5.6100000000000005e-01, 7.6700000000000002e-01, 8.3299999999999996e-01, 9.8699999999999999e-01, 7.8300000000000003e-01, 1.9100000000000000e-01, 1.2300000000000000e-01, 5.6100000000000005e-01, 6.6700000000000004e-01, 6.9900000287999997e-01, 7.0900000074000002e-01, 3.4966666507999999e-01, 4.1099999711999996e-01, 6.3499999926000006e-01, 5.0833333492000010e-01, 4.1500000146000005e-01, 6.9833333402000008e-01, 7.7766666722000000e-01, 2.6899999854000001e-01, 6.2966666598000010e-01, 7.2233333278000011e-01, 7.0299999857999995e-01, 7.7233333328000009e-01, 6.1900000214000006e-01, 8.4500000141999998e-01, 7.7766666672000007e-01, 4.0499999786000002e-01, 6.4300000260000001e-01, 4.1433333260000005e-01, 5.2699999930000008e-01, 3.8299999740000001e-01, 4.8766666740000003e-01, 5.9700000070000003e-01, 9.3099999972000003e-01, 4.8833333186000005e-01, 3.6833333422000003e-01, 9.5900000027999999e-01, 6.3566666814000006e-01, 2.7966666577999999e-01, 7.8900000114000002e-01, 4.8299999857999998e-01, 5.8233333208000004e-01, 6.7499999886000006e-01, 6.2500000142000012e-01, 7.0766666791999999e-01, 5.5699999443000003e-01, 7.0366665962999997e-01, 5.6366666102999996e-01, 6.7099999329000004e-01, 5.6166666105000007e-01, 4.3833332894999999e-01, 5.2899999471000003e-01, 5.5633332777000000e-01, 6.5233332681000000e-01, 8.1699999182999994e-01, 6.3033332703000000e-01, 4.9366666173000001e-01], 
            "num_sub_elements": 0, 
        },
        "finite_element_1": {
            "cell_shape": 3, 
            "space_dimension": 20, 
            "value_rank": 0, 
            "evaluate_basis:_0": [-1.4250896240417532e-02], 
            "evaluate_basis:_1": [-3.4874589894254761e+01], 
            "evaluate_basis:_2": [6.2079436610431582e-02], 
            "evaluate_basis:_3": [1.6508576761316395e+01], 
            "evaluate_basis:_4": [-6.3933809244446937e-01], 
            "evaluate_basis:_5": [4.5512063401604319e+00], 
            "evaluate_basis:_6": [8.5263013412601495e+01], 
            "evaluate_basis:_7": [-6.6852227846838460e+01], 
            "evaluate_basis:_8": [5.0855519421754867e+00], 
            "evaluate_basis:_9": [5.6014104756557770e-01], 
            "evaluate_basis:_10": [5.3128853442362045e+00], 
            "evaluate_basis:_11": [2.6164590857408093e+01], 
            "evaluate_basis:_12": [3.1688931081508342e-01], 
            "evaluate_basis:_13": [-2.1922771598085133e-01], 
            "evaluate_basis:_14": [-4.6547586387986470e+00], 
            "evaluate_basis:_15": [2.9236506369258414e+01], 
            "evaluate_basis:_16": [-9.6720397616729485e+00], 
            "evaluate_basis:_17": [3.7854382500424499e+00], 
            "evaluate_basis:_18": [-5.5603925518333071e+01], 
            "evaluate_basis:_19": [-3.3165222123661855e+00], 
            "evaluate_basis_all": [-1.4250896240417532e-02, -3.4874589894254761e+01, 6.2079436610431582e-02, 1.6508576761316395e+01, -6.3933809244446937e-01, 4.5512063401604319e+00, 8.5263013412601495e+01, -6.6852227846838460e+01, 5.0855519421754867e+00, 5.6014104756557770e-01, 5.3128853442362045e+00, 2.6164590857408093e+01, 3.1688931081508342e-01, -2.1922771598085133e-01, -4.6547586387986470e+00, 2.9236506369258414e+01, -9.6720397616729485e+00, 3.7854382500424499e+00, -5.5603925518333071e+01, -3.3165222123661855e+00, 0.0, 0.0, 0.0, 0.0, 0.0, 0.0, 0.0, 0.0, 0.0, 0.0, 0.0, 0.0, 0.0, 0.0, 0.0, 0.0, 0.0, 0.0, 0.0, 0.0, 0.0, 0.0, 0.0, 0.0, 0.0, 0.0, 0.0, 0.0, 0.0, 0.0, 0.0, 0.0, 0.0, 0.0, 0.0, 0.0, 0.0, 0.0, 0.0, 0.0, 0.0, 0.0, 0.0, 0.0, 0.0, 0.0, 0.0, 0.0, 0.0, 0.0, 0.0, 0.0, 0.0, 0.0, 0.0, 0.0, 0.0, 0.0, 0.0, 0.0, 0.0, 0.0, 0.0, 0.0, 0.0, 0.0, 0.0, 0.0, 0.0, 0.0, 0.0, 0.0, 0.0, 0.0, 0.0, 0.0, 0.0, 0.0, 0.0, 0.0, 0.0, 0.0, 0.0, 0.0, 0.0, 0.0, 0.0, 0.0, 0.0, 0.0, 0.0, 0.0, 0.0, 0.0, 0.0, 0.0, 0.0, 0.0, 0.0, 0.0, 0.0, 0.0, 0.0, 0.0, 0.0, 0.0, 0.0, 0.0, 0.0, 0.0, 0.0, 0.0, 0.0, 0.0, 0.0, 0.0, 0.0, 0.0, 0.0, 0.0, 0.0, 0.0, 0.0, 0.0, 0.0, 0.0, 0.0, 0.0, 0.0, 0.0, 0.0, 0.0, 0.0, 0.0, 0.0, 0.0, 0.0, 0.0, 0.0, 0.0, 0.0, 0.0, 0.0, 0.0, 0.0, 0.0, 0.0, 0.0, 0.0, 0.0, 0.0, 0.0, 0.0, 0.0, 0.0, 0.0, 0.0, 0.0, 0.0, 0.0], 
            "evaluate_basis_derivatives_0_0": [-1.4250896240417532e-02], 
            "evaluate_basis_derivatives_0_1": [7.0476493032965071e-01, -1.8384007576829962e+00, 4.2183014995650447e-01], 
            "evaluate_basis_derivatives_0_2": [5.6928391969138019e+00, -1.4849959390065354e+01, 3.4074007387129761e+00, -1.4849961432461328e+01, 3.8736605752450458e+01, -8.8883164649758619e+00, 3.4074007446538683e+00, -8.8883137525155345e+00, 2.0394737339819251e+00], 
            "evaluate_basis_derivatives_1_0": [-3.4874589894254761e+01], 
            "evaluate_basis_derivatives_1_1": [4.8750278045374500e+01, 6.1152059994179645e+01, 1.1700840014966920e+02], 
            "evaluate_basis_derivatives_1_2": [-4.4997589356986616e+01, -5.6444709555955093e+01, -1.0800135261859927e+02, -5.6444707512197361e+01, -7.0803907404416577e+01, -1.3547625194357599e+02, -1.0800135158289351e+02, -1.3547625471613935e+02, -2.5922037358073050e+02], 
            "evaluate_basis_derivatives_2_0": [6.2079436610431582e-02], 
            "evaluate_basis_derivatives_2_1": [-6.2467213047685786e-03, 2.0525923821798844e-01, -2.3823620789120728e-01], 
            "evaluate_basis_derivatives_2_2": [-9.8307519511757480e-03, 3.2299586763089699e-01, -3.7488924675017082e-01, 3.2299624517424452e-01, -1.0612843348581711e+01, 1.2317914846663301e+01, -3.7488967449875077e-01, 1.2317914503259511e+01, -1.4296925125178522e+01], 
            "evaluate_basis_derivatives_3_0": [1.6508576761316395e+01], 
            "evaluate_basis_derivatives_3_1": [-5.5026399329569095e+01, -1.1691643185112593e+01, -3.6804224930464542e+01], 
            "evaluate_basis_derivatives_3_2": [1.2034429227063013e+02, 2.5569954453425964e+01, 8.0491881274989495e+01, 2.5569954453425964e+01, 5.4329337803571347e+00, 1.7102379342126444e+01, 8.0491881274989495e+01, 1.7102379342126444e+01, 5.3836728181650372e+01], 
            "evaluate_basis_derivatives_4_0": [-6.3933809244446937e-01], 
            "evaluate_basis_derivatives_4_1": [6.7907970324816547e-01, -3.5375141488453332e+00, 4.6256018242526196e+00], 
            "evaluate_basis_derivatives_4_2": [-1.1286447345157989e-01, 4.3889791468246458e-01, -5.9992064248715593e-01, 4.3889582875744443e-01, 9.3007213346720405e+01, -1.0497598540496770e+02, -5.9991827917848917e-01, -1.0497598350766356e+02, 1.1838988543294052e+02], 
            "evaluate_basis_derivatives_5_0": [4.5512063401604319e+00], 
            "evaluate_basis_derivatives_5_1": [-1.0577189115617657e+01, 5.1787325591797824e+01, -6.8294679201189140e+01], 
            "evaluate_basis_derivatives_5_2": [1.5127078004169130e+01, -1.0296550473207648e+02, 1.3041693003534689e+02, -1.0296550173157588e+02, -4.4437760761303984e+01, -4.3307754010328317e+01, 1.3041692663584354e+02, -4.3307756739507049e+01, 1.6769067361832049e+02], 
            "evaluate_basis_derivatives_6_0": [8.5263013412601495e+01], 
            "evaluate_basis_derivatives_6_1": [-1.6149249133154979e+02, -1.2368585215485362e+02, -2.5652073455123974e+02], 
            "evaluate_basis_derivatives_6_2": [1.9513350962296880e+02, 1.6540923688706823e+02, 3.3647404747426663e+02, 1.6540923204770496e+02, 1.0793326661210716e+02, 2.3158225063528315e+02, 3.3647404666111385e+02, 2.3158225851135612e+02, 4.9106457730170638e+02], 
            "evaluate_basis_derivatives_7_0": [-6.6852227846838460e+01], 
            "evaluate_basis_derivatives_7_1": [1.6805504758090791e+02, 7.3933891597945575e+01, 1.7592257071125994e+02], 
            "evaluate_basis_derivatives_7_2": [-2.7206375261118944e+02, -1.3292271862005848e+02, -3.0678645211518585e+02, -1.3292271661321962e+02, -4.4202772048644093e+01, -1.1542531321931928e+02, -3.0678645016185561e+02, -1.1542531414655620e+02, -2.8867688072901126e+02], 
            "evaluate_basis_derivatives_8_0": [5.0855519421754867e+00], 
            "evaluate_basis_derivatives_8_1": [-6.9420032231772346e+00, 5.3573080210853185e+01, -8.1908761611905277e+01], 
            "evaluate_basis_derivatives_8_2": [6.2258006071301910e+00, -5.4847043224527468e+01, 8.0583207698361733e+01, -5.4847042888960004e+01, -1.4739593593953973e+02, -4.9302798503653705e+01, 8.0583206073381930e+01, -4.9302800760799244e+01, 3.5095960280886260e+02], 
            "evaluate_basis_derivatives_9_0": [5.6014104756557770e-01], 
            "evaluate_basis_derivatives_9_1": [-4.0494922890715646e-01, 2.8193869339220505e+00, -4.4577399164688103e+00], 
            "evaluate_basis_derivatives_9_2": [3.2707152994480800e-02, 7.5141087495899384e-01, -6.6570975141368527e-01, 7.5140922614954342e-01, -8.4689355626262838e+01, 9.1513131381661537e+01, -6.6570918968832393e-01, 9.1513134749776526e+01, -9.8343539355929380e+01], 
            "evaluate_basis_derivatives_10_0": [5.3128853442362045e+00], 
            "evaluate_basis_derivatives_10_1": [1.5524171273481976e+01, -5.3804688498295143e+01, 8.9601610793594837e+00], 
            "evaluate_basis_derivatives_10_2": [-1.9486438378380058e+00, -4.5625707951706268e+01, -2.4301172789636922e+00, -4.5625701846816497e+01, 2.5129175319423163e+02, -2.4012277294449454e+01, -2.4301185800741081e+00, -2.4012281931863846e+01, -2.2109506587348875e+00], 
            "evaluate_basis_derivatives_11_0": [2.6164590857408093e+01], 
            "evaluate_basis_derivatives_11_1": [-1.8708988266391312e+01, -9.6236530368959436e+01, -1.4812793046322216e+01], 
            "evaluate_basis_derivatives_11_2": [-7.8485057587879794e+01, 1.6462004424998460e+02, -4.7976190987022221e+01, 1.6462003924264516e+02, 7.3497944047736084e+01, 1.1106558201626171e+02, -4.7976189540849134e+01, 1.1106558567267734e+02, -2.9066678974320183e+01], 
            "evaluate_basis_derivatives_12_0": [3.1688931081508342e-01], 
            "evaluate_basis_derivatives_12_1": [1.0935837050353927e+00, 5.8871718046890265e-01, -3.6160528501113860e+00], 
            "evaluate_basis_derivatives_12_2": [1.1611650371122666e+00, 1.0082681960104345e+01, -1.5576045662593096e+01, 1.0082681425208802e+01, -6.0503104847612299e+01, 4.8478471218752667e+01, -1.5576045300662315e+01, 4.8478469432149119e+01, -1.9061808310511637e+01], 
            "evaluate_basis_derivatives_13_0": [-2.1922771598085133e-01], 
            "evaluate_basis_derivatives_13_1": [-2.3585331478931432e-01, -5.3955412783980117e-01, 1.2918802214283009e+00], 
            "evaluate_basis_derivatives_13_2": [1.2453914491481030e-01, -2.6486185898455799e+00, 2.9582329440377908e+00, -2.6486157982100065e+00, 3.9598637140121021e+01, -4.2151957372481370e+01, 2.9582310875147471e+00, -4.2151961780081812e+01, 4.4503600004776985e+01], 
            "evaluate_basis_derivatives_14_0": [-4.6547586387986470e+00], 
            "evaluate_basis_derivatives_14_1": [-1.5180114516115967e+01, 4.9465841188831611e+01, -4.4836180337294387e+00], 
            "evaluate_basis_derivatives_14_2": [-1.0324593972055538e+01, 6.4529223198653980e+01, 1.1355122345655545e+01, 6.4529223831680198e+01, -2.6640009933337467e+02, -7.1167488615253127e+00, 1.1355123235428309e+01, -7.1167507320364329e+00, 1.7291822927581059e+01], 
            "evaluate_basis_derivatives_15_0": [2.9236506369258414e+01], 
            "evaluate_basis_derivatives_15_1": [7.1321399993942123e+00, -1.3222394922305494e+02, -4.8721738327588945e+01], 
            "evaluate_basis_derivatives_15_2": [-5.8858133553097630e+01, 6.8190443857488461e+01, -7.5031826219118386e+01, 6.8190442056495968e+01, 2.6368891426880356e+02, 2.4675521167414058e+02, -7.5031826828799623e+01, 2.4675521466586841e+02, -2.1108910537684540e+01], 
            "evaluate_basis_derivatives_16_0": [-9.6720397616729485e+00], 
            "evaluate_basis_derivatives_16_1": [1.7369411045406238e+01, -1.0561124399682291e+02, 1.5090993698037781e+02], 
            "evaluate_basis_derivatives_16_2": [-1.9405744382053630e+01, 1.5397376228003174e+02, -2.1137397978563413e+02, 1.5397376520814990e+02, 1.9763092945562755e+02, 9.5545241771822830e+01, -2.1137397947184479e+02, 9.5545234790250603e+01, -5.2130573537108990e+02], 
            "evaluate_basis_derivatives_17_0": [3.7854382500424499e+00], 
            "evaluate_basis_derivatives_17_1": [1.1134214462163783e-02, 3.1597207325204288e+01, -5.1244707988397657e+01], 
            "evaluate_basis_derivatives_17_2": [-9.3875231542213484e+00, 3.0918429155796716e+01, -2.4294560238485477e+01, 3.0918424334510554e+01, -3.0339295551311960e+02, 1.9245409845179816e+02, -2.4294558407355797e+01, 1.9245410715534766e+02, -1.9349476393568377e+01], 
            "evaluate_basis_derivatives_18_0": [-5.5603925518333071e+01], 
            "evaluate_basis_derivatives_18_1": [1.0389410078795592e+01, 2.3007237530131158e+02, 6.4667359028648093e+01], 
            "evaluate_basis_derivatives_18_2": [1.4553184849613524e+02, -2.3928812590482164e+02, 1.0944031072779711e+02, -2.3928812319125524e+02, -3.3248383194223385e+02, -3.4656549736699583e+02, 1.0944030833383260e+02, -3.4656550422493581e+02, 7.2007286990070099e+01], 
            "evaluate_basis_derivatives_19_0": [-3.3165222123661855e+00], 
            "evaluate_basis_derivatives_19_1": [-1.1347819029332360e+00, -2.6025766889619600e+01, 4.7295550841800662e+01], 
            "evaluate_basis_derivatives_19_2": [6.2199469024722296e+00, -3.5214694054333222e+01, 3.7983904466323516e+01, -3.5214694208770055e+01, 2.9410436873259118e+02, -1.6959138300690350e+02, 3.7983906130180685e+01, -1.6959137864137884e+02, -4.5142381304656219e+01], 
            "evaluate_basis_derivatives_all_0": [-1.4250896240417532e-02, -3.4874589894254761e+01, 6.2079436610431582e-02, 1.6508576761316395e+01, -6.3933809244446937e-01, 4.5512063401604319e+00, 8.5263013412601495e+01, -6.6852227846838460e+01, 5.0855519421754867e+00, 5.6014104756557770e-01, 5.3128853442362045e+00, 2.6164590857408093e+01, 3.1688931081508342e-01, -2.1922771598085133e-01, -4.6547586387986470e+00, 2.9236506369258414e+01, -9.6720397616729485e+00, 3.7854382500424499e+00, -5.5603925518333071e+01, -3.3165222123661855e+00], 
            "evaluate_basis_derivatives_all_1": [7.0476493032965071e-01, -1.8384007576829962e+00, 4.2183014995650447e-01, 4.8750278045374500e+01, 6.1152059994179645e+01, 1.1700840014966920e+02, -6.2467213047685786e-03, 2.0525923821798844e-01, -2.3823620789120728e-01, -5.5026399329569095e+01, -1.1691643185112593e+01, -3.6804224930464542e+01, 6.7907970324816547e-01, -3.5375141488453332e+00, 4.6256018242526196e+00, -1.0577189115617657e+01, 5.1787325591797824e+01, -6.8294679201189140e+01, -1.6149249133154979e+02, -1.2368585215485362e+02, -2.5652073455123974e+02, 1.6805504758090791e+02, 7.3933891597945575e+01, 1.7592257071125994e+02, -6.9420032231772346e+00, 5.3573080210853185e+01, -8.1908761611905277e+01, -4.0494922890715646e-01, 2.8193869339220505e+00, -4.4577399164688103e+00, 1.5524171273481976e+01, -5.3804688498295143e+01, 8.9601610793594837e+00, -1.8708988266391312e+01, -9.6236530368959436e+01, -1.4812793046322216e+01, 1.0935837050353927e+00, 5.8871718046890265e-01, -3.6160528501113860e+00, -2.3585331478931432e-01, -5.3955412783980117e-01, 1.2918802214283009e+00, -1.5180114516115967e+01, 4.9465841188831611e+01, -4.4836180337294387e+00, 7.1321399993942123e+00, -1.3222394922305494e+02, -4.8721738327588945e+01, 1.7369411045406238e+01, -1.0561124399682291e+02, 1.5090993698037781e+02, 1.1134214462163783e-02, 3.1597207325204288e+01, -5.1244707988397657e+01, 1.0389410078795592e+01, 2.3007237530131158e+02, 6.4667359028648093e+01, -1.1347819029332360e+00, -2.6025766889619600e+01, 4.7295550841800662e+01], 
            "evaluate_basis_derivatives_all_2": [5.6928391969138019e+00, -1.4849959390065354e+01, 3.4074007387129761e+00, -1.4849961432461328e+01, 3.8736605752450458e+01, -8.8883164649758619e+00, 3.4074007446538683e+00, -8.8883137525155345e+00, 2.0394737339819251e+00, -4.4997589356986616e+01, -5.6444709555955093e+01, -1.0800135261859927e+02, -5.6444707512197361e+01, -7.0803907404416577e+01, -1.3547625194357599e+02, -1.0800135158289351e+02, -1.3547625471613935e+02, -2.5922037358073050e+02, -9.8307519511757480e-03, 3.2299586763089699e-01, -3.7488924675017082e-01, 3.2299624517424452e-01, -1.0612843348581711e+01, 1.2317914846663301e+01, -3.7488967449875077e-01, 1.2317914503259511e+01, -1.4296925125178522e+01, 1.2034429227063013e+02, 2.5569954453425964e+01, 8.0491881274989495e+01, 2.5569954453425964e+01, 5.4329337803571347e+00, 1.7102379342126444e+01, 8.0491881274989495e+01, 1.7102379342126444e+01, 5.3836728181650372e+01, -1.1286447345157989e-01, 4.3889791468246458e-01, -5.9992064248715593e-01, 4.3889582875744443e-01, 9.3007213346720405e+01, -1.0497598540496770e+02, -5.9991827917848917e-01, -1.0497598350766356e+02, 1.1838988543294052e+02, 1.5127078004169130e+01, -1.0296550473207648e+02, 1.3041693003534689e+02, -1.0296550173157588e+02, -4.4437760761303984e+01, -4.3307754010328317e+01, 1.3041692663584354e+02, -4.3307756739507049e+01, 1.6769067361832049e+02, 1.9513350962296880e+02, 1.6540923688706823e+02, 3.3647404747426663e+02, 1.6540923204770496e+02, 1.0793326661210716e+02, 2.3158225063528315e+02, 3.3647404666111385e+02, 2.3158225851135612e+02, 4.9106457730170638e+02, -2.7206375261118944e+02, -1.3292271862005848e+02, -3.0678645211518585e+02, -1.3292271661321962e+02, -4.4202772048644093e+01, -1.1542531321931928e+02, -3.0678645016185561e+02, -1.1542531414655620e+02, -2.8867688072901126e+02, 6.2258006071301910e+00, -5.4847043224527468e+01, 8.0583207698361733e+01, -5.4847042888960004e+01, -1.4739593593953973e+02, -4.9302798503653705e+01, 8.0583206073381930e+01, -4.9302800760799244e+01, 3.5095960280886260e+02, 3.2707152994480800e-02, 7.5141087495899384e-01, -6.6570975141368527e-01, 7.5140922614954342e-01, -8.4689355626262838e+01, 9.1513131381661537e+01, -6.6570918968832393e-01, 9.1513134749776526e+01, -9.8343539355929380e+01, -1.9486438378380058e+00, -4.5625707951706268e+01, -2.4301172789636922e+00, -4.5625701846816497e+01, 2.5129175319423163e+02, -2.4012277294449454e+01, -2.4301185800741081e+00, -2.4012281931863846e+01, -2.2109506587348875e+00, -7.8485057587879794e+01, 1.6462004424998460e+02, -4.7976190987022221e+01, 1.6462003924264516e+02, 7.3497944047736084e+01, 1.1106558201626171e+02, -4.7976189540849134e+01, 1.1106558567267734e+02, -2.9066678974320183e+01, 1.1611650371122666e+00, 1.0082681960104345e+01, -1.5576045662593096e+01, 1.0082681425208802e+01, -6.0503104847612299e+01, 4.8478471218752667e+01, -1.5576045300662315e+01, 4.8478469432149119e+01, -1.9061808310511637e+01, 1.2453914491481030e-01, -2.6486185898455799e+00, 2.9582329440377908e+00, -2.6486157982100065e+00, 3.9598637140121021e+01, -4.2151957372481370e+01, 2.9582310875147471e+00, -4.2151961780081812e+01, 4.4503600004776985e+01, -1.0324593972055538e+01, 6.4529223198653980e+01, 1.1355122345655545e+01, 6.4529223831680198e+01, -2.6640009933337467e+02, -7.1167488615253127e+00, 1.1355123235428309e+01, -7.1167507320364329e+00, 1.7291822927581059e+01, -5.8858133553097630e+01, 6.8190443857488461e+01, -7.5031826219118386e+01, 6.8190442056495968e+01, 2.6368891426880356e+02, 2.4675521167414058e+02, -7.5031826828799623e+01, 2.4675521466586841e+02, -2.1108910537684540e+01, -1.9405744382053630e+01, 1.5397376228003174e+02, -2.1137397978563413e+02, 1.5397376520814990e+02, 1.9763092945562755e+02, 9.5545241771822830e+01, -2.1137397947184479e+02, 9.5545234790250603e+01, -5.2130573537108990e+02, -9.3875231542213484e+00, 3.0918429155796716e+01, -2.4294560238485477e+01, 3.0918424334510554e+01, -3.0339295551311960e+02, 1.9245409845179816e+02, -2.4294558407355797e+01, 1.9245410715534766e+02, -1.9349476393568377e+01, 1.4553184849613524e+02, -2.3928812590482164e+02, 1.0944031072779711e+02, -2.3928812319125524e+02, -3.3248383194223385e+02, -3.4656549736699583e+02, 1.0944030833383260e+02, -3.4656550422493581e+02, 7.2007286990070099e+01, 6.2199469024722296e+00, -3.5214694054333222e+01, 3.7983904466323516e+01, -3.5214694208770055e+01, 2.9410436873259118e+02, -1.6959138300690350e+02, 3.7983906130180685e+01, -1.6959137864137884e+02, -4.5142381304656219e+01], 
            "evaluate_dof_0": 1.4072081100000003e-01, 
            "evaluate_dof_1": 3.5842907099999999e-01, 
            "evaluate_dof_2": 1.4760881100000001e-01, 
            "evaluate_dof_3": 4.6025001000000010e-02, 
            "evaluate_dof_4": 1.7329165310852221e-01, 
            "evaluate_dof_5": 1.3266737432985171e-01, 
            "evaluate_dof_6": 2.2537428173040827e-01, 
            "evaluate_dof_7": 1.2234905988657878e-01, 
            "evaluate_dof_8": 3.3608625679317317e-01, 
            "evaluate_dof_9": 2.6613697405923348e-01, 
            "evaluate_dof_10": 1.4040140779939675e-01, 
            "evaluate_dof_11": 1.1150547054146465e-01, 
            "evaluate_dof_12": 1.6745845262529402e-01, 
            "evaluate_dof_13": 1.7048601179329848e-01, 
            "evaluate_dof_14": 2.2191966219058074e-01, 
            "evaluate_dof_15": 2.9854687570283606e-01, 
            "evaluate_dof_16": 2.2092482192781074e-01, 
            "evaluate_dof_17": 1.6519833115516111e-01, 
            "evaluate_dof_18": 1.9198191168498699e-01, 
            "evaluate_dof_19": 2.5422960426200059e-01, 
            "evaluate_dofs": [1.4072081100000003e-01, 3.5842907099999999e-01, 1.4760881100000001e-01, 4.6025001000000010e-02, 1.7329165310852221e-01, 1.3266737432985171e-01, 2.2537428173040827e-01, 1.2234905988657878e-01, 3.3608625679317317e-01, 2.6613697405923348e-01, 1.4040140779939675e-01, 1.1150547054146465e-01, 1.6745845262529402e-01, 1.7048601179329848e-01, 2.2191966219058074e-01, 2.9854687570283606e-01, 2.2092482192781074e-01, 1.6519833115516111e-01, 1.9198191168498699e-01, 2.5422960426200059e-01], 
            "interpolate_vertex_values": [1.4072081100000003e-01, 3.5842907099999999e-01, 1.4760881100000001e-01, 4.6025001000000010e-02], 
            "tabulate_dof_coordinates": [9.0300000000000002e-01, 3.4100000000000003e-01, 4.5700000000000002e-01, 5.6100000000000005e-01, 7.6700000000000002e-01, 8.3299999999999996e-01, 9.8699999999999999e-01, 7.8300000000000003e-01, 1.9100000000000000e-01, 1.2300000000000000e-01, 5.6100000000000005e-01, 6.6700000000000004e-01, 6.9900000287999997e-01, 7.0900000074000002e-01, 3.4966666507999999e-01, 4.1099999711999996e-01, 6.3499999926000006e-01, 5.0833333492000010e-01, 4.1500000146000005e-01, 6.9833333402000008e-01, 7.7766666722000000e-01, 2.6899999854000001e-01, 6.2966666598000010e-01, 7.2233333278000011e-01, 7.0299999857999995e-01, 7.7233333328000009e-01, 6.1900000214000006e-01, 8.4500000141999998e-01, 7.7766666672000007e-01, 4.0499999786000002e-01, 6.4300000260000001e-01, 4.1433333260000005e-01, 5.2699999930000008e-01, 3.8299999740000001e-01, 4.8766666740000003e-01, 5.9700000070000003e-01, 9.3099999972000003e-01, 4.8833333186000005e-01, 3.6833333422000003e-01, 9.5900000027999999e-01, 6.3566666814000006e-01, 2.7966666577999999e-01, 7.8900000114000002e-01, 4.8299999857999998e-01, 5.8233333208000004e-01, 6.7499999886000006e-01, 6.2500000142000012e-01, 7.0766666791999999e-01, 5.5699999443000003e-01, 7.0366665962999997e-01, 5.6366666102999996e-01, 6.7099999329000004e-01, 5.6166666105000007e-01, 4.3833332894999999e-01, 5.2899999471000003e-01, 5.5633332777000000e-01, 6.5233332681000000e-01, 8.1699999182999994e-01, 6.3033332703000000e-01, 4.9366666173000001e-01], 
            "num_sub_elements": 0, 
        },
        "dofmap_0": {
            "needs_mesh_entities_0": 1, 
            "needs_mesh_entities_1": 1, 
            "needs_mesh_entities_2": 1, 
            "needs_mesh_entities_3": 0, 
            "global_dimension": 40008, 
            "num_element_dofs": 20, 
            "num_facet_dofs": 10, 
            "num_entity_dofs_0": 1, 
            "num_entity_dofs_1": 2, 
            "num_entity_dofs_2": 1, 
            "num_entity_dofs_3": 0, 
            "tabulate_dofs": [0, 0, 0, 0, 10001, 10002, 10003, 10004, 10005, 10006, 10007, 10008, 10009, 10010, 10011, 10012, 30005, 30007, 30009, 30011], 
            "tabulate_facet_dofs_0": [1, 2, 3, 4, 5, 6, 7, 8, 9, 16], 
            "tabulate_facet_dofs_1": [0, 2, 3, 4, 5, 10, 11, 12, 13, 17], 
            "tabulate_facet_dofs_2": [0, 1, 3, 6, 7, 10, 11, 14, 15, 18], 
            "tabulate_facet_dofs_3": [0, 1, 2, 8, 9, 12, 13, 14, 15, 19], 
            "tabulate_entity_dofs_0_0": [0], 
            "tabulate_entity_dofs_0_1": [1], 
            "tabulate_entity_dofs_0_2": [2], 
            "tabulate_entity_dofs_0_3": [3], 
            "tabulate_entity_dofs_1_0": [4, 5], 
            "tabulate_entity_dofs_1_1": [6, 7], 
            "tabulate_entity_dofs_1_2": [8, 9], 
            "tabulate_entity_dofs_1_3": [10, 11], 
            "tabulate_entity_dofs_1_4": [12, 13], 
            "tabulate_entity_dofs_1_5": [14, 15], 
            "tabulate_entity_dofs_2_0": [16], 
            "tabulate_entity_dofs_2_1": [17], 
            "tabulate_entity_dofs_2_2": [18], 
            "tabulate_entity_dofs_2_3": [19], 
            "tabulate_entity_dofs_3_0": [], 
            "num_sub_dofmaps": 0, 
        },
        "dofmap_1": {
            "needs_mesh_entities_0": 1, 
            "needs_mesh_entities_1": 1, 
            "needs_mesh_entities_2": 1, 
            "needs_mesh_entities_3": 0, 
            "global_dimension": 40008, 
            "num_element_dofs": 20, 
            "num_facet_dofs": 10, 
            "num_entity_dofs_0": 1, 
            "num_entity_dofs_1": 2, 
            "num_entity_dofs_2": 1, 
            "num_entity_dofs_3": 0, 
            "tabulate_dofs": [0, 0, 0, 0, 10001, 10002, 10003, 10004, 10005, 10006, 10007, 10008, 10009, 10010, 10011, 10012, 30005, 30007, 30009, 30011], 
            "tabulate_facet_dofs_0": [1, 2, 3, 4, 5, 6, 7, 8, 9, 16], 
            "tabulate_facet_dofs_1": [0, 2, 3, 4, 5, 10, 11, 12, 13, 17], 
            "tabulate_facet_dofs_2": [0, 1, 3, 6, 7, 10, 11, 14, 15, 18], 
            "tabulate_facet_dofs_3": [0, 1, 2, 8, 9, 12, 13, 14, 15, 19], 
            "tabulate_entity_dofs_0_0": [0], 
            "tabulate_entity_dofs_0_1": [1], 
            "tabulate_entity_dofs_0_2": [2], 
            "tabulate_entity_dofs_0_3": [3], 
            "tabulate_entity_dofs_1_0": [4, 5], 
            "tabulate_entity_dofs_1_1": [6, 7], 
            "tabulate_entity_dofs_1_2": [8, 9], 
            "tabulate_entity_dofs_1_3": [10, 11], 
            "tabulate_entity_dofs_1_4": [12, 13], 
            "tabulate_entity_dofs_1_5": [14, 15], 
            "tabulate_entity_dofs_2_0": [16], 
            "tabulate_entity_dofs_2_1": [17], 
            "tabulate_entity_dofs_2_2": [18], 
            "tabulate_entity_dofs_2_3": [19], 
            "tabulate_entity_dofs_3_0": [], 
            "num_sub_dofmaps": 0, 
        },
        "default_cell_integral": 1, 
        "cell_integral": {
            "tabulate_tensor": [9.8626072217580007e-05, 1.2328258944351600e-05, 1.2328258944351600e-05, 1.2328258944351600e-05, 1.8492387919452001e-05, 1.8492387919452001e-05, 1.8492387919452001e-05, 1.8492387919452001e-05, 1.8492387919452001e-05, 1.8492387919452001e-05, -7.3969553334726003e-05, 3.6984777495822000e-05, -7.3969553334726003e-05, 3.6984777495822000e-05, -7.3969553334726003e-05, 3.6984777495822000e-05, 2.2190865834726000e-04, 1.1095433083054800e-04, 1.1095433083054800e-04, 1.1095433083054800e-04, 1.2328258944351600e-05, 9.8626072217580007e-05, 1.2328258944351600e-05, 1.2328258944351600e-05, 1.8492387919452001e-05, 1.8492387919452001e-05, -7.3969553334726003e-05, 3.6984777495822000e-05, -7.3969553334726003e-05, 3.6984777495822000e-05, 1.8492387919452001e-05, 1.8492387919452001e-05, 1.8492387919452001e-05, 1.8492387919452001e-05, 3.6984777495822000e-05, -7.3969553334726003e-05, 1.1095433083054800e-04, 2.2190865834726000e-04, 1.1095433083054800e-04, 1.1095433083054800e-04, 1.2328258944351600e-05, 1.2328258944351600e-05, 9.8626072217580007e-05, 1.2328258944351600e-05, -7.3969553334726003e-05, 3.6984777495822000e-05, 1.8492387919452001e-05, 1.8492387919452001e-05, 3.6984777495822000e-05, -7.3969553334726003e-05, 1.8492387919452001e-05, 1.8492387919452001e-05, 3.6984777495822000e-05, -7.3969553334726003e-05, 1.8492387919452001e-05, 1.8492387919452001e-05, 1.1095433083054800e-04, 1.1095433083054800e-04, 2.2190865834726000e-04, 1.1095433083054800e-04, 1.2328258944351600e-05, 1.2328258944351600e-05, 1.2328258944351600e-05, 9.8626072217580007e-05, 3.6984777495822000e-05, -7.3969553334726003e-05, 3.6984777495822000e-05, -7.3969553334726003e-05, 1.8492387919452001e-05, 1.8492387919452001e-05, 3.6984777495822000e-05, -7.3969553334726003e-05, 1.8492387919452001e-05, 1.8492387919452001e-05, 1.8492387919452001e-05, 1.8492387919452001e-05, 1.1095433083054800e-04, 1.1095433083054800e-04, 1.1095433083054800e-04, 2.2190865834726000e-04, 1.8492387919452001e-05, 1.8492387919452001e-05, -7.3969553334726003e-05, 3.6984777495822000e-05, 6.6572597504178000e-04, -3.3286299580547997e-04, 0.0, -1.6643149790273999e-04, -1.6643149790273999e-04, 3.3286299580547997e-04, 0.0, -1.6643149790273999e-04, -1.6643149790273999e-04, 3.3286299580547997e-04, 0.0, 0.0, 0.0, 0.0, -3.3286299580547997e-04, 0.0, 1.8492387919452001e-05, 1.8492387919452001e-05, 3.6984777495822000e-05, -7.3969553334726003e-05, -3.3286299580547997e-04, 6.6572597504178000e-04, -1.6643149790273999e-04, 3.3286299580547997e-04, 0.0, -1.6643149790273999e-04, -1.6643149790273999e-04, 3.3286299580547997e-04, 0.0, -1.6643149790273999e-04, 0.0, 0.0, 0.0, 0.0, 0.0, -3.3286299580547997e-04, 1.8492387919452001e-05, -7.3969553334726003e-05, 1.8492387919452001e-05, 3.6984777495822000e-05, 0.0, -1.6643149790273999e-04, 6.6572597504178000e-04, -3.3286299580547997e-04, 3.3286299580547997e-04, -1.6643149790273999e-04, 0.0, -1.6643149790273999e-04, 0.0, 0.0, -1.6643149790273999e-04, 3.3286299580547997e-04, 0.0, -3.3286299580547997e-04, 0.0, 0.0, 1.8492387919452001e-05, 3.6984777495822000e-05, 1.8492387919452001e-05, -7.3969553334726003e-05, -1.6643149790273999e-04, 3.3286299580547997e-04, -3.3286299580547997e-04, 6.6572597504178000e-04, -1.6643149790273999e-04, 0.0, -1.6643149790273999e-04, 3.3286299580547997e-04, 0.0, 0.0, 0.0, -1.6643149790273999e-04, 0.0, 0.0, 0.0, -3.3286299580547997e-04, 1.8492387919452001e-05, -7.3969553334726003e-05, 3.6984777495822000e-05, 1.8492387919452001e-05, -1.6643149790273999e-04, 0.0, 3.3286299580547997e-04, -1.6643149790273999e-04, 6.6572597504178000e-04, -3.3286299580547997e-04, 0.0, 0.0, 0.0, -1.6643149790273999e-04, -1.6643149790273999e-04, 3.3286299580547997e-04, 0.0, -3.3286299580547997e-04, 0.0, 0.0, 1.8492387919452001e-05, 3.6984777495822000e-05, -7.3969553334726003e-05, 1.8492387919452001e-05, 3.3286299580547997e-04, -1.6643149790273999e-04, -1.6643149790273999e-04, 0.0, -3.3286299580547997e-04, 6.6572597504178000e-04, 0.0, 0.0, -1.6643149790273999e-04, 3.3286299580547997e-04, 0.0, -1.6643149790273999e-04, 0.0, 0.0, -3.3286299580547997e-04, 0.0, -7.3969553334726003e-05, 1.8492387919452001e-05, 1.8492387919452001e-05, 3.6984777495822000e-05, 0.0, -1.6643149790273999e-04, 0.0, -1.6643149790273999e-04, 0.0, 0.0, 6.6572597504178000e-04, -3.3286299580547997e-04, 3.3286299580547997e-04, -1.6643149790273999e-04, 3.3286299580547997e-04, -1.6643149790273999e-04, -3.3286299580547997e-04, 0.0, 0.0, 0.0, 3.6984777495822000e-05, 1.8492387919452001e-05, 1.8492387919452001e-05, -7.3969553334726003e-05, -1.6643149790273999e-04, 3.3286299580547997e-04, -1.6643149790273999e-04, 3.3286299580547997e-04, 0.0, 0.0, -3.3286299580547997e-04, 6.6572597504178000e-04, -1.6643149790273999e-04, 0.0, -1.6643149790273999e-04, 0.0, 0.0, 0.0, 0.0, -3.3286299580547997e-04, -7.3969553334726003e-05, 1.8492387919452001e-05, 3.6984777495822000e-05, 1.8492387919452001e-05, -1.6643149790273999e-04, 0.0, 0.0, 0.0, 0.0, -1.6643149790273999e-04, 3.3286299580547997e-04, -1.6643149790273999e-04, 6.6572597504178000e-04, -3.3286299580547997e-04, 3.3286299580547997e-04, -1.6643149790273999e-04, -3.3286299580547997e-04, 0.0, 0.0, 0.0, 3.6984777495822000e-05, 1.8492387919452001e-05, -7.3969553334726003e-05, 1.8492387919452001e-05, 3.3286299580547997e-04, -1.6643149790273999e-04, 0.0, 0.0, -1.6643149790273999e-04, 3.3286299580547997e-04, -1.6643149790273999e-04, 0.0, -3.3286299580547997e-04, 6.6572597504178000e-04, -1.6643149790273999e-04, 0.0, 0.0, 0.0, -3.3286299580547997e-04, 0.0, -7.3969553334726003e-05, 3.6984777495822000e-05, 1.8492387919452001e-05, 1.8492387919452001e-05, 0.0, 0.0, -1.6643149790273999e-04, 0.0, -1.6643149790273999e-04, 0.0, 3.3286299580547997e-04, -1.6643149790273999e-04, 3.3286299580547997e-04, -1.6643149790273999e-04, 6.6572597504178000e-04, -3.3286299580547997e-04, -3.3286299580547997e-04, 0.0, 0.0, 0.0, 3.6984777495822000e-05, -7.3969553334726003e-05, 1.8492387919452001e-05, 1.8492387919452001e-05, 0.0, 0.0, 3.3286299580547997e-04, -1.6643149790273999e-04, 3.3286299580547997e-04, -1.6643149790273999e-04, -1.6643149790273999e-04, 0.0, -1.6643149790273999e-04, 0.0, -3.3286299580547997e-04, 6.6572597504178000e-04, 0.0, -3.3286299580547997e-04, 0.0, 0.0, 2.2190865834726000e-04, 1.1095433083054800e-04, 1.1095433083054800e-04, 1.1095433083054800e-04, 0.0, 0.0, 0.0, 0.0, 0.0, 0.0, -3.3286299580547997e-04, 0.0, -3.3286299580547997e-04, 0.0, -3.3286299580547997e-04, 0.0, 2.6629039995822003e-03, 1.3314519666527400e-03, 1.3314519666527400e-03, 1.3314519666527400e-03, 1.1095433083054800e-04, 2.2190865834726000e-04, 1.1095433083054800e-04, 1.1095433083054800e-04, 0.0, 0.0, -3.3286299580547997e-04, 0.0, -3.3286299580547997e-04, 0.0, 0.0, 0.0, 0.0, 0.0, 0.0, -3.3286299580547997e-04, 1.3314519666527400e-03, 2.6629039995822003e-03, 1.3314519666527400e-03, 1.3314519666527400e-03, 1.1095433083054800e-04, 1.1095433083054800e-04, 2.2190865834726000e-04, 1.1095433083054800e-04, -3.3286299580547997e-04, 0.0, 0.0, 0.0, 0.0, -3.3286299580547997e-04, 0.0, 0.0, 0.0, -3.3286299580547997e-04, 0.0, 0.0, 1.3314519666527400e-03, 1.3314519666527400e-03, 2.6629039995822003e-03, 1.3314519666527400e-03, 1.1095433083054800e-04, 1.1095433083054800e-04, 1.1095433083054800e-04, 2.2190865834726000e-04, 0.0, -3.3286299580547997e-04, 0.0, -3.3286299580547997e-04, 0.0, 0.0, 0.0, -3.3286299580547997e-04, 0.0, 0.0, 0.0, 0.0, 1.3314519666527400e-03, 1.3314519666527400e-03, 1.3314519666527400e-03, 2.6629039995822003e-03], 
        },
        "default_exterior_facet_integral": 0, 
        "default_interior_facet_integral": 0, 
        "default_vertex_integral": 0, 
    },
}
