{
    "form_0": {
        "rank": 0, 
        "num_coefficients": 1, 
        "has_cell_integrals": 1, 
        "has_exterior_facet_integrals": 0, 
        "has_interior_facet_integrals": 1, 
        "has_vertex_integrals": 0, 
        "max_cell_subdomain_id": 0, 
        "max_exterior_facet_subdomain_id": 0, 
        "max_interior_facet_subdomain_id": 0, 
        "max_vertex_subdomain_id": 0, 
        "finite_element_0": {
            "cell_shape": 1, 
            "space_dimension": 23, 
            "value_rank": 1, 
            "value_dimension_0": 5, 
            "evaluate_basis:_0": [1.0000000000000000e+00, 0.0, 0.0, 0.0, 0.0], 
            "evaluate_basis:_1": [0.0, 1.0000000000000000e+00, 0.0, 0.0, 0.0], 
            "evaluate_basis:_2": [0.0, 0.0, 2.8610071678580171e+00, 0.0, 0.0], 
            "evaluate_basis:_3": [0.0, 0.0, 6.1881163893169173e+00, 0.0, 0.0], 
            "evaluate_basis:_4": [0.0, 0.0, 1.4984118131434853e+01, 0.0, 0.0], 
            "evaluate_basis:_5": [0.0, 0.0, -2.0254997816349125e+01, 0.0, 0.0], 
            "evaluate_basis:_6": [0.0, 0.0, -1.4710349887246432e+01, 0.0, 0.0], 
            "evaluate_basis:_7": [0.0, 0.0, 1.1932105742404252e+01, 0.0, 0.0], 
            "evaluate_basis:_8": [0.0, 0.0, 0.0, 1.0481154942813814e+02, 2.7972957853175284e+01], 
            "evaluate_basis:_9": [0.0, 0.0, 0.0, -3.7739692219970976e+02, -1.0072278835097896e+02], 
            "evaluate_basis:_10": [0.0, 0.0, 0.0, 3.1847372143146447e+02, 8.4996868851625607e+01], 
            "evaluate_basis:_11": [0.0, 0.0, 0.0, -2.8508702187263275e+01, -3.3895371677362370e+01], 
            "evaluate_basis:_12": [0.0, 0.0, 0.0, 1.6124898482872092e+02, 1.9171672205840173e+02], 
            "evaluate_basis:_13": [0.0, 0.0, 0.0, -1.9785576672955378e+02, -2.3524028611190033e+02], 
            "evaluate_basis:_14": [0.0, 0.0, 0.0, 5.0157020638416064e+01, 3.4708456345880137e+01], 
            "evaluate_basis:_15": [0.0, 0.0, 0.0, 1.8338069968878722e+02, 1.2689870130142963e+02], 
            "evaluate_basis:_16": [0.0, 0.0, 0.0, 1.1456146119355567e+02, 7.9276064999777120e+01], 
            "evaluate_basis:_17": [0.0, 0.0, 0.0, -4.9402050505634875e+01, -1.2281618807652298e+02], 
            "evaluate_basis:_18": [0.0, 0.0, 0.0, 1.1565921382370426e+02, -4.8836148093764322e+01], 
            "evaluate_basis:_19": [0.0, 0.0, 0.0, -4.5200635186791082e+01, 2.3454551631506962e+02], 
            "evaluate_basis:_20": [0.0, 0.0, 0.0, 3.2738699370100574e+02, 1.9700708791091407e+02], 
            "evaluate_basis:_21": [0.0, 0.0, 0.0, 5.7708426681261210e+02, 3.1342538917724590e+02], 
            "evaluate_basis:_22": [0.0, 0.0, 0.0, -6.0270974018872653e+02, -2.8416058412253574e+02], 
            "evaluate_basis_all": [1.0000000000000000e+00, 0.0, 0.0, 0.0, 0.0, 0.0, 1.0000000000000000e+00, 0.0, 0.0, 0.0, 0.0, 0.0, 2.8610071678580171e+00, 0.0, 0.0, 0.0, 0.0, 6.1881163893169173e+00, 0.0, 0.0, 0.0, 0.0, 1.4984118131434853e+01, 0.0, 0.0, 0.0, 0.0, -2.0254997816349125e+01, 0.0, 0.0, 0.0, 0.0, -1.4710349887246432e+01, 0.0, 0.0, 0.0, 0.0, 1.1932105742404252e+01, 0.0, 0.0, 0.0, 0.0, 0.0, 1.0481154942813814e+02, 2.7972957853175284e+01, 0.0, 0.0, 0.0, -3.7739692219970976e+02, -1.0072278835097896e+02, 0.0, 0.0, 0.0, 3.1847372143146447e+02, 8.4996868851625607e+01, 0.0, 0.0, 0.0, -2.8508702187263275e+01, -3.3895371677362370e+01, 0.0, 0.0, 0.0, 1.6124898482872092e+02, 1.9171672205840173e+02, 0.0, 0.0, 0.0, -1.9785576672955378e+02, -2.3524028611190033e+02, 0.0, 0.0, 0.0, 5.0157020638416064e+01, 3.4708456345880137e+01, 0.0, 0.0, 0.0, 1.8338069968878722e+02, 1.2689870130142963e+02, 0.0, 0.0, 0.0, 1.1456146119355567e+02, 7.9276064999777120e+01, 0.0, 0.0, 0.0, -4.9402050505634875e+01, -1.2281618807652298e+02, 0.0, 0.0, 0.0, 1.1565921382370426e+02, -4.8836148093764322e+01, 0.0, 0.0, 0.0, -4.5200635186791082e+01, 2.3454551631506962e+02, 0.0, 0.0, 0.0, 3.2738699370100574e+02, 1.9700708791091407e+02, 0.0, 0.0, 0.0, 5.7708426681261210e+02, 3.1342538917724590e+02, 0.0, 0.0, 0.0, -6.0270974018872653e+02, -2.8416058412253574e+02, 0.0, 0.0, 0.0, 0.0, 0.0, 0.0, 0.0, 0.0, 0.0, 0.0, 0.0, 0.0, 0.0, 0.0, 0.0, 0.0, 0.0, 0.0, 0.0, 0.0, 0.0, 0.0, 0.0, 0.0, 0.0, 0.0, 0.0, 0.0, 0.0, 0.0, 0.0, 0.0, 0.0, 0.0, 0.0, 0.0, 0.0, 0.0, 0.0, 0.0, 0.0, 0.0, 0.0, 0.0, 0.0, 0.0, 0.0, 0.0, 0.0, 0.0, 0.0, 0.0, 0.0, 0.0, 0.0, 0.0, 0.0, 0.0, 0.0, 0.0, 0.0, 0.0, 0.0, 0.0, 0.0, 0.0, 0.0, 0.0, 0.0, 0.0, 0.0, 0.0, 0.0, 0.0, 0.0, 0.0, 0.0, 0.0, 0.0, 0.0, 0.0, 0.0, 0.0, 0.0, 0.0, 0.0, 0.0, 0.0, 0.0, 0.0, 0.0, 0.0, 0.0, 0.0, 0.0, 0.0, 0.0, 0.0, 0.0, 0.0, 0.0, 0.0, 0.0, 0.0, 0.0, 0.0, 0.0, 0.0, 0.0, 0.0, 0.0, 0.0, 0.0, 0.0, 0.0, 0.0, 0.0, 0.0, 0.0, 0.0, 0.0, 0.0, 0.0, 0.0, 0.0, 0.0, 0.0, 0.0, 0.0, 0.0, 0.0, 0.0, 0.0, 0.0, 0.0, 0.0, 0.0, 0.0, 0.0, 0.0, 0.0, 0.0, 0.0, 0.0, 0.0, 0.0, 0.0, 0.0, 0.0, 0.0, 0.0, 0.0, 0.0, 0.0, 0.0, 0.0, 0.0, 0.0, 0.0, 0.0, 0.0, 0.0, 0.0, 0.0, 0.0, 0.0, 0.0, 0.0, 0.0, 0.0, 0.0, 0.0, 0.0, 0.0, 0.0, 0.0, 0.0, 0.0, 0.0, 0.0, 0.0, 0.0, 0.0, 0.0, 0.0, 0.0, 0.0, 0.0, 0.0, 0.0, 0.0, 0.0, 0.0, 0.0, 0.0, 0.0, 0.0, 0.0, 0.0, 0.0, 0.0, 0.0, 0.0, 0.0, 0.0, 0.0, 0.0, 0.0, 0.0, 0.0, 0.0, 0.0, 0.0, 0.0, 0.0, 0.0, 0.0, 0.0, 0.0, 0.0, 0.0, 0.0, 0.0, 0.0, 0.0, 0.0, 0.0, 0.0, 0.0, 0.0, 0.0, 0.0, 0.0, 0.0, 0.0, 0.0, 0.0, 0.0, 0.0, 0.0, 0.0, 0.0, 0.0, 0.0, 0.0, 0.0, 0.0, 0.0, 0.0, 0.0, 0.0, 0.0, 0.0, 0.0, 0.0, 0.0, 0.0, 0.0, 0.0, 0.0, 0.0, 0.0, 0.0, 0.0, 0.0, 0.0, 0.0, 0.0, 0.0, 0.0, 0.0, 0.0, 0.0, 0.0, 0.0, 0.0, 0.0, 0.0, 0.0, 0.0, 0.0, 0.0, 0.0, 0.0, 0.0, 0.0, 0.0, 0.0, 0.0, 0.0, 0.0, 0.0, 0.0, 0.0, 0.0, 0.0, 0.0, 0.0, 0.0, 0.0, 0.0, 0.0, 0.0, 0.0, 0.0, 0.0, 0.0, 0.0, 0.0, 0.0, 0.0, 0.0, 0.0, 0.0, 0.0, 0.0, 0.0, 0.0, 0.0, 0.0, 0.0, 0.0, 0.0, 0.0, 0.0, 0.0, 0.0, 0.0, 0.0, 0.0, 0.0, 0.0, 0.0, 0.0, 0.0, 0.0, 0.0, 0.0, 0.0, 0.0, 0.0, 0.0, 0.0, 0.0, 0.0], 
            "evaluate_basis_derivatives_0_0": [1.0000000000000000e+00, 0.0, 0.0, 0.0, 0.0], 
            "evaluate_basis_derivatives_0_1": [0.0, 0.0, 0.0, 0.0, 0.0, 0.0, 0.0, 0.0, 0.0, 0.0], 
            "evaluate_basis_derivatives_0_2": [0.0, 0.0, 0.0, 0.0, 0.0, 0.0, 0.0, 0.0, 0.0, 0.0, 0.0, 0.0, 0.0, 0.0, 0.0, 0.0, 0.0, 0.0, 0.0, 0.0], 
            "evaluate_basis_derivatives_1_0": [0.0, 1.0000000000000000e+00, 0.0, 0.0, 0.0], 
            "evaluate_basis_derivatives_1_1": [0.0, 0.0, 0.0, 0.0, 0.0, 0.0, 0.0, 0.0, 0.0, 0.0], 
            "evaluate_basis_derivatives_1_2": [0.0, 0.0, 0.0, 0.0, 0.0, 0.0, 0.0, 0.0, 0.0, 0.0, 0.0, 0.0, 0.0, 0.0, 0.0, 0.0, 0.0, 0.0, 0.0, 0.0], 
            "evaluate_basis_derivatives_2_0": [0.0, 0.0, 2.8610071678580171e+00, 0.0, 0.0], 
            "evaluate_basis_derivatives_2_1": [0.0, 0.0, 0.0, 0.0, 4.1830166325985907e-01, -1.1137281139441237e+01, 0.0, 0.0, 0.0, 0.0], 
            "evaluate_basis_derivatives_2_2": [0.0, 0.0, 0.0, 0.0, 0.0, 0.0, 0.0, 0.0, 2.9299184886074414e-02, -7.8009583790731085e-01, -7.8009552734581433e-01, 2.0770049714109000e+01, 0.0, 0.0, 0.0, 0.0, 0.0, 0.0, 0.0, 0.0], 
            "evaluate_basis_derivatives_3_0": [0.0, 0.0, 6.1881163893169173e+00, 0.0, 0.0], 
            "evaluate_basis_derivatives_3_1": [0.0, 0.0, 0.0, 0.0, -1.6802284432419185e+01, 3.1931942336532431e+00, 0.0, 0.0, 0.0, 0.0], 
            "evaluate_basis_derivatives_3_2": [0.0, 0.0, 0.0, 0.0, 0.0, 0.0, 0.0, 0.0, 2.2359541075839978e+01, -4.2493243399802800e+00, -4.2493242137911515e+00, 8.0756367053772460e-01, 0.0, 0.0, 0.0, 0.0, 0.0, 0.0, 0.0, 0.0], 
            "evaluate_basis_derivatives_4_0": [0.0, 0.0, 1.4984118131434853e+01, 0.0, 0.0], 
            "evaluate_basis_derivatives_4_1": [0.0, 0.0, 0.0, 0.0, -2.5052630170190362e+01, -2.0112674925364093e+01, 0.0, 0.0, 0.0, 0.0], 
            "evaluate_basis_derivatives_4_2": [0.0, 0.0, 0.0, 0.0, 0.0, 0.0, 0.0, 0.0, 2.0770050562393401e+01, 1.6674547634597520e+01, 1.6674547634597520e+01, 1.3386608664395190e+01, 0.0, 0.0, 0.0, 0.0, 0.0, 0.0, 0.0, 0.0], 
            "evaluate_basis_derivatives_5_0": [0.0, 0.0, -2.0254997816349125e+01, 0.0, 0.0], 
            "evaluate_basis_derivatives_5_1": [0.0, 0.0, 0.0, 0.0, 4.2102045766998742e+01, 1.0339616415170878e+01, 0.0, 0.0, 0.0, 0.0], 
            "evaluate_basis_derivatives_5_2": [0.0, 0.0, 0.0, 0.0, 0.0, 0.0, 0.0, 0.0, -4.3100292690195282e+01, -1.3205319095727823e+01, -1.3205318911355452e+01, 6.5758775909102241e+00, 0.0, 0.0, 0.0, 0.0, 0.0, 0.0, 0.0, 0.0], 
            "evaluate_basis_derivatives_6_0": [0.0, 0.0, -1.4710349887246432e+01, 0.0, 0.0], 
            "evaluate_basis_derivatives_6_1": [0.0, 0.0, 0.0, 0.0, 1.2560631577397444e+01, 3.3544504833147194e+01, 0.0, 0.0, 0.0, 0.0], 
            "evaluate_basis_derivatives_6_2": [0.0, 0.0, 0.0, 0.0, 0.0, 0.0, 0.0, 0.0, 1.5601915654084806e+00, -2.0143776173467209e+01, -2.0143776357839585e+01, -3.3349094919700597e+01, 0.0, 0.0, 0.0, 0.0, 0.0, 0.0, 0.0, 0.0], 
            "evaluate_basis_derivatives_7_0": [0.0, 0.0, 1.1932105742404252e+01, 0.0, 0.0], 
            "evaluate_basis_derivatives_7_1": [0.0, 0.0, 0.0, 0.0, -1.3226063771129475e+01, -1.5827359122238521e+01, 0.0, 0.0, 0.0, 0.0], 
            "evaluate_basis_derivatives_7_2": [0.0, 0.0, 0.0, 0.0, 0.0, 0.0, 0.0, 0.0, -1.6187906851871934e+00, 2.1703967965189268e+01, 2.1703967528438628e+01, -8.1910056499146062e+00, 0.0, 0.0, 0.0, 0.0, 0.0, 0.0, 0.0, 0.0], 
            "evaluate_basis_derivatives_8_0": [0.0, 0.0, 0.0, 1.0481154942813814e+02, 2.7972957853175284e+01], 
            "evaluate_basis_derivatives_8_1": [0.0, 0.0, 0.0, 0.0, 0.0, 0.0, -4.1786520480353693e+02, 5.7354662403491005e+01, -8.0545460434381468e+01, -1.0076309093810244e+02], 
            "evaluate_basis_derivatives_8_2": [0.0, 0.0, 0.0, 0.0, 0.0, 0.0, 0.0, 0.0, 0.0, 0.0, 0.0, 0.0, 1.1004331003377451e+03, -1.4561637372915419e+02, -1.4561638304304699e+02, 1.5602861964202376e+01, 1.1529727943069433e+02, 3.1230182339282891e+02, 3.1230182807009226e+02, -1.2286717483464186e+02], 
            "evaluate_basis_derivatives_9_0": [0.0, 0.0, 0.0, -3.7739692219970976e+02, -1.0072278835097896e+02], 
            "evaluate_basis_derivatives_9_1": [0.0, 0.0, 0.0, 0.0, 0.0, 0.0, 1.2330389945189972e+03, 1.5574383280758443e+02, 2.1754117824672738e+02, 4.5950302976641859e+02], 
            "evaluate_basis_derivatives_9_2": [0.0, 0.0, 0.0, 0.0, 0.0, 0.0, 0.0, 0.0, 0.0, 0.0, 0.0, 0.0, -2.6380560470748242e+03, -4.2761217235186973e+02, -4.2761216418957548e+02, 1.2705175493303494e+02, -2.2224733431970026e+02, -9.7075369699322846e+02, -9.7075371181252490e+02, -3.1103903060416019e+02], 
            "evaluate_basis_derivatives_10_0": [0.0, 0.0, 0.0, 3.1847372143146447e+02, 8.4996868851625607e+01], 
            "evaluate_basis_derivatives_10_1": [0.0, 0.0, 0.0, 0.0, 0.0, 0.0, -8.5873630102120433e+02, -4.0626728055018918e+02, -1.3505937346363208e+02, -4.6111202208120852e+02], 
            "evaluate_basis_derivatives_10_2": [0.0, 0.0, 0.0, 0.0, 0.0, 0.0, 0.0, 0.0, 0.0, 0.0, 0.0, 0.0, 1.5221200442354434e+03, 7.7207533260113905e+02, 7.7207533371918385e+02, 2.5864108765669334e+02, 1.0710110696555876e+02, 6.4639475263395047e+02, 6.4639475124129808e+02, 9.6884499616187873e+02], 
            "evaluate_basis_derivatives_11_0": [0.0, 0.0, 0.0, -2.8508702187263275e+01, -3.3895371677362370e+01], 
            "evaluate_basis_derivatives_11_1": [0.0, 0.0, 0.0, 0.0, 0.0, 0.0, 4.6310293882878824e+01, 1.2000850374664167e+02, -5.3590106441436376e+00, 1.9350155021340467e+02], 
            "evaluate_basis_derivatives_11_2": [0.0, 0.0, 0.0, 0.0, 0.0, 0.0, 0.0, 0.0, 0.0, 0.0, 0.0, 0.0, 1.5717327967145934e+01, -2.0455513951051009e+02, -2.0455513720440933e+02, -2.4930993596163489e+02, -4.1816734436235947e-01, 1.9167527620746114e+01, 1.9167536324714888e+01, -7.2425437851717697e+02], 
            "evaluate_basis_derivatives_12_0": [0.0, 0.0, 0.0, 1.6124898482872092e+02, 1.9171672205840173e+02], 
            "evaluate_basis_derivatives_12_1": [0.0, 0.0, 0.0, 0.0, 0.0, 0.0, -4.0982144289964174e+02, -4.0803941391795394e+02, -1.4551552812417901e+02, -7.7256914282781611e+02], 
            "evaluate_basis_derivatives_12_2": [0.0, 0.0, 0.0, 0.0, 0.0, 0.0, 0.0, 0.0, 0.0, 0.0, 0.0, 0.0, 4.1760077212412932e+02, 9.6913550930065196e+02, 9.6913551834988334e+02, 4.0030046219499604e+02, -2.2265960418278610e+01, 5.0564303339805429e+02, 5.0564301747397599e+02, 1.9306224745555839e+03], 
            "evaluate_basis_derivatives_13_0": [0.0, 0.0, 0.0, -1.9785576672955378e+02, -2.3524028611190033e+02], 
            "evaluate_basis_derivatives_13_1": [0.0, 0.0, 0.0, 0.0, 0.0, 0.0, 6.6707533562837511e+02, 2.5239861819256578e+02, 3.7379496193540149e+02, 6.5277298747403756e+02], 
            "evaluate_basis_derivatives_13_2": [0.0, 0.0, 0.0, 0.0, 0.0, 0.0, 0.0, 0.0, 0.0, 0.0, 0.0, 0.0, -1.3701343116554524e+03, -6.5005861771297714e+02, -6.5005861883102205e+02, -1.6068400669014090e+02, -2.9641666860028454e+02, -7.9838048521394171e+02, -7.9838048382128932e+02, -1.0908617110500406e+03], 
            "evaluate_basis_derivatives_14_0": [0.0, 0.0, 0.0, 5.0157020638416064e+01, 3.4708456345880137e+01], 
            "evaluate_basis_derivatives_14_1": [0.0, 0.0, 0.0, 0.0, 0.0, 0.0, -4.2887591119830404e+01, -2.1113794648046931e+02, 5.4875606419730047e+00, -1.9692425689198024e+02], 
            "evaluate_basis_derivatives_14_2": [0.0, 0.0, 0.0, 0.0, 0.0, 0.0, 0.0, 0.0, 0.0, 0.0, 0.0, 0.0, -1.5450269002576761e+01, 1.9744469224691500e+02, 1.9744469277153087e+02, 4.3862549410804706e+02, 4.2819744985047237e-01, -1.9434582768885548e+01, -1.9434591366536552e+01, 7.3136482463749871e+02], 
            "evaluate_basis_derivatives_15_0": [0.0, 0.0, 0.0, 1.8338069968878722e+02, 1.2689870130142963e+02], 
            "evaluate_basis_derivatives_15_1": [0.0, 0.0, 0.0, 0.0, 0.0, 0.0, -4.1698418381229970e+02, -2.9561161558850000e+02, -1.5998125567365389e+02, -3.9035808717135296e+02], 
            "evaluate_basis_derivatives_15_2": [0.0, 0.0, 0.0, 0.0, 0.0, 0.0, 0.0, 0.0, 0.0, 0.0, 0.0, 0.0, 4.3428042291307713e+02, 7.5785329517359264e+02, 7.5785330485411566e+02, -1.7297905563734201e+02, -2.3656504213841117e+01, 5.5140820851856324e+02, 5.5140820985290554e+02, 4.7930953433827676e+02], 
            "evaluate_basis_derivatives_16_0": [0.0, 0.0, 0.0, 1.1456146119355567e+02, 7.9276064999777120e+01], 
            "evaluate_basis_derivatives_16_1": [0.0, 0.0, 0.0, 0.0, 0.0, 0.0, -4.4593914143555236e+02, 6.2689980340816078e+01, -2.2826784128379575e+02, -7.2689156077415717e+01], 
            "evaluate_basis_derivatives_16_2": [0.0, 0.0, 0.0, 0.0, 0.0, 0.0, 0.0, 0.0, 0.0, 0.0, 0.0, 0.0, 1.1406197080457712e+03, -1.5325364716474297e+02, -1.5325365625183716e+02, 1.7054289350818948e+01, 3.2675538189435474e+02, 2.7211521793413550e+02, 2.7211522380479147e+02, -1.1522990215744511e+02], 
            "evaluate_basis_derivatives_17_0": [0.0, 0.0, 0.0, -4.9402050505634875e+01, -1.2281618807652298e+02], 
            "evaluate_basis_derivatives_17_1": [0.0, 0.0, 0.0, 0.0, 0.0, 0.0, 2.7426464845730311e+02, -4.1820890764640851e+01, 1.5738972802366192e+02, 3.0396393971385288e+02], 
            "evaluate_basis_derivatives_17_2": [0.0, 0.0, 0.0, 0.0, 0.0, 0.0, 0.0, 0.0, 0.0, 0.0, 0.0, 0.0, -4.6453836881816505e+02, -3.6117848541087358e+02, -3.6117849910586028e+02, 4.9961505975212737e+02, 2.3253446452938192e+01, -5.5603511711637054e+02, -5.5603513013491602e+02, 5.2825174649184731e+01], 
            "evaluate_basis_derivatives_18_0": [0.0, 0.0, 0.0, 1.1565921382370426e+02, -4.8836148093764322e+01], 
            "evaluate_basis_derivatives_18_1": [0.0, 0.0, 0.0, 0.0, 0.0, 0.0, -1.1104524227590682e+02, -3.0279753847399604e+02, 1.8802037176517163e+02, -1.8836689584382538e+02], 
            "evaluate_basis_derivatives_18_2": [0.0, 0.0, 0.0, 0.0, 0.0, 0.0, 0.0, 0.0, 0.0, 0.0, 0.0, 0.0, -4.9962633640535239e+02, 8.3336670370702313e+02, 8.3336672440980135e+02, -1.6795091113939259e+02, -3.2744810834238399e+02, 7.2580045769278854e+01, 7.2580045406592546e+01, 6.7227967172567867e+02], 
            "evaluate_basis_derivatives_19_0": [0.0, 0.0, 0.0, -4.5200635186791082e+01, 2.3454551631506962e+02], 
            "evaluate_basis_derivatives_19_1": [0.0, 0.0, 0.0, 0.0, 0.0, 0.0, -4.2322109797024450e+02, 5.7341949414503267e+02, -5.7026684674838089e+02, -8.6930340044499189e+01], 
            "evaluate_basis_derivatives_19_2": [0.0, 0.0, 0.0, 0.0, 0.0, 0.0, 0.0, 0.0, 0.0, 0.0, 0.0, 0.0, 1.9164838445063415e+03, -7.8555673712610155e+02, -7.8555675433762701e+02, -7.2326635722353797e+02, 6.2314437476515604e+02, 7.6908209188622197e+02, 7.6908212262959626e+02, -1.3755500413763184e+03], 
            "evaluate_basis_derivatives_20_0": [0.0, 0.0, 0.0, 3.2738699370100574e+02, 1.9700708791091407e+02], 
            "evaluate_basis_derivatives_20_1": [0.0, 0.0, 0.0, 0.0, 0.0, 0.0, -5.4647567503501148e+02, -9.0696076220940768e+02, -1.4787922297230739e+02, -8.6502858539691124e+02], 
            "evaluate_basis_derivatives_20_2": [0.0, 0.0, 0.0, 0.0, 0.0, 0.0, 0.0, 0.0, 0.0, 0.0, 0.0, 0.0, 3.8787694975248678e+02, 1.3515894313873487e+03, 1.3515894420835498e+03, 1.1055675882416115e+03, -2.2649003449159409e+01, 5.0048198208757503e+02, 5.0048195469193047e+02, 2.4769780589335733e+03], 
            "evaluate_basis_derivatives_21_0": [0.0, 0.0, 0.0, 5.7708426681261210e+02, 3.1342538917724590e+02], 
            "evaluate_basis_derivatives_21_1": [0.0, 0.0, 0.0, 0.0, 0.0, 0.0, -1.7019217557904003e+03, -4.4149241998205093e+02, -6.5060759474084557e+02, -7.9796250145965610e+02], 
            "evaluate_basis_derivatives_21_2": [0.0, 0.0, 0.0, 0.0, 0.0, 0.0, 0.0, 0.0, 0.0, 0.0, 0.0, 0.0, 3.1527097156834097e+03, 1.1701909796675166e+03, 1.1701909816393425e+03, -2.9712788322094809e+02, 6.2150696493052692e+02, 1.4417885961939764e+03, 1.4417886147344011e+03, 8.0562300503566814e+02], 
            "evaluate_basis_derivatives_22_0": [0.0, 0.0, 0.0, -6.0270974018872653e+02, -2.8416058412253574e+02], 
            "evaluate_basis_derivatives_22_1": [0.0, 0.0, 0.0, 0.0, 0.0, 0.0, 1.3861490089875729e+03, 1.0975623524340810e+03, 4.1378892138910464e+02, 1.1053916734964112e+03], 
            "evaluate_basis_derivatives_22_2": [0.0, 0.0, 0.0, 0.0, 0.0, 0.0, 0.0, 0.0, 0.0, 0.0, 0.0, 0.0, -1.9656338888961182e+03, -1.9185828130949340e+03, -1.9185828246113629e+03, -9.2703462020004940e+02, -2.9548189309557574e+02, -1.1261246101748711e+03, -1.1261245911776173e+03, -2.7220954152276531e+03], 
            "evaluate_basis_derivatives_all_0": [1.0000000000000000e+00, 0.0, 0.0, 0.0, 0.0, 0.0, 1.0000000000000000e+00, 0.0, 0.0, 0.0, 0.0, 0.0, 2.8610071678580171e+00, 0.0, 0.0, 0.0, 0.0, 6.1881163893169173e+00, 0.0, 0.0, 0.0, 0.0, 1.4984118131434853e+01, 0.0, 0.0, 0.0, 0.0, -2.0254997816349125e+01, 0.0, 0.0, 0.0, 0.0, -1.4710349887246432e+01, 0.0, 0.0, 0.0, 0.0, 1.1932105742404252e+01, 0.0, 0.0, 0.0, 0.0, 0.0, 1.0481154942813814e+02, 2.7972957853175284e+01, 0.0, 0.0, 0.0, -3.7739692219970976e+02, -1.0072278835097896e+02, 0.0, 0.0, 0.0, 3.1847372143146447e+02, 8.4996868851625607e+01, 0.0, 0.0, 0.0, -2.8508702187263275e+01, -3.3895371677362370e+01, 0.0, 0.0, 0.0, 1.6124898482872092e+02, 1.9171672205840173e+02, 0.0, 0.0, 0.0, -1.9785576672955378e+02, -2.3524028611190033e+02, 0.0, 0.0, 0.0, 5.0157020638416064e+01, 3.4708456345880137e+01, 0.0, 0.0, 0.0, 1.8338069968878722e+02, 1.2689870130142963e+02, 0.0, 0.0, 0.0, 1.1456146119355567e+02, 7.9276064999777120e+01, 0.0, 0.0, 0.0, -4.9402050505634875e+01, -1.2281618807652298e+02, 0.0, 0.0, 0.0, 1.1565921382370426e+02, -4.8836148093764322e+01, 0.0, 0.0, 0.0, -4.5200635186791082e+01, 2.3454551631506962e+02, 0.0, 0.0, 0.0, 3.2738699370100574e+02, 1.9700708791091407e+02, 0.0, 0.0, 0.0, 5.7708426681261210e+02, 3.1342538917724590e+02, 0.0, 0.0, 0.0, -6.0270974018872653e+02, -2.8416058412253574e+02], 
            "evaluate_basis_derivatives_all_1": [0.0, 0.0, 0.0, 0.0, 0.0, 0.0, 0.0, 0.0, 0.0, 0.0, 0.0, 0.0, 0.0, 0.0, 0.0, 0.0, 0.0, 0.0, 0.0, 0.0, 0.0, 0.0, 0.0, 0.0, 4.1830166325985907e-01, -1.1137281139441237e+01, 0.0, 0.0, 0.0, 0.0, 0.0, 0.0, 0.0, 0.0, -1.6802284432419185e+01, 3.1931942336532431e+00, 0.0, 0.0, 0.0, 0.0, 0.0, 0.0, 0.0, 0.0, -2.5052630170190362e+01, -2.0112674925364093e+01, 0.0, 0.0, 0.0, 0.0, 0.0, 0.0, 0.0, 0.0, 4.2102045766998742e+01, 1.0339616415170878e+01, 0.0, 0.0, 0.0, 0.0, 0.0, 0.0, 0.0, 0.0, 1.2560631577397444e+01, 3.3544504833147194e+01, 0.0, 0.0, 0.0, 0.0, 0.0, 0.0, 0.0, 0.0, -1.3226063771129475e+01, -1.5827359122238521e+01, 0.0, 0.0, 0.0, 0.0, 0.0, 0.0, 0.0, 0.0, 0.0, 0.0, -4.1786520480353693e+02, 5.7354662403491005e+01, -8.0545460434381468e+01, -1.0076309093810244e+02, 0.0, 0.0, 0.0, 0.0, 0.0, 0.0, 1.2330389945189972e+03, 1.5574383280758443e+02, 2.1754117824672738e+02, 4.5950302976641859e+02, 0.0, 0.0, 0.0, 0.0, 0.0, 0.0, -8.5873630102120433e+02, -4.0626728055018918e+02, -1.3505937346363208e+02, -4.6111202208120852e+02, 0.0, 0.0, 0.0, 0.0, 0.0, 0.0, 4.6310293882878824e+01, 1.2000850374664167e+02, -5.3590106441436376e+00, 1.9350155021340467e+02, 0.0, 0.0, 0.0, 0.0, 0.0, 0.0, -4.0982144289964174e+02, -4.0803941391795394e+02, -1.4551552812417901e+02, -7.7256914282781611e+02, 0.0, 0.0, 0.0, 0.0, 0.0, 0.0, 6.6707533562837511e+02, 2.5239861819256578e+02, 3.7379496193540149e+02, 6.5277298747403756e+02, 0.0, 0.0, 0.0, 0.0, 0.0, 0.0, -4.2887591119830404e+01, -2.1113794648046931e+02, 5.4875606419730047e+00, -1.9692425689198024e+02, 0.0, 0.0, 0.0, 0.0, 0.0, 0.0, -4.1698418381229970e+02, -2.9561161558850000e+02, -1.5998125567365389e+02, -3.9035808717135296e+02, 0.0, 0.0, 0.0, 0.0, 0.0, 0.0, -4.4593914143555236e+02, 6.2689980340816078e+01, -2.2826784128379575e+02, -7.2689156077415717e+01, 0.0, 0.0, 0.0, 0.0, 0.0, 0.0, 2.7426464845730311e+02, -4.1820890764640851e+01, 1.5738972802366192e+02, 3.0396393971385288e+02, 0.0, 0.0, 0.0, 0.0, 0.0, 0.0, -1.1104524227590682e+02, -3.0279753847399604e+02, 1.8802037176517163e+02, -1.8836689584382538e+02, 0.0, 0.0, 0.0, 0.0, 0.0, 0.0, -4.2322109797024450e+02, 5.7341949414503267e+02, -5.7026684674838089e+02, -8.6930340044499189e+01, 0.0, 0.0, 0.0, 0.0, 0.0, 0.0, -5.4647567503501148e+02, -9.0696076220940768e+02, -1.4787922297230739e+02, -8.6502858539691124e+02, 0.0, 0.0, 0.0, 0.0, 0.0, 0.0, -1.7019217557904003e+03, -4.4149241998205093e+02, -6.5060759474084557e+02, -7.9796250145965610e+02, 0.0, 0.0, 0.0, 0.0, 0.0, 0.0, 1.3861490089875729e+03, 1.0975623524340810e+03, 4.1378892138910464e+02, 1.1053916734964112e+03], 
            "evaluate_basis_derivatives_all_2": [0.0, 0.0, 0.0, 0.0, 0.0, 0.0, 0.0, 0.0, 0.0, 0.0, 0.0, 0.0, 0.0, 0.0, 0.0, 0.0, 0.0, 0.0, 0.0, 0.0, 0.0, 0.0, 0.0, 0.0, 0.0, 0.0, 0.0, 0.0, 0.0, 0.0, 0.0, 0.0, 0.0, 0.0, 0.0, 0.0, 0.0, 0.0, 0.0, 0.0, 0.0, 0.0, 0.0, 0.0, 0.0, 0.0, 0.0, 0.0, 2.9299184886074414e-02, -7.8009583790731085e-01, -7.8009552734581433e-01, 2.0770049714109000e+01, 0.0, 0.0, 0.0, 0.0, 0.0, 0.0, 0.0, 0.0, 0.0, 0.0, 0.0, 0.0, 0.0, 0.0, 0.0, 0.0, 2.2359541075839978e+01, -4.2493243399802800e+00, -4.2493242137911515e+00, 8.0756367053772460e-01, 0.0, 0.0, 0.0, 0.0, 0.0, 0.0, 0.0, 0.0, 0.0, 0.0, 0.0, 0.0, 0.0, 0.0, 0.0, 0.0, 2.0770050562393401e+01, 1.6674547634597520e+01, 1.6674547634597520e+01, 1.3386608664395190e+01, 0.0, 0.0, 0.0, 0.0, 0.0, 0.0, 0.0, 0.0, 0.0, 0.0, 0.0, 0.0, 0.0, 0.0, 0.0, 0.0, -4.3100292690195282e+01, -1.3205319095727823e+01, -1.3205318911355452e+01, 6.5758775909102241e+00, 0.0, 0.0, 0.0, 0.0, 0.0, 0.0, 0.0, 0.0, 0.0, 0.0, 0.0, 0.0, 0.0, 0.0, 0.0, 0.0, 1.5601915654084806e+00, -2.0143776173467209e+01, -2.0143776357839585e+01, -3.3349094919700597e+01, 0.0, 0.0, 0.0, 0.0, 0.0, 0.0, 0.0, 0.0, 0.0, 0.0, 0.0, 0.0, 0.0, 0.0, 0.0, 0.0, -1.6187906851871934e+00, 2.1703967965189268e+01, 2.1703967528438628e+01, -8.1910056499146062e+00, 0.0, 0.0, 0.0, 0.0, 0.0, 0.0, 0.0, 0.0, 0.0, 0.0, 0.0, 0.0, 0.0, 0.0, 0.0, 0.0, 0.0, 0.0, 0.0, 0.0, 1.1004331003377451e+03, -1.4561637372915419e+02, -1.4561638304304699e+02, 1.5602861964202376e+01, 1.1529727943069433e+02, 3.1230182339282891e+02, 3.1230182807009226e+02, -1.2286717483464186e+02, 0.0, 0.0, 0.0, 0.0, 0.0, 0.0, 0.0, 0.0, 0.0, 0.0, 0.0, 0.0, -2.6380560470748242e+03, -4.2761217235186973e+02, -4.2761216418957548e+02, 1.2705175493303494e+02, -2.2224733431970026e+02, -9.7075369699322846e+02, -9.7075371181252490e+02, -3.1103903060416019e+02, 0.0, 0.0, 0.0, 0.0, 0.0, 0.0, 0.0, 0.0, 0.0, 0.0, 0.0, 0.0, 1.5221200442354434e+03, 7.7207533260113905e+02, 7.7207533371918385e+02, 2.5864108765669334e+02, 1.0710110696555876e+02, 6.4639475263395047e+02, 6.4639475124129808e+02, 9.6884499616187873e+02, 0.0, 0.0, 0.0, 0.0, 0.0, 0.0, 0.0, 0.0, 0.0, 0.0, 0.0, 0.0, 1.5717327967145934e+01, -2.0455513951051009e+02, -2.0455513720440933e+02, -2.4930993596163489e+02, -4.1816734436235947e-01, 1.9167527620746114e+01, 1.9167536324714888e+01, -7.2425437851717697e+02, 0.0, 0.0, 0.0, 0.0, 0.0, 0.0, 0.0, 0.0, 0.0, 0.0, 0.0, 0.0, 4.1760077212412932e+02, 9.6913550930065196e+02, 9.6913551834988334e+02, 4.0030046219499604e+02, -2.2265960418278610e+01, 5.0564303339805429e+02, 5.0564301747397599e+02, 1.9306224745555839e+03, 0.0, 0.0, 0.0, 0.0, 0.0, 0.0, 0.0, 0.0, 0.0, 0.0, 0.0, 0.0, -1.3701343116554524e+03, -6.5005861771297714e+02, -6.5005861883102205e+02, -1.6068400669014090e+02, -2.9641666860028454e+02, -7.9838048521394171e+02, -7.9838048382128932e+02, -1.0908617110500406e+03, 0.0, 0.0, 0.0, 0.0, 0.0, 0.0, 0.0, 0.0, 0.0, 0.0, 0.0, 0.0, -1.5450269002576761e+01, 1.9744469224691500e+02, 1.9744469277153087e+02, 4.3862549410804706e+02, 4.2819744985047237e-01, -1.9434582768885548e+01, -1.9434591366536552e+01, 7.3136482463749871e+02, 0.0, 0.0, 0.0, 0.0, 0.0, 0.0, 0.0, 0.0, 0.0, 0.0, 0.0, 0.0, 4.3428042291307713e+02, 7.5785329517359264e+02, 7.5785330485411566e+02, -1.7297905563734201e+02, -2.3656504213841117e+01, 5.5140820851856324e+02, 5.5140820985290554e+02, 4.7930953433827676e+02, 0.0, 0.0, 0.0, 0.0, 0.0, 0.0, 0.0, 0.0, 0.0, 0.0, 0.0, 0.0, 1.1406197080457712e+03, -1.5325364716474297e+02, -1.5325365625183716e+02, 1.7054289350818948e+01, 3.2675538189435474e+02, 2.7211521793413550e+02, 2.7211522380479147e+02, -1.1522990215744511e+02, 0.0, 0.0, 0.0, 0.0, 0.0, 0.0, 0.0, 0.0, 0.0, 0.0, 0.0, 0.0, -4.6453836881816505e+02, -3.6117848541087358e+02, -3.6117849910586028e+02, 4.9961505975212737e+02, 2.3253446452938192e+01, -5.5603511711637054e+02, -5.5603513013491602e+02, 5.2825174649184731e+01, 0.0, 0.0, 0.0, 0.0, 0.0, 0.0, 0.0, 0.0, 0.0, 0.0, 0.0, 0.0, -4.9962633640535239e+02, 8.3336670370702313e+02, 8.3336672440980135e+02, -1.6795091113939259e+02, -3.2744810834238399e+02, 7.2580045769278854e+01, 7.2580045406592546e+01, 6.7227967172567867e+02, 0.0, 0.0, 0.0, 0.0, 0.0, 0.0, 0.0, 0.0, 0.0, 0.0, 0.0, 0.0, 1.9164838445063415e+03, -7.8555673712610155e+02, -7.8555675433762701e+02, -7.2326635722353797e+02, 6.2314437476515604e+02, 7.6908209188622197e+02, 7.6908212262959626e+02, -1.3755500413763184e+03, 0.0, 0.0, 0.0, 0.0, 0.0, 0.0, 0.0, 0.0, 0.0, 0.0, 0.0, 0.0, 3.8787694975248678e+02, 1.3515894313873487e+03, 1.3515894420835498e+03, 1.1055675882416115e+03, -2.2649003449159409e+01, 5.0048198208757503e+02, 5.0048195469193047e+02, 2.4769780589335733e+03, 0.0, 0.0, 0.0, 0.0, 0.0, 0.0, 0.0, 0.0, 0.0, 0.0, 0.0, 0.0, 3.1527097156834097e+03, 1.1701909796675166e+03, 1.1701909816393425e+03, -2.9712788322094809e+02, 6.2150696493052692e+02, 1.4417885961939764e+03, 1.4417886147344011e+03, 8.0562300503566814e+02, 0.0, 0.0, 0.0, 0.0, 0.0, 0.0, 0.0, 0.0, 0.0, 0.0, 0.0, 0.0, -1.9656338888961182e+03, -1.9185828130949340e+03, -1.9185828246113629e+03, -9.2703462020004940e+02, -2.9548189309557574e+02, -1.1261246101748711e+03, -1.1261245911776173e+03, -2.7220954152276531e+03], 
            "evaluate_dof_0": 5.1498232303368663e-01, 
            "evaluate_dof_1": 2.0599292921347465e+00, 
            "evaluate_dof_2": 2.7713070000000006e+00, 
            "evaluate_dof_3": 3.8725830000000010e+00, 
            "evaluate_dof_4": 6.9553890000000003e+00, 
            "evaluate_dof_5": 5.3986500000000008e+00, 
            "evaluate_dof_6": 4.7798100000000003e+00, 
            "evaluate_dof_7": 3.6497519999999999e+00, 
            "evaluate_dof_8": -5.3491941449999993e+00, 
            "evaluate_dof_9": -6.2348408999999982e+00, 
            "evaluate_dof_10": -7.1293433429999986e+00, 
            "evaluate_dof_11": 2.0742487920000010e+00, 
            "evaluate_dof_12": 2.6405794800000009e+00, 
            "evaluate_dof_13": 3.2299852200000014e+00, 
            "evaluate_dof_14": 5.6213629875000004e+00, 
            "evaluate_dof_15": 6.2313432479999999e+00, 
            "evaluate_dof_16": 6.5614855995000010e+00, 
            "evaluate_dof_17": 2.3263142760000011e+00, 
            "evaluate_dof_18": 2.4878321820000013e+00, 
            "evaluate_dof_19": 2.8567906290000016e+00, 
            "evaluate_dof_20": -7.1894901780000007e+00, 
            "evaluate_dof_21": -7.6886623710000013e+00, 
            "evaluate_dof_22": -8.8289309745000004e+00, 
            "evaluate_dofs": [5.1498232303368663e-01, 2.0599292921347465e+00, 2.7713070000000006e+00, 3.8725830000000010e+00, 6.9553890000000003e+00, 5.3986500000000008e+00, 4.7798100000000003e+00, 3.6497519999999999e+00, -5.3491941449999993e+00, -6.2348408999999982e+00, -7.1293433429999986e+00, 2.0742487920000010e+00, 2.6405794800000009e+00, 3.2299852200000014e+00, 5.6213629875000004e+00, 6.2313432479999999e+00, 6.5614855995000010e+00, 2.3263142760000011e+00, 2.4878321820000013e+00, 2.8567906290000016e+00, -7.1894901780000007e+00, -7.6886623710000013e+00, -8.8289309745000004e+00], 
            "interpolate_vertex_values": [5.1498232303368663e-01, 2.0599292921347465e+00, 2.7713070000000006e+00, 4.9267680000000063e+00, 7.6980750000000064e+00, 5.1498232303368663e-01, 2.0599292921347465e+00, 3.8725830000000010e+00, 6.8845920000000049e+00, 1.0757175000000009e+01, 5.1498232303368663e-01, 2.0599292921347465e+00, 6.9553890000000003e+00, 1.2365136000000003e+01, 1.9320525000000007e+01], 
            "tabulate_dof_coordinates": [8.1699999182999994e-01, 6.3033332703000000e-01, 8.1699999182999994e-01, 6.3033332703000000e-01, 9.0300000000000002e-01, 3.4100000000000003e-01, 5.6100000000000005e-01, 7.6700000000000002e-01, 9.8699999999999999e-01, 7.8300000000000003e-01, 7.7400000000000002e-01, 7.7500000000000002e-01, 9.4500000000000006e-01, 5.6200000000000006e-01, 7.3199999999999998e-01, 5.5400000000000005e-01, 6.6750000000000009e-01, 7.7100000000000002e-01, 7.7400000000000002e-01, 7.7500000000000002e-01, 8.8049999999999995e-01, 7.7900000000000003e-01, 9.2400000000000004e-01, 4.5150000000000001e-01, 9.4500000000000006e-01, 5.6200000000000006e-01, 9.6599999999999997e-01, 6.7250000000000010e-01, 8.1750000000000000e-01, 4.4750000000000001e-01, 7.3199999999999998e-01, 5.5400000000000005e-01, 6.4650000000000007e-01, 6.6050000000000009e-01, 8.3850000000000002e-01, 5.5800000000000005e-01, 7.5300000000000011e-01, 6.6449999999999998e-01, 8.5949999999999993e-01, 6.6850000000000009e-01, 8.3850000000000002e-01, 5.5800000000000005e-01, 7.5300000000000011e-01, 6.6449999999999998e-01, 8.5949999999999993e-01, 6.6850000000000009e-01], 
            "num_sub_elements": 3, 
            "finite_element_0": {
                "cell_shape": 1, 
                "space_dimension": 2, 
                "value_rank": 1, 
                "value_dimension_0": 2, 
                "evaluate_basis:_0": [1.0000000000000000e+00, 0.0], 
                "evaluate_basis:_1": [0.0, 1.0000000000000000e+00], 
                "evaluate_basis_all": [1.0000000000000000e+00, 0.0, 0.0, 1.0000000000000000e+00, 0.0, 0.0, 0.0, 0.0, 0.0, 0.0, 0.0, 0.0, 0.0, 0.0, 0.0, 0.0], 
                "evaluate_basis_derivatives_0_0": [1.0000000000000000e+00, 0.0], 
                "evaluate_basis_derivatives_0_1": [0.0, 0.0, 0.0, 0.0], 
                "evaluate_basis_derivatives_0_2": [0.0, 0.0, 0.0, 0.0, 0.0, 0.0, 0.0, 0.0], 
                "evaluate_basis_derivatives_1_0": [0.0, 1.0000000000000000e+00], 
                "evaluate_basis_derivatives_1_1": [0.0, 0.0, 0.0, 0.0], 
                "evaluate_basis_derivatives_1_2": [0.0, 0.0, 0.0, 0.0, 0.0, 0.0, 0.0, 0.0], 
                "evaluate_basis_derivatives_all_0": [1.0000000000000000e+00, 0.0, 0.0, 1.0000000000000000e+00], 
                "evaluate_basis_derivatives_all_1": [0.0, 0.0, 0.0, 0.0, 0.0, 0.0, 0.0, 0.0], 
                "evaluate_basis_derivatives_all_2": [0.0, 0.0, 0.0, 0.0, 0.0, 0.0, 0.0, 0.0, 0.0, 0.0, 0.0, 0.0, 0.0, 0.0, 0.0, 0.0], 
                "evaluate_dof_0": 5.1498232303368663e-01, 
                "evaluate_dof_1": 2.0599292921347465e+00, 
                "evaluate_dofs": [5.1498232303368663e-01, 2.0599292921347465e+00], 
                "interpolate_vertex_values": [5.1498232303368663e-01, 2.0599292921347465e+00, 5.1498232303368663e-01, 2.0599292921347465e+00, 5.1498232303368663e-01, 2.0599292921347465e+00], 
                "tabulate_dof_coordinates": [8.1699999182999994e-01, 6.3033332703000000e-01, 8.1699999182999994e-01, 6.3033332703000000e-01], 
                "num_sub_elements": 2, 
                "finite_element_0": {
                    "cell_shape": 1, 
                    "space_dimension": 1, 
                    "value_rank": 0, 
                    "evaluate_basis:_0": [1.0000000000000000e+00], 
                    "evaluate_basis_all": [1.0000000000000000e+00, 0.0, 0.0, 0.0], 
                    "evaluate_basis_derivatives_0_0": [1.0000000000000000e+00], 
                    "evaluate_basis_derivatives_0_1": [0.0, 0.0], 
                    "evaluate_basis_derivatives_0_2": [0.0, 0.0, 0.0, 0.0], 
                    "evaluate_basis_derivatives_all_0": [1.0000000000000000e+00], 
                    "evaluate_basis_derivatives_all_1": [0.0, 0.0], 
                    "evaluate_basis_derivatives_all_2": [0.0, 0.0, 0.0, 0.0], 
                    "evaluate_dof_0": 5.1498232303368663e-01, 
                    "evaluate_dofs": [5.1498232303368663e-01], 
                    "interpolate_vertex_values": [5.1498232303368663e-01, 5.1498232303368663e-01, 5.1498232303368663e-01], 
                    "tabulate_dof_coordinates": [8.1699999182999994e-01, 6.3033332703000000e-01], 
                    "num_sub_elements": 0, 
                },
                "finite_element_1": {
                    "cell_shape": 1, 
                    "space_dimension": 1, 
                    "value_rank": 0, 
                    "evaluate_basis:_0": [1.0000000000000000e+00], 
                    "evaluate_basis_all": [1.0000000000000000e+00, 0.0, 0.0, 0.0], 
                    "evaluate_basis_derivatives_0_0": [1.0000000000000000e+00], 
                    "evaluate_basis_derivatives_0_1": [0.0, 0.0], 
                    "evaluate_basis_derivatives_0_2": [0.0, 0.0, 0.0, 0.0], 
                    "evaluate_basis_derivatives_all_0": [1.0000000000000000e+00], 
                    "evaluate_basis_derivatives_all_1": [0.0, 0.0], 
                    "evaluate_basis_derivatives_all_2": [0.0, 0.0, 0.0, 0.0], 
                    "evaluate_dof_0": 5.1498232303368663e-01, 
                    "evaluate_dofs": [5.1498232303368663e-01], 
                    "interpolate_vertex_values": [5.1498232303368663e-01, 5.1498232303368663e-01, 5.1498232303368663e-01], 
                    "tabulate_dof_coordinates": [8.1699999182999994e-01, 6.3033332703000000e-01], 
                    "num_sub_elements": 0, 
                },
            },
            "finite_element_1": {
                "cell_shape": 1, 
                "space_dimension": 6, 
                "value_rank": 0, 
                "evaluate_basis:_0": [2.8610071678580171e+00], 
                "evaluate_basis:_1": [6.1881163893169173e+00], 
                "evaluate_basis:_2": [1.4984118131434853e+01], 
                "evaluate_basis:_3": [-2.0254997816349125e+01], 
                "evaluate_basis:_4": [-1.4710349887246432e+01], 
                "evaluate_basis:_5": [1.1932105742404252e+01], 
                "evaluate_basis_all": [2.8610071678580171e+00, 6.1881163893169173e+00, 1.4984118131434853e+01, -2.0254997816349125e+01, -1.4710349887246432e+01, 1.1932105742404252e+01, 0.0, 0.0, 0.0, 0.0, 0.0, 0.0, 0.0, 0.0, 0.0, 0.0, 0.0, 0.0, 0.0, 0.0, 0.0, 0.0, 0.0, 0.0], 
                "evaluate_basis_derivatives_0_0": [2.8610071678580171e+00], 
                "evaluate_basis_derivatives_0_1": [4.1830166325985907e-01, -1.1137281139441237e+01], 
                "evaluate_basis_derivatives_0_2": [2.9299184886074414e-02, -7.8009583790731085e-01, -7.8009552734581433e-01, 2.0770049714109000e+01], 
                "evaluate_basis_derivatives_1_0": [6.1881163893169173e+00], 
                "evaluate_basis_derivatives_1_1": [-1.6802284432419185e+01, 3.1931942336532431e+00], 
                "evaluate_basis_derivatives_1_2": [2.2359541075839978e+01, -4.2493243399802800e+00, -4.2493242137911515e+00, 8.0756367053772460e-01], 
                "evaluate_basis_derivatives_2_0": [1.4984118131434853e+01], 
                "evaluate_basis_derivatives_2_1": [-2.5052630170190362e+01, -2.0112674925364093e+01], 
                "evaluate_basis_derivatives_2_2": [2.0770050562393401e+01, 1.6674547634597520e+01, 1.6674547634597520e+01, 1.3386608664395190e+01], 
                "evaluate_basis_derivatives_3_0": [-2.0254997816349125e+01], 
                "evaluate_basis_derivatives_3_1": [4.2102045766998742e+01, 1.0339616415170878e+01], 
                "evaluate_basis_derivatives_3_2": [-4.3100292690195282e+01, -1.3205319095727823e+01, -1.3205318911355452e+01, 6.5758775909102241e+00], 
                "evaluate_basis_derivatives_4_0": [-1.4710349887246432e+01], 
                "evaluate_basis_derivatives_4_1": [1.2560631577397444e+01, 3.3544504833147194e+01], 
                "evaluate_basis_derivatives_4_2": [1.5601915654084806e+00, -2.0143776173467209e+01, -2.0143776357839585e+01, -3.3349094919700597e+01], 
                "evaluate_basis_derivatives_5_0": [1.1932105742404252e+01], 
                "evaluate_basis_derivatives_5_1": [-1.3226063771129475e+01, -1.5827359122238521e+01], 
                "evaluate_basis_derivatives_5_2": [-1.6187906851871934e+00, 2.1703967965189268e+01, 2.1703967528438628e+01, -8.1910056499146062e+00], 
                "evaluate_basis_derivatives_all_0": [2.8610071678580171e+00, 6.1881163893169173e+00, 1.4984118131434853e+01, -2.0254997816349125e+01, -1.4710349887246432e+01, 1.1932105742404252e+01], 
                "evaluate_basis_derivatives_all_1": [4.1830166325985907e-01, -1.1137281139441237e+01, -1.6802284432419185e+01, 3.1931942336532431e+00, -2.5052630170190362e+01, -2.0112674925364093e+01, 4.2102045766998742e+01, 1.0339616415170878e+01, 1.2560631577397444e+01, 3.3544504833147194e+01, -1.3226063771129475e+01, -1.5827359122238521e+01], 
                "evaluate_basis_derivatives_all_2": [2.9299184886074414e-02, -7.8009583790731085e-01, -7.8009552734581433e-01, 2.0770049714109000e+01, 2.2359541075839978e+01, -4.2493243399802800e+00, -4.2493242137911515e+00, 8.0756367053772460e-01, 2.0770050562393401e+01, 1.6674547634597520e+01, 1.6674547634597520e+01, 1.3386608664395190e+01, -4.3100292690195282e+01, -1.3205319095727823e+01, -1.3205318911355452e+01, 6.5758775909102241e+00, 1.5601915654084806e+00, -2.0143776173467209e+01, -2.0143776357839585e+01, -3.3349094919700597e+01, -1.6187906851871934e+00, 2.1703967965189268e+01, 2.1703967528438628e+01, -8.1910056499146062e+00], 
                "evaluate_dof_0": 3.0792300000000006e-01, 
                "evaluate_dof_1": 4.3028700000000003e-01, 
                "evaluate_dof_2": 7.7282099999999998e-01, 
                "evaluate_dof_3": 5.9984999999999999e-01, 
                "evaluate_dof_4": 5.3109000000000006e-01, 
                "evaluate_dof_5": 4.0552800000000000e-01, 
                "evaluate_dofs": [3.0792300000000006e-01, 4.3028700000000003e-01, 7.7282099999999998e-01, 5.9984999999999999e-01, 5.3109000000000006e-01, 4.0552800000000000e-01], 
                "interpolate_vertex_values": [3.0792300000000006e-01, 4.3028700000000003e-01, 7.7282099999999998e-01], 
                "tabulate_dof_coordinates": [9.0300000000000002e-01, 3.4100000000000003e-01, 5.6100000000000005e-01, 7.6700000000000002e-01, 9.8699999999999999e-01, 7.8300000000000003e-01, 7.7400000000000002e-01, 7.7500000000000002e-01, 9.4500000000000006e-01, 5.6200000000000006e-01, 7.3199999999999998e-01, 5.5400000000000005e-01], 
                "num_sub_elements": 0, 
            },
            "finite_element_2": {
                "cell_shape": 1, 
                "space_dimension": 15, 
                "value_rank": 1, 
                "value_dimension_0": 2, 
                "evaluate_basis:_0": [1.0481154942813814e+02, 2.7972957853175284e+01], 
                "evaluate_basis:_1": [-3.7739692219970976e+02, -1.0072278835097896e+02], 
                "evaluate_basis:_2": [3.1847372143146447e+02, 8.4996868851625607e+01], 
                "evaluate_basis:_3": [-2.8508702187263275e+01, -3.3895371677362370e+01], 
                "evaluate_basis:_4": [1.6124898482872092e+02, 1.9171672205840173e+02], 
                "evaluate_basis:_5": [-1.9785576672955378e+02, -2.3524028611190033e+02], 
                "evaluate_basis:_6": [5.0157020638416064e+01, 3.4708456345880137e+01], 
                "evaluate_basis:_7": [1.8338069968878722e+02, 1.2689870130142963e+02], 
                "evaluate_basis:_8": [1.1456146119355567e+02, 7.9276064999777120e+01], 
                "evaluate_basis:_9": [-4.9402050505634875e+01, -1.2281618807652298e+02], 
                "evaluate_basis:_10": [1.1565921382370426e+02, -4.8836148093764322e+01], 
                "evaluate_basis:_11": [-4.5200635186791082e+01, 2.3454551631506962e+02], 
                "evaluate_basis:_12": [3.2738699370100574e+02, 1.9700708791091407e+02], 
                "evaluate_basis:_13": [5.7708426681261210e+02, 3.1342538917724590e+02], 
                "evaluate_basis:_14": [-6.0270974018872653e+02, -2.8416058412253574e+02], 
                "evaluate_basis_all": [1.0481154942813814e+02, 2.7972957853175284e+01, -3.7739692219970976e+02, -1.0072278835097896e+02, 3.1847372143146447e+02, 8.4996868851625607e+01, -2.8508702187263275e+01, -3.3895371677362370e+01, 1.6124898482872092e+02, 1.9171672205840173e+02, -1.9785576672955378e+02, -2.3524028611190033e+02, 5.0157020638416064e+01, 3.4708456345880137e+01, 1.8338069968878722e+02, 1.2689870130142963e+02, 1.1456146119355567e+02, 7.9276064999777120e+01, -4.9402050505634875e+01, -1.2281618807652298e+02, 1.1565921382370426e+02, -4.8836148093764322e+01, -4.5200635186791082e+01, 2.3454551631506962e+02, 3.2738699370100574e+02, 1.9700708791091407e+02, 5.7708426681261210e+02, 3.1342538917724590e+02, -6.0270974018872653e+02, -2.8416058412253574e+02, 0.0, 0.0, 0.0, 0.0, 0.0, 0.0, 0.0, 0.0, 0.0, 0.0, 0.0, 0.0, 0.0, 0.0, 0.0, 0.0, 0.0, 0.0, 0.0, 0.0, 0.0, 0.0, 0.0, 0.0, 0.0, 0.0, 0.0, 0.0, 0.0, 0.0, 0.0, 0.0, 0.0, 0.0, 0.0, 0.0, 0.0, 0.0, 0.0, 0.0, 0.0, 0.0, 0.0, 0.0, 0.0, 0.0, 0.0, 0.0, 0.0, 0.0, 0.0, 0.0, 0.0, 0.0, 0.0, 0.0, 0.0, 0.0, 0.0, 0.0, 0.0, 0.0, 0.0, 0.0, 0.0, 0.0, 0.0, 0.0, 0.0, 0.0, 0.0, 0.0, 0.0, 0.0, 0.0, 0.0, 0.0, 0.0, 0.0, 0.0, 0.0, 0.0, 0.0, 0.0, 0.0, 0.0, 0.0, 0.0, 0.0, 0.0], 
                "evaluate_basis_derivatives_0_0": [1.0481154942813814e+02, 2.7972957853175284e+01], 
                "evaluate_basis_derivatives_0_1": [-4.1786520480353693e+02, 5.7354662403491005e+01, -8.0545460434381468e+01, -1.0076309093810244e+02], 
                "evaluate_basis_derivatives_0_2": [1.1004331003377451e+03, -1.4561637372915419e+02, -1.4561638304304699e+02, 1.5602861964202376e+01, 1.1529727943069433e+02, 3.1230182339282891e+02, 3.1230182807009226e+02, -1.2286717483464186e+02], 
                "evaluate_basis_derivatives_1_0": [-3.7739692219970976e+02, -1.0072278835097896e+02], 
                "evaluate_basis_derivatives_1_1": [1.2330389945189972e+03, 1.5574383280758443e+02, 2.1754117824672738e+02, 4.5950302976641859e+02], 
                "evaluate_basis_derivatives_1_2": [-2.6380560470748242e+03, -4.2761217235186973e+02, -4.2761216418957548e+02, 1.2705175493303494e+02, -2.2224733431970026e+02, -9.7075369699322846e+02, -9.7075371181252490e+02, -3.1103903060416019e+02], 
                "evaluate_basis_derivatives_2_0": [3.1847372143146447e+02, 8.4996868851625607e+01], 
                "evaluate_basis_derivatives_2_1": [-8.5873630102120433e+02, -4.0626728055018918e+02, -1.3505937346363208e+02, -4.6111202208120852e+02], 
                "evaluate_basis_derivatives_2_2": [1.5221200442354434e+03, 7.7207533260113905e+02, 7.7207533371918385e+02, 2.5864108765669334e+02, 1.0710110696555876e+02, 6.4639475263395047e+02, 6.4639475124129808e+02, 9.6884499616187873e+02], 
                "evaluate_basis_derivatives_3_0": [-2.8508702187263275e+01, -3.3895371677362370e+01], 
                "evaluate_basis_derivatives_3_1": [4.6310293882878824e+01, 1.2000850374664167e+02, -5.3590106441436376e+00, 1.9350155021340467e+02], 
                "evaluate_basis_derivatives_3_2": [1.5717327967145934e+01, -2.0455513951051009e+02, -2.0455513720440933e+02, -2.4930993596163489e+02, -4.1816734436235947e-01, 1.9167527620746114e+01, 1.9167536324714888e+01, -7.2425437851717697e+02], 
                "evaluate_basis_derivatives_4_0": [1.6124898482872092e+02, 1.9171672205840173e+02], 
                "evaluate_basis_derivatives_4_1": [-4.0982144289964174e+02, -4.0803941391795394e+02, -1.4551552812417901e+02, -7.7256914282781611e+02], 
                "evaluate_basis_derivatives_4_2": [4.1760077212412932e+02, 9.6913550930065196e+02, 9.6913551834988334e+02, 4.0030046219499604e+02, -2.2265960418278610e+01, 5.0564303339805429e+02, 5.0564301747397599e+02, 1.9306224745555839e+03], 
                "evaluate_basis_derivatives_5_0": [-1.9785576672955378e+02, -2.3524028611190033e+02], 
                "evaluate_basis_derivatives_5_1": [6.6707533562837511e+02, 2.5239861819256578e+02, 3.7379496193540149e+02, 6.5277298747403756e+02], 
                "evaluate_basis_derivatives_5_2": [-1.3701343116554524e+03, -6.5005861771297714e+02, -6.5005861883102205e+02, -1.6068400669014090e+02, -2.9641666860028454e+02, -7.9838048521394171e+02, -7.9838048382128932e+02, -1.0908617110500406e+03], 
                "evaluate_basis_derivatives_6_0": [5.0157020638416064e+01, 3.4708456345880137e+01], 
                "evaluate_basis_derivatives_6_1": [-4.2887591119830404e+01, -2.1113794648046931e+02, 5.4875606419730047e+00, -1.9692425689198024e+02], 
                "evaluate_basis_derivatives_6_2": [-1.5450269002576761e+01, 1.9744469224691500e+02, 1.9744469277153087e+02, 4.3862549410804706e+02, 4.2819744985047237e-01, -1.9434582768885548e+01, -1.9434591366536552e+01, 7.3136482463749871e+02], 
                "evaluate_basis_derivatives_7_0": [1.8338069968878722e+02, 1.2689870130142963e+02], 
                "evaluate_basis_derivatives_7_1": [-4.1698418381229970e+02, -2.9561161558850000e+02, -1.5998125567365389e+02, -3.9035808717135296e+02], 
                "evaluate_basis_derivatives_7_2": [4.3428042291307713e+02, 7.5785329517359264e+02, 7.5785330485411566e+02, -1.7297905563734201e+02, -2.3656504213841117e+01, 5.5140820851856324e+02, 5.5140820985290554e+02, 4.7930953433827676e+02], 
                "evaluate_basis_derivatives_8_0": [1.1456146119355567e+02, 7.9276064999777120e+01], 
                "evaluate_basis_derivatives_8_1": [-4.4593914143555236e+02, 6.2689980340816078e+01, -2.2826784128379575e+02, -7.2689156077415717e+01], 
                "evaluate_basis_derivatives_8_2": [1.1406197080457712e+03, -1.5325364716474297e+02, -1.5325365625183716e+02, 1.7054289350818948e+01, 3.2675538189435474e+02, 2.7211521793413550e+02, 2.7211522380479147e+02, -1.1522990215744511e+02], 
                "evaluate_basis_derivatives_9_0": [-4.9402050505634875e+01, -1.2281618807652298e+02], 
                "evaluate_basis_derivatives_9_1": [2.7426464845730311e+02, -4.1820890764640851e+01, 1.5738972802366192e+02, 3.0396393971385288e+02], 
                "evaluate_basis_derivatives_9_2": [-4.6453836881816505e+02, -3.6117848541087358e+02, -3.6117849910586028e+02, 4.9961505975212737e+02, 2.3253446452938192e+01, -5.5603511711637054e+02, -5.5603513013491602e+02, 5.2825174649184731e+01], 
                "evaluate_basis_derivatives_10_0": [1.1565921382370426e+02, -4.8836148093764322e+01], 
                "evaluate_basis_derivatives_10_1": [-1.1104524227590682e+02, -3.0279753847399604e+02, 1.8802037176517163e+02, -1.8836689584382538e+02], 
                "evaluate_basis_derivatives_10_2": [-4.9962633640535239e+02, 8.3336670370702313e+02, 8.3336672440980135e+02, -1.6795091113939259e+02, -3.2744810834238399e+02, 7.2580045769278854e+01, 7.2580045406592546e+01, 6.7227967172567867e+02], 
                "evaluate_basis_derivatives_11_0": [-4.5200635186791082e+01, 2.3454551631506962e+02], 
                "evaluate_basis_derivatives_11_1": [-4.2322109797024450e+02, 5.7341949414503267e+02, -5.7026684674838089e+02, -8.6930340044499189e+01], 
                "evaluate_basis_derivatives_11_2": [1.9164838445063415e+03, -7.8555673712610155e+02, -7.8555675433762701e+02, -7.2326635722353797e+02, 6.2314437476515604e+02, 7.6908209188622197e+02, 7.6908212262959626e+02, -1.3755500413763184e+03], 
                "evaluate_basis_derivatives_12_0": [3.2738699370100574e+02, 1.9700708791091407e+02], 
                "evaluate_basis_derivatives_12_1": [-5.4647567503501148e+02, -9.0696076220940768e+02, -1.4787922297230739e+02, -8.6502858539691124e+02], 
                "evaluate_basis_derivatives_12_2": [3.8787694975248678e+02, 1.3515894313873487e+03, 1.3515894420835498e+03, 1.1055675882416115e+03, -2.2649003449159409e+01, 5.0048198208757503e+02, 5.0048195469193047e+02, 2.4769780589335733e+03], 
                "evaluate_basis_derivatives_13_0": [5.7708426681261210e+02, 3.1342538917724590e+02], 
                "evaluate_basis_derivatives_13_1": [-1.7019217557904003e+03, -4.4149241998205093e+02, -6.5060759474084557e+02, -7.9796250145965610e+02], 
                "evaluate_basis_derivatives_13_2": [3.1527097156834097e+03, 1.1701909796675166e+03, 1.1701909816393425e+03, -2.9712788322094809e+02, 6.2150696493052692e+02, 1.4417885961939764e+03, 1.4417886147344011e+03, 8.0562300503566814e+02], 
                "evaluate_basis_derivatives_14_0": [-6.0270974018872653e+02, -2.8416058412253574e+02], 
                "evaluate_basis_derivatives_14_1": [1.3861490089875729e+03, 1.0975623524340810e+03, 4.1378892138910464e+02, 1.1053916734964112e+03], 
                "evaluate_basis_derivatives_14_2": [-1.9656338888961182e+03, -1.9185828130949340e+03, -1.9185828246113629e+03, -9.2703462020004940e+02, -2.9548189309557574e+02, -1.1261246101748711e+03, -1.1261245911776173e+03, -2.7220954152276531e+03], 
                "evaluate_basis_derivatives_all_0": [1.0481154942813814e+02, 2.7972957853175284e+01, -3.7739692219970976e+02, -1.0072278835097896e+02, 3.1847372143146447e+02, 8.4996868851625607e+01, -2.8508702187263275e+01, -3.3895371677362370e+01, 1.6124898482872092e+02, 1.9171672205840173e+02, -1.9785576672955378e+02, -2.3524028611190033e+02, 5.0157020638416064e+01, 3.4708456345880137e+01, 1.8338069968878722e+02, 1.2689870130142963e+02, 1.1456146119355567e+02, 7.9276064999777120e+01, -4.9402050505634875e+01, -1.2281618807652298e+02, 1.1565921382370426e+02, -4.8836148093764322e+01, -4.5200635186791082e+01, 2.3454551631506962e+02, 3.2738699370100574e+02, 1.9700708791091407e+02, 5.7708426681261210e+02, 3.1342538917724590e+02, -6.0270974018872653e+02, -2.8416058412253574e+02], 
                "evaluate_basis_derivatives_all_1": [-4.1786520480353693e+02, 5.7354662403491005e+01, -8.0545460434381468e+01, -1.0076309093810244e+02, 1.2330389945189972e+03, 1.5574383280758443e+02, 2.1754117824672738e+02, 4.5950302976641859e+02, -8.5873630102120433e+02, -4.0626728055018918e+02, -1.3505937346363208e+02, -4.6111202208120852e+02, 4.6310293882878824e+01, 1.2000850374664167e+02, -5.3590106441436376e+00, 1.9350155021340467e+02, -4.0982144289964174e+02, -4.0803941391795394e+02, -1.4551552812417901e+02, -7.7256914282781611e+02, 6.6707533562837511e+02, 2.5239861819256578e+02, 3.7379496193540149e+02, 6.5277298747403756e+02, -4.2887591119830404e+01, -2.1113794648046931e+02, 5.4875606419730047e+00, -1.9692425689198024e+02, -4.1698418381229970e+02, -2.9561161558850000e+02, -1.5998125567365389e+02, -3.9035808717135296e+02, -4.4593914143555236e+02, 6.2689980340816078e+01, -2.2826784128379575e+02, -7.2689156077415717e+01, 2.7426464845730311e+02, -4.1820890764640851e+01, 1.5738972802366192e+02, 3.0396393971385288e+02, -1.1104524227590682e+02, -3.0279753847399604e+02, 1.8802037176517163e+02, -1.8836689584382538e+02, -4.2322109797024450e+02, 5.7341949414503267e+02, -5.7026684674838089e+02, -8.6930340044499189e+01, -5.4647567503501148e+02, -9.0696076220940768e+02, -1.4787922297230739e+02, -8.6502858539691124e+02, -1.7019217557904003e+03, -4.4149241998205093e+02, -6.5060759474084557e+02, -7.9796250145965610e+02, 1.3861490089875729e+03, 1.0975623524340810e+03, 4.1378892138910464e+02, 1.1053916734964112e+03], 
                "evaluate_basis_derivatives_all_2": [1.1004331003377451e+03, -1.4561637372915419e+02, -1.4561638304304699e+02, 1.5602861964202376e+01, 1.1529727943069433e+02, 3.1230182339282891e+02, 3.1230182807009226e+02, -1.2286717483464186e+02, -2.6380560470748242e+03, -4.2761217235186973e+02, -4.2761216418957548e+02, 1.2705175493303494e+02, -2.2224733431970026e+02, -9.7075369699322846e+02, -9.7075371181252490e+02, -3.1103903060416019e+02, 1.5221200442354434e+03, 7.7207533260113905e+02, 7.7207533371918385e+02, 2.5864108765669334e+02, 1.0710110696555876e+02, 6.4639475263395047e+02, 6.4639475124129808e+02, 9.6884499616187873e+02, 1.5717327967145934e+01, -2.0455513951051009e+02, -2.0455513720440933e+02, -2.4930993596163489e+02, -4.1816734436235947e-01, 1.9167527620746114e+01, 1.9167536324714888e+01, -7.2425437851717697e+02, 4.1760077212412932e+02, 9.6913550930065196e+02, 9.6913551834988334e+02, 4.0030046219499604e+02, -2.2265960418278610e+01, 5.0564303339805429e+02, 5.0564301747397599e+02, 1.9306224745555839e+03, -1.3701343116554524e+03, -6.5005861771297714e+02, -6.5005861883102205e+02, -1.6068400669014090e+02, -2.9641666860028454e+02, -7.9838048521394171e+02, -7.9838048382128932e+02, -1.0908617110500406e+03, -1.5450269002576761e+01, 1.9744469224691500e+02, 1.9744469277153087e+02, 4.3862549410804706e+02, 4.2819744985047237e-01, -1.9434582768885548e+01, -1.9434591366536552e+01, 7.3136482463749871e+02, 4.3428042291307713e+02, 7.5785329517359264e+02, 7.5785330485411566e+02, -1.7297905563734201e+02, -2.3656504213841117e+01, 5.5140820851856324e+02, 5.5140820985290554e+02, 4.7930953433827676e+02, 1.1406197080457712e+03, -1.5325364716474297e+02, -1.5325365625183716e+02, 1.7054289350818948e+01, 3.2675538189435474e+02, 2.7211521793413550e+02, 2.7211522380479147e+02, -1.1522990215744511e+02, -4.6453836881816505e+02, -3.6117848541087358e+02, -3.6117849910586028e+02, 4.9961505975212737e+02, 2.3253446452938192e+01, -5.5603511711637054e+02, -5.5603513013491602e+02, 5.2825174649184731e+01, -4.9962633640535239e+02, 8.3336670370702313e+02, 8.3336672440980135e+02, -1.6795091113939259e+02, -3.2744810834238399e+02, 7.2580045769278854e+01, 7.2580045406592546e+01, 6.7227967172567867e+02, 1.9164838445063415e+03, -7.8555673712610155e+02, -7.8555675433762701e+02, -7.2326635722353797e+02, 6.2314437476515604e+02, 7.6908209188622197e+02, 7.6908212262959626e+02, -1.3755500413763184e+03, 3.8787694975248678e+02, 1.3515894313873487e+03, 1.3515894420835498e+03, 1.1055675882416115e+03, -2.2649003449159409e+01, 5.0048198208757503e+02, 5.0048195469193047e+02, 2.4769780589335733e+03, 3.1527097156834097e+03, 1.1701909796675166e+03, 1.1701909816393425e+03, -2.9712788322094809e+02, 6.2150696493052692e+02, 1.4417885961939764e+03, 1.4417886147344011e+03, 8.0562300503566814e+02, -1.9656338888961182e+03, -1.9185828130949340e+03, -1.9185828246113629e+03, -9.2703462020004940e+02, -2.9548189309557574e+02, -1.1261246101748711e+03, -1.1261245911776173e+03, -2.7220954152276531e+03], 
                "evaluate_dof_0": -8.6871654000000009e-01, 
                "evaluate_dof_1": -1.0125468000000000e+00, 
                "evaluate_dof_2": -1.1578152359999996e+00, 
                "evaluate_dof_3": 4.4221716000000084e-02, 
                "evaluate_dof_4": 5.6295540000000102e-02, 
                "evaluate_dof_5": 6.8861310000000134e-02, 
                "evaluate_dof_6": 6.5630126249999998e-01, 
                "evaluate_dof_7": 7.2751723199999996e-01, 
                "evaluate_dof_8": 7.6606177050000013e-01, 
                "evaluate_dof_9": 4.9595598000000088e-02, 
                "evaluate_dof_10": 5.3039061000000089e-02, 
                "evaluate_dof_11": 6.0905029500000117e-02, 
                "evaluate_dof_12": -8.3938210200000007e-01, 
                "evaluate_dof_13": -8.9766108900000008e-01, 
                "evaluate_dof_14": -1.0307888955000000e+00, 
                "evaluate_dofs": [-8.6871654000000009e-01, -1.0125468000000000e+00, -1.1578152359999996e+00, 4.4221716000000084e-02, 5.6295540000000102e-02, 6.8861310000000134e-02, 6.5630126249999998e-01, 7.2751723199999996e-01, 7.6606177050000013e-01, 4.9595598000000088e-02, 5.3039061000000089e-02, 6.0905029500000117e-02, -8.3938210200000007e-01, -8.9766108900000008e-01, -1.0307888955000000e+00], 
                "interpolate_vertex_values": [3.0792300000000028e-01, 1.2316920000000002e+00, 4.3028699999999986e-01, 1.7211480000000003e+00, 7.7282099999999976e-01, 3.0912839999999973e+00], 
                "tabulate_dof_coordinates": [6.6750000000000009e-01, 7.7100000000000002e-01, 7.7400000000000002e-01, 7.7500000000000002e-01, 8.8049999999999995e-01, 7.7900000000000003e-01, 9.2400000000000004e-01, 4.5150000000000001e-01, 9.4500000000000006e-01, 5.6200000000000006e-01, 9.6599999999999997e-01, 6.7250000000000010e-01, 8.1750000000000000e-01, 4.4750000000000001e-01, 7.3199999999999998e-01, 5.5400000000000005e-01, 6.4650000000000007e-01, 6.6050000000000009e-01, 8.3850000000000002e-01, 5.5800000000000005e-01, 7.5300000000000011e-01, 6.6449999999999998e-01, 8.5949999999999993e-01, 6.6850000000000009e-01, 8.3850000000000002e-01, 5.5800000000000005e-01, 7.5300000000000011e-01, 6.6449999999999998e-01, 8.5949999999999993e-01, 6.6850000000000009e-01], 
                "num_sub_elements": 0, 
            },
        },
        "dofmap_0": {
            "needs_mesh_entities_0": 1, 
            "needs_mesh_entities_1": 1, 
            "needs_mesh_entities_2": 1, 
            "global_dimension": 130033, 
            "num_element_dofs": 23, 
            "num_facet_dofs": 6, 
            "num_entity_dofs_0": 1, 
            "num_entity_dofs_1": 4, 
            "num_entity_dofs_2": 8, 
            "tabulate_dofs": [0, 10003, 20006, 20006, 20006, 30007, 30008, 30009, 40009, 40010, 40011, 40012, 40013, 40014, 40015, 40016, 40017, 70015, 70016, 70017, 70018, 70019, 70020], 
            "tabulate_facet_dofs_0": [3, 4, 5, 8, 9, 10], 
            "tabulate_facet_dofs_1": [2, 4, 6, 11, 12, 13], 
            "tabulate_facet_dofs_2": [2, 3, 7, 14, 15, 16], 
            "tabulate_entity_dofs_0_0": [2], 
            "tabulate_entity_dofs_0_1": [3], 
            "tabulate_entity_dofs_0_2": [4], 
            "tabulate_entity_dofs_1_0": [5, 8, 9, 10], 
            "tabulate_entity_dofs_1_1": [6, 11, 12, 13], 
            "tabulate_entity_dofs_1_2": [7, 14, 15, 16], 
            "tabulate_entity_dofs_2_0": [0, 1, 17, 18, 19, 20, 21, 22], 
            "num_sub_dofmaps": 3, 
            "dofmap_0": {
                "needs_mesh_entities_0": 0, 
                "needs_mesh_entities_1": 0, 
                "needs_mesh_entities_2": 1, 
                "global_dimension": 20006, 
                "num_element_dofs": 2, 
                "num_facet_dofs": 0, 
                "num_entity_dofs_0": 0, 
                "num_entity_dofs_1": 0, 
                "num_entity_dofs_2": 2, 
                "tabulate_dofs": [0, 10003], 
                "tabulate_facet_dofs_0": [], 
                "tabulate_facet_dofs_1": [], 
                "tabulate_facet_dofs_2": [], 
                "tabulate_entity_dofs_0_0": [], 
                "tabulate_entity_dofs_0_1": [], 
                "tabulate_entity_dofs_0_2": [], 
                "tabulate_entity_dofs_1_0": [], 
                "tabulate_entity_dofs_1_1": [], 
                "tabulate_entity_dofs_1_2": [], 
                "tabulate_entity_dofs_2_0": [0, 1], 
                "num_sub_dofmaps": 2, 
                "dofmap_0": {
                    "needs_mesh_entities_0": 0, 
                    "needs_mesh_entities_1": 0, 
                    "needs_mesh_entities_2": 1, 
                    "global_dimension": 10003, 
                    "num_element_dofs": 1, 
                    "num_facet_dofs": 0, 
                    "num_entity_dofs_0": 0, 
                    "num_entity_dofs_1": 0, 
                    "num_entity_dofs_2": 1, 
                    "tabulate_dofs": [0], 
                    "tabulate_facet_dofs_0": [], 
                    "tabulate_facet_dofs_1": [], 
                    "tabulate_facet_dofs_2": [], 
                    "tabulate_entity_dofs_0_0": [], 
                    "tabulate_entity_dofs_0_1": [], 
                    "tabulate_entity_dofs_0_2": [], 
                    "tabulate_entity_dofs_1_0": [], 
                    "tabulate_entity_dofs_1_1": [], 
                    "tabulate_entity_dofs_1_2": [], 
                    "tabulate_entity_dofs_2_0": [0], 
                    "num_sub_dofmaps": 0, 
                },
                "dofmap_1": {
                    "needs_mesh_entities_0": 0, 
                    "needs_mesh_entities_1": 0, 
                    "needs_mesh_entities_2": 1, 
                    "global_dimension": 10003, 
                    "num_element_dofs": 1, 
                    "num_facet_dofs": 0, 
                    "num_entity_dofs_0": 0, 
                    "num_entity_dofs_1": 0, 
                    "num_entity_dofs_2": 1, 
                    "tabulate_dofs": [0], 
                    "tabulate_facet_dofs_0": [], 
                    "tabulate_facet_dofs_1": [], 
                    "tabulate_facet_dofs_2": [], 
                    "tabulate_entity_dofs_0_0": [], 
                    "tabulate_entity_dofs_0_1": [], 
                    "tabulate_entity_dofs_0_2": [], 
                    "tabulate_entity_dofs_1_0": [], 
                    "tabulate_entity_dofs_1_1": [], 
                    "tabulate_entity_dofs_1_2": [], 
                    "tabulate_entity_dofs_2_0": [0], 
                    "num_sub_dofmaps": 0, 
                },
            },
            "dofmap_1": {
                "needs_mesh_entities_0": 1, 
                "needs_mesh_entities_1": 1, 
                "needs_mesh_entities_2": 0, 
                "global_dimension": 20003, 
                "num_element_dofs": 6, 
                "num_facet_dofs": 3, 
                "num_entity_dofs_0": 1, 
                "num_entity_dofs_1": 1, 
                "num_entity_dofs_2": 0, 
                "tabulate_dofs": [0, 0, 0, 10001, 10002, 10003], 
                "tabulate_facet_dofs_0": [1, 2, 3], 
                "tabulate_facet_dofs_1": [0, 2, 4], 
                "tabulate_facet_dofs_2": [0, 1, 5], 
                "tabulate_entity_dofs_0_0": [0], 
                "tabulate_entity_dofs_0_1": [1], 
                "tabulate_entity_dofs_0_2": [2], 
                "tabulate_entity_dofs_1_0": [3], 
                "tabulate_entity_dofs_1_1": [4], 
                "tabulate_entity_dofs_1_2": [5], 
                "tabulate_entity_dofs_2_0": [], 
                "num_sub_dofmaps": 0, 
            },
            "dofmap_2": {
                "needs_mesh_entities_0": 0, 
                "needs_mesh_entities_1": 1, 
                "needs_mesh_entities_2": 1, 
                "global_dimension": 90024, 
                "num_element_dofs": 15, 
                "num_facet_dofs": 3, 
                "num_entity_dofs_0": 0, 
                "num_entity_dofs_1": 3, 
                "num_entity_dofs_2": 6, 
                "tabulate_dofs": [0, 1, 2, 3, 4, 5, 6, 7, 8, 30006, 30007, 30008, 30009, 30010, 30011], 
                "tabulate_facet_dofs_0": [0, 1, 2], 
                "tabulate_facet_dofs_1": [3, 4, 5], 
                "tabulate_facet_dofs_2": [6, 7, 8], 
                "tabulate_entity_dofs_0_0": [], 
                "tabulate_entity_dofs_0_1": [], 
                "tabulate_entity_dofs_0_2": [], 
                "tabulate_entity_dofs_1_0": [0, 1, 2], 
                "tabulate_entity_dofs_1_1": [3, 4, 5], 
                "tabulate_entity_dofs_1_2": [6, 7, 8], 
                "tabulate_entity_dofs_2_0": [9, 10, 11, 12, 13, 14], 
                "num_sub_dofmaps": 0, 
            },
        },
        "default_cell_integral": 1, 
        "cell_integral": {
            "tabulate_tensor": [6.5431801308635990e-02], 
        },
        "default_exterior_facet_integral": 0, 
        "default_interior_facet_integral": 1, 
        "interior_facet_integral": {
            "tabulate_tensor_0_0": [-6.7620466839547233e-01], 
            "tabulate_tensor_0_1": [-1.0557403473582616e+00], 
            "tabulate_tensor_0_2": [-1.1935168973002072e-01], 
            "tabulate_tensor_1_0": [2.4725521444088810e-01], 
            "tabulate_tensor_1_1": [9.7920189537932789e-01], 
            "tabulate_tensor_1_2": [-1.2241467524869087e+00], 
            "tabulate_tensor_2_0": [5.1617473674911640e-01], 
            "tabulate_tensor_2_1": [1.0923125626867791e-01], 
            "tabulate_tensor_2_2": [1.5800838469645062e+00], 
        },
        "default_vertex_integral": 0, 
    },
}
