{
    "form_0": {
        "rank": 2, 
        "num_coefficients": 0, 
        "has_cell_integrals": 1, 
        "has_exterior_facet_integrals": 0, 
        "has_interior_facet_integrals": 0, 
        "has_vertex_integrals": 0, 
        "max_cell_subdomain_id": 0, 
        "max_exterior_facet_subdomain_id": 0, 
        "max_interior_facet_subdomain_id": 0, 
        "max_vertex_subdomain_id": 0, 
        "finite_element_0": {
            "cell_shape": 1, 
            "space_dimension": 11, 
            "value_rank": 1, 
            "value_dimension_0": 3, 
            "evaluate_basis:_0": [6.8551205800900391e+01, 0.0, 0.0], 
            "evaluate_basis:_1": [6.9105991079957477e+01, 0.0, 0.0], 
            "evaluate_basis:_2": [6.4580764818245228e+01, 0.0, 0.0], 
            "evaluate_basis:_3": [-2.0123796306119272e+02, 0.0, 0.0], 
            "evaluate_basis:_4": [0.0, 6.8551205800900391e+01, 0.0], 
            "evaluate_basis:_5": [0.0, 6.9105991079957477e+01, 0.0], 
            "evaluate_basis:_6": [0.0, 6.4580764818245228e+01, 0.0], 
            "evaluate_basis:_7": [0.0, -2.0123796306119272e+02, 0.0], 
            "evaluate_basis:_8": [0.0, 0.0, 1.4718852622922434e+00], 
            "evaluate_basis:_9": [0.0, 0.0, 2.0266705413493233e+00], 
            "evaluate_basis:_10": [0.0, 0.0, -2.4985557203629258e+00], 
            "evaluate_basis_all": [6.8551205800900391e+01, 0.0, 0.0, 6.9105991079957477e+01, 0.0, 0.0, 6.4580764818245228e+01, 0.0, 0.0, -2.0123796306119272e+02, 0.0, 0.0, 0.0, 6.8551205800900391e+01, 0.0, 0.0, 6.9105991079957477e+01, 0.0, 0.0, 6.4580764818245228e+01, 0.0, 0.0, -2.0123796306119272e+02, 0.0, 0.0, 0.0, 1.4718852622922434e+00, 0.0, 0.0, 2.0266705413493233e+00, 0.0, 0.0, -2.4985557203629258e+00, 0.0, 0.0, 0.0, 0.0, 0.0, 0.0, 0.0, 0.0, 0.0, 0.0, 0.0, 0.0, 0.0, 0.0, 0.0, 0.0, 0.0, 0.0, 0.0, 0.0, 0.0, 0.0, 0.0, 0.0, 0.0, 0.0, 0.0, 0.0, 0.0, 0.0, 0.0, 0.0, 0.0, 0.0, 0.0, 0.0, 0.0, 0.0, 0.0, 0.0, 0.0, 0.0, 0.0, 0.0, 0.0, 0.0, 0.0, 0.0, 0.0, 0.0, 0.0, 0.0, 0.0, 0.0, 0.0, 0.0, 0.0, 0.0, 0.0, 0.0, 0.0, 0.0, 0.0, 0.0, 0.0, 0.0, 0.0, 0.0, 0.0, 0.0, 0.0, 0.0, 0.0, 0.0, 0.0, 0.0, 0.0, 0.0, 0.0, 0.0, 0.0, 0.0, 0.0, 0.0, 0.0, 0.0, 0.0, 0.0, 0.0, 0.0, 0.0, 0.0, 0.0, 0.0, 0.0, 0.0, 0.0, 0.0, 0.0], 
            "evaluate_basis_derivatives_0_0": [6.8551205800900391e+01, 0.0, 0.0], 
            "evaluate_basis_derivatives_0_1": [-1.3544507628697829e+02, -1.4037012724361657e+02, 0.0, 0.0, 0.0, 0.0], 
            "evaluate_basis_derivatives_0_2": [1.2652211080646576e+02, 2.5760268858387951e+02, 2.5760269214295801e+02, 8.4246761854312254e+01, 0.0, 0.0, 0.0, 0.0, 0.0, 0.0, 0.0, 0.0], 
            "evaluate_basis_derivatives_1_0": [6.9105991079957477e+01, 0.0, 0.0], 
            "evaluate_basis_derivatives_1_1": [-1.3789495541248448e+02, -1.3764209599212455e+02, 0.0, 0.0, 0.0, 0.0], 
            "evaluate_basis_derivatives_1_2": [1.2652211080646576e+02, 2.5760268858387951e+02, 2.5760269214295801e+02, 8.4246761854312254e+01, 0.0, 0.0, 0.0, 0.0, 0.0, 0.0, 0.0, 0.0], 
            "evaluate_basis_derivatives_2_0": [6.4580764818245228e+01, 0.0, 0.0], 
            "evaluate_basis_derivatives_2_1": [-1.3325195306253920e+02, -1.3626203304223736e+02, 0.0, 0.0, 0.0, 0.0], 
            "evaluate_basis_derivatives_2_2": [1.2652211080646576e+02, 2.5760268858387951e+02, 2.5760269214295801e+02, 8.4246761854312254e+01, 0.0, 0.0, 0.0, 0.0, 0.0, 0.0, 0.0, 0.0], 
            "evaluate_basis_derivatives_3_0": [-2.0123796306119272e+02, 0.0, 0.0], 
            "evaluate_basis_derivatives_3_1": [4.0659198793036455e+02, 4.1427425927847219e+02, 0.0, 0.0, 0.0, 0.0], 
            "evaluate_basis_derivatives_3_2": [-3.7956633644984214e+02, -7.7280807139902345e+02, -7.7280808207625887e+02, -2.5274028816657929e+02, 0.0, 0.0, 0.0, 0.0, 0.0, 0.0, 0.0, 0.0], 
            "evaluate_basis_derivatives_4_0": [0.0, 6.8551205800900391e+01, 0.0], 
            "evaluate_basis_derivatives_4_1": [0.0, 0.0, -1.3544507628697829e+02, -1.4037012724361657e+02, 0.0, 0.0], 
            "evaluate_basis_derivatives_4_2": [0.0, 0.0, 0.0, 0.0, 1.2652211080646576e+02, 2.5760268858387951e+02, 2.5760269214295801e+02, 8.4246761854312254e+01, 0.0, 0.0, 0.0, 0.0], 
            "evaluate_basis_derivatives_5_0": [0.0, 6.9105991079957477e+01, 0.0], 
            "evaluate_basis_derivatives_5_1": [0.0, 0.0, -1.3789495541248448e+02, -1.3764209599212455e+02, 0.0, 0.0], 
            "evaluate_basis_derivatives_5_2": [0.0, 0.0, 0.0, 0.0, 1.2652211080646576e+02, 2.5760268858387951e+02, 2.5760269214295801e+02, 8.4246761854312254e+01, 0.0, 0.0, 0.0, 0.0], 
            "evaluate_basis_derivatives_6_0": [0.0, 6.4580764818245228e+01, 0.0], 
            "evaluate_basis_derivatives_6_1": [0.0, 0.0, -1.3325195306253920e+02, -1.3626203304223736e+02, 0.0, 0.0], 
            "evaluate_basis_derivatives_6_2": [0.0, 0.0, 0.0, 0.0, 1.2652211080646576e+02, 2.5760268858387951e+02, 2.5760269214295801e+02, 8.4246761854312254e+01, 0.0, 0.0, 0.0, 0.0], 
            "evaluate_basis_derivatives_7_0": [0.0, -2.0123796306119272e+02, 0.0], 
            "evaluate_basis_derivatives_7_1": [0.0, 0.0, 4.0659198793036455e+02, 4.1427425927847219e+02, 0.0, 0.0], 
            "evaluate_basis_derivatives_7_2": [0.0, 0.0, 0.0, 0.0, -3.7956633644984214e+02, -7.7280807139902345e+02, -7.7280808207625887e+02, -2.5274028816657929e+02, 0.0, 0.0, 0.0, 0.0], 
            "evaluate_basis_derivatives_8_0": [0.0, 0.0, 1.4718852622922434e+00], 
            "evaluate_basis_derivatives_8_1": [0.0, 0.0, 0.0, 0.0, 8.5585277568607676e-02, -2.2787085025842555e+00], 
            "evaluate_basis_derivatives_8_2": [0.0, 0.0, 0.0, 0.0, 0.0, 0.0, 0.0, 0.0, 0.0, 0.0, 0.0, 0.0], 
            "evaluate_basis_derivatives_9_0": [0.0, 0.0, 2.0266705413493233e+00], 
            "evaluate_basis_derivatives_9_1": [0.0, 0.0, 0.0, 0.0, -2.3642938479375970e+00, 4.4932274890774304e-01], 
            "evaluate_basis_derivatives_9_2": [0.0, 0.0, 0.0, 0.0, 0.0, 0.0, 0.0, 0.0, 0.0, 0.0, 0.0, 0.0], 
            "evaluate_basis_derivatives_10_0": [0.0, 0.0, -2.4985557203629258e+00], 
            "evaluate_basis_derivatives_10_1": [0.0, 0.0, 0.0, 0.0, 2.2787085020077340e+00, 1.8293856987949413e+00], 
            "evaluate_basis_derivatives_10_2": [0.0, 0.0, 0.0, 0.0, 0.0, 0.0, 0.0, 0.0, 0.0, 0.0, 0.0, 0.0], 
            "evaluate_basis_derivatives_all_0": [6.8551205800900391e+01, 0.0, 0.0, 6.9105991079957477e+01, 0.0, 0.0, 6.4580764818245228e+01, 0.0, 0.0, -2.0123796306119272e+02, 0.0, 0.0, 0.0, 6.8551205800900391e+01, 0.0, 0.0, 6.9105991079957477e+01, 0.0, 0.0, 6.4580764818245228e+01, 0.0, 0.0, -2.0123796306119272e+02, 0.0, 0.0, 0.0, 1.4718852622922434e+00, 0.0, 0.0, 2.0266705413493233e+00, 0.0, 0.0, -2.4985557203629258e+00], 
            "evaluate_basis_derivatives_all_1": [-1.3544507628697829e+02, -1.4037012724361657e+02, 0.0, 0.0, 0.0, 0.0, -1.3789495541248448e+02, -1.3764209599212455e+02, 0.0, 0.0, 0.0, 0.0, -1.3325195306253920e+02, -1.3626203304223736e+02, 0.0, 0.0, 0.0, 0.0, 4.0659198793036455e+02, 4.1427425927847219e+02, 0.0, 0.0, 0.0, 0.0, 0.0, 0.0, -1.3544507628697829e+02, -1.4037012724361657e+02, 0.0, 0.0, 0.0, 0.0, -1.3789495541248448e+02, -1.3764209599212455e+02, 0.0, 0.0, 0.0, 0.0, -1.3325195306253920e+02, -1.3626203304223736e+02, 0.0, 0.0, 0.0, 0.0, 4.0659198793036455e+02, 4.1427425927847219e+02, 0.0, 0.0, 0.0, 0.0, 0.0, 0.0, 8.5585277568607676e-02, -2.2787085025842555e+00, 0.0, 0.0, 0.0, 0.0, -2.3642938479375970e+00, 4.4932274890774304e-01, 0.0, 0.0, 0.0, 0.0, 2.2787085020077340e+00, 1.8293856987949413e+00], 
            "evaluate_basis_derivatives_all_2": [1.2652211080646576e+02, 2.5760268858387951e+02, 2.5760269214295801e+02, 8.4246761854312254e+01, 0.0, 0.0, 0.0, 0.0, 0.0, 0.0, 0.0, 0.0, 1.2652211080646576e+02, 2.5760268858387951e+02, 2.5760269214295801e+02, 8.4246761854312254e+01, 0.0, 0.0, 0.0, 0.0, 0.0, 0.0, 0.0, 0.0, 1.2652211080646576e+02, 2.5760268858387951e+02, 2.5760269214295801e+02, 8.4246761854312254e+01, 0.0, 0.0, 0.0, 0.0, 0.0, 0.0, 0.0, 0.0, -3.7956633644984214e+02, -7.7280807139902345e+02, -7.7280808207625887e+02, -2.5274028816657929e+02, 0.0, 0.0, 0.0, 0.0, 0.0, 0.0, 0.0, 0.0, 0.0, 0.0, 0.0, 0.0, 1.2652211080646576e+02, 2.5760268858387951e+02, 2.5760269214295801e+02, 8.4246761854312254e+01, 0.0, 0.0, 0.0, 0.0, 0.0, 0.0, 0.0, 0.0, 1.2652211080646576e+02, 2.5760268858387951e+02, 2.5760269214295801e+02, 8.4246761854312254e+01, 0.0, 0.0, 0.0, 0.0, 0.0, 0.0, 0.0, 0.0, 1.2652211080646576e+02, 2.5760268858387951e+02, 2.5760269214295801e+02, 8.4246761854312254e+01, 0.0, 0.0, 0.0, 0.0, 0.0, 0.0, 0.0, 0.0, -3.7956633644984214e+02, -7.7280807139902345e+02, -7.7280808207625887e+02, -2.5274028816657929e+02, 0.0, 0.0, 0.0, 0.0, 0.0, 0.0, 0.0, 0.0, 0.0, 0.0, 0.0, 0.0, 0.0, 0.0, 0.0, 0.0, 0.0, 0.0, 0.0, 0.0, 0.0, 0.0, 0.0, 0.0, 0.0, 0.0, 0.0, 0.0, 0.0, 0.0, 0.0, 0.0, 0.0, 0.0, 0.0, 0.0, 0.0, 0.0, 0.0, 0.0], 
            "evaluate_dof_0": 3.0792300000000006e-01, 
            "evaluate_dof_1": 4.3028700000000003e-01, 
            "evaluate_dof_2": 7.7282099999999998e-01, 
            "evaluate_dof_3": 5.1498232303368663e-01, 
            "evaluate_dof_4": 1.2316920000000002e+00, 
            "evaluate_dof_5": 1.7211480000000001e+00, 
            "evaluate_dof_6": 3.0912839999999999e+00, 
            "evaluate_dof_7": 2.0599292921347465e+00, 
            "evaluate_dof_8": 2.7713070000000006e+00, 
            "evaluate_dof_9": 3.8725830000000010e+00, 
            "evaluate_dof_10": 6.9553890000000003e+00, 
            "evaluate_dofs": [3.0792300000000006e-01, 4.3028700000000003e-01, 7.7282099999999998e-01, 5.1498232303368663e-01, 1.2316920000000002e+00, 1.7211480000000001e+00, 3.0912839999999999e+00, 2.0599292921347465e+00, 2.7713070000000006e+00, 3.8725830000000010e+00, 6.9553890000000003e+00], 
            "interpolate_vertex_values": [3.0792300000000006e-01, 1.2316920000000002e+00, 2.7713070000000006e+00, 4.3028700000000003e-01, 1.7211480000000001e+00, 3.8725830000000010e+00, 7.7282099999999998e-01, 3.0912839999999999e+00, 6.9553890000000003e+00], 
            "tabulate_dof_coordinates": [9.0300000000000002e-01, 3.4100000000000003e-01, 5.6100000000000005e-01, 7.6700000000000002e-01, 9.8699999999999999e-01, 7.8300000000000003e-01, 8.1699999182999994e-01, 6.3033332703000000e-01, 9.0300000000000002e-01, 3.4100000000000003e-01, 5.6100000000000005e-01, 7.6700000000000002e-01, 9.8699999999999999e-01, 7.8300000000000003e-01, 8.1699999182999994e-01, 6.3033332703000000e-01, 9.0300000000000002e-01, 3.4100000000000003e-01, 5.6100000000000005e-01, 7.6700000000000002e-01, 9.8699999999999999e-01, 7.8300000000000003e-01], 
            "num_sub_elements": 2, 
            "finite_element_0": {
                "cell_shape": 1, 
                "space_dimension": 8, 
                "value_rank": 1, 
                "value_dimension_0": 2, 
                "evaluate_basis:_0": [6.8551205800900391e+01, 0.0], 
                "evaluate_basis:_1": [6.9105991079957477e+01, 0.0], 
                "evaluate_basis:_2": [6.4580764818245228e+01, 0.0], 
                "evaluate_basis:_3": [-2.0123796306119272e+02, 0.0], 
                "evaluate_basis:_4": [0.0, 6.8551205800900391e+01], 
                "evaluate_basis:_5": [0.0, 6.9105991079957477e+01], 
                "evaluate_basis:_6": [0.0, 6.4580764818245228e+01], 
                "evaluate_basis:_7": [0.0, -2.0123796306119272e+02], 
                "evaluate_basis_all": [6.8551205800900391e+01, 0.0, 6.9105991079957477e+01, 0.0, 6.4580764818245228e+01, 0.0, -2.0123796306119272e+02, 0.0, 0.0, 6.8551205800900391e+01, 0.0, 6.9105991079957477e+01, 0.0, 6.4580764818245228e+01, 0.0, -2.0123796306119272e+02, 0.0, 0.0, 0.0, 0.0, 0.0, 0.0, 0.0, 0.0, 0.0, 0.0, 0.0, 0.0, 0.0, 0.0, 0.0, 0.0, 0.0, 0.0, 0.0, 0.0, 0.0, 0.0, 0.0, 0.0, 0.0, 0.0, 0.0, 0.0, 0.0, 0.0, 0.0, 0.0, 0.0, 0.0, 0.0, 0.0, 0.0, 0.0, 0.0, 0.0, 0.0, 0.0, 0.0, 0.0, 0.0, 0.0, 0.0, 0.0], 
                "evaluate_basis_derivatives_0_0": [6.8551205800900391e+01, 0.0], 
                "evaluate_basis_derivatives_0_1": [-1.3544507628697829e+02, -1.4037012724361657e+02, 0.0, 0.0], 
                "evaluate_basis_derivatives_0_2": [1.2652211080646576e+02, 2.5760268858387951e+02, 2.5760269214295801e+02, 8.4246761854312254e+01, 0.0, 0.0, 0.0, 0.0], 
                "evaluate_basis_derivatives_1_0": [6.9105991079957477e+01, 0.0], 
                "evaluate_basis_derivatives_1_1": [-1.3789495541248448e+02, -1.3764209599212455e+02, 0.0, 0.0], 
                "evaluate_basis_derivatives_1_2": [1.2652211080646576e+02, 2.5760268858387951e+02, 2.5760269214295801e+02, 8.4246761854312254e+01, 0.0, 0.0, 0.0, 0.0], 
                "evaluate_basis_derivatives_2_0": [6.4580764818245228e+01, 0.0], 
                "evaluate_basis_derivatives_2_1": [-1.3325195306253920e+02, -1.3626203304223736e+02, 0.0, 0.0], 
                "evaluate_basis_derivatives_2_2": [1.2652211080646576e+02, 2.5760268858387951e+02, 2.5760269214295801e+02, 8.4246761854312254e+01, 0.0, 0.0, 0.0, 0.0], 
                "evaluate_basis_derivatives_3_0": [-2.0123796306119272e+02, 0.0], 
                "evaluate_basis_derivatives_3_1": [4.0659198793036455e+02, 4.1427425927847219e+02, 0.0, 0.0], 
                "evaluate_basis_derivatives_3_2": [-3.7956633644984214e+02, -7.7280807139902345e+02, -7.7280808207625887e+02, -2.5274028816657929e+02, 0.0, 0.0, 0.0, 0.0], 
                "evaluate_basis_derivatives_4_0": [0.0, 6.8551205800900391e+01], 
                "evaluate_basis_derivatives_4_1": [0.0, 0.0, -1.3544507628697829e+02, -1.4037012724361657e+02], 
                "evaluate_basis_derivatives_4_2": [0.0, 0.0, 0.0, 0.0, 1.2652211080646576e+02, 2.5760268858387951e+02, 2.5760269214295801e+02, 8.4246761854312254e+01], 
                "evaluate_basis_derivatives_5_0": [0.0, 6.9105991079957477e+01], 
                "evaluate_basis_derivatives_5_1": [0.0, 0.0, -1.3789495541248448e+02, -1.3764209599212455e+02], 
                "evaluate_basis_derivatives_5_2": [0.0, 0.0, 0.0, 0.0, 1.2652211080646576e+02, 2.5760268858387951e+02, 2.5760269214295801e+02, 8.4246761854312254e+01], 
                "evaluate_basis_derivatives_6_0": [0.0, 6.4580764818245228e+01], 
                "evaluate_basis_derivatives_6_1": [0.0, 0.0, -1.3325195306253920e+02, -1.3626203304223736e+02], 
                "evaluate_basis_derivatives_6_2": [0.0, 0.0, 0.0, 0.0, 1.2652211080646576e+02, 2.5760268858387951e+02, 2.5760269214295801e+02, 8.4246761854312254e+01], 
                "evaluate_basis_derivatives_7_0": [0.0, -2.0123796306119272e+02], 
                "evaluate_basis_derivatives_7_1": [0.0, 0.0, 4.0659198793036455e+02, 4.1427425927847219e+02], 
                "evaluate_basis_derivatives_7_2": [0.0, 0.0, 0.0, 0.0, -3.7956633644984214e+02, -7.7280807139902345e+02, -7.7280808207625887e+02, -2.5274028816657929e+02], 
                "evaluate_basis_derivatives_all_0": [6.8551205800900391e+01, 0.0, 6.9105991079957477e+01, 0.0, 6.4580764818245228e+01, 0.0, -2.0123796306119272e+02, 0.0, 0.0, 6.8551205800900391e+01, 0.0, 6.9105991079957477e+01, 0.0, 6.4580764818245228e+01, 0.0, -2.0123796306119272e+02], 
                "evaluate_basis_derivatives_all_1": [-1.3544507628697829e+02, -1.4037012724361657e+02, 0.0, 0.0, -1.3789495541248448e+02, -1.3764209599212455e+02, 0.0, 0.0, -1.3325195306253920e+02, -1.3626203304223736e+02, 0.0, 0.0, 4.0659198793036455e+02, 4.1427425927847219e+02, 0.0, 0.0, 0.0, 0.0, -1.3544507628697829e+02, -1.4037012724361657e+02, 0.0, 0.0, -1.3789495541248448e+02, -1.3764209599212455e+02, 0.0, 0.0, -1.3325195306253920e+02, -1.3626203304223736e+02, 0.0, 0.0, 4.0659198793036455e+02, 4.1427425927847219e+02], 
                "evaluate_basis_derivatives_all_2": [1.2652211080646576e+02, 2.5760268858387951e+02, 2.5760269214295801e+02, 8.4246761854312254e+01, 0.0, 0.0, 0.0, 0.0, 1.2652211080646576e+02, 2.5760268858387951e+02, 2.5760269214295801e+02, 8.4246761854312254e+01, 0.0, 0.0, 0.0, 0.0, 1.2652211080646576e+02, 2.5760268858387951e+02, 2.5760269214295801e+02, 8.4246761854312254e+01, 0.0, 0.0, 0.0, 0.0, -3.7956633644984214e+02, -7.7280807139902345e+02, -7.7280808207625887e+02, -2.5274028816657929e+02, 0.0, 0.0, 0.0, 0.0, 0.0, 0.0, 0.0, 0.0, 1.2652211080646576e+02, 2.5760268858387951e+02, 2.5760269214295801e+02, 8.4246761854312254e+01, 0.0, 0.0, 0.0, 0.0, 1.2652211080646576e+02, 2.5760268858387951e+02, 2.5760269214295801e+02, 8.4246761854312254e+01, 0.0, 0.0, 0.0, 0.0, 1.2652211080646576e+02, 2.5760268858387951e+02, 2.5760269214295801e+02, 8.4246761854312254e+01, 0.0, 0.0, 0.0, 0.0, -3.7956633644984214e+02, -7.7280807139902345e+02, -7.7280808207625887e+02, -2.5274028816657929e+02], 
                "evaluate_dof_0": 3.0792300000000006e-01, 
                "evaluate_dof_1": 4.3028700000000003e-01, 
                "evaluate_dof_2": 7.7282099999999998e-01, 
                "evaluate_dof_3": 5.1498232303368663e-01, 
                "evaluate_dof_4": 1.2316920000000002e+00, 
                "evaluate_dof_5": 1.7211480000000001e+00, 
                "evaluate_dof_6": 3.0912839999999999e+00, 
                "evaluate_dof_7": 2.0599292921347465e+00, 
                "evaluate_dofs": [3.0792300000000006e-01, 4.3028700000000003e-01, 7.7282099999999998e-01, 5.1498232303368663e-01, 1.2316920000000002e+00, 1.7211480000000001e+00, 3.0912839999999999e+00, 2.0599292921347465e+00], 
                "interpolate_vertex_values": [3.0792300000000006e-01, 1.2316920000000002e+00, 4.3028700000000003e-01, 1.7211480000000001e+00, 7.7282099999999998e-01, 3.0912839999999999e+00], 
                "tabulate_dof_coordinates": [9.0300000000000002e-01, 3.4100000000000003e-01, 5.6100000000000005e-01, 7.6700000000000002e-01, 9.8699999999999999e-01, 7.8300000000000003e-01, 8.1699999182999994e-01, 6.3033332703000000e-01, 9.0300000000000002e-01, 3.4100000000000003e-01, 5.6100000000000005e-01, 7.6700000000000002e-01, 9.8699999999999999e-01, 7.8300000000000003e-01, 8.1699999182999994e-01, 6.3033332703000000e-01], 
                "num_sub_elements": 2, 
                "finite_element_0": {
                    "cell_shape": 1, 
                    "space_dimension": 4, 
                    "value_rank": 0, 
                    "evaluate_basis:_0": [6.8551205800900391e+01], 
                    "evaluate_basis:_1": [6.9105991079957477e+01], 
                    "evaluate_basis:_2": [6.4580764818245228e+01], 
                    "evaluate_basis:_3": [-2.0123796306119272e+02], 
                    "evaluate_basis_all": [6.8551205800900391e+01, 6.9105991079957477e+01, 6.4580764818245228e+01, -2.0123796306119272e+02, 0.0, 0.0, 0.0, 0.0, 0.0, 0.0, 0.0, 0.0, 0.0, 0.0, 0.0, 0.0], 
                    "evaluate_basis_derivatives_0_0": [6.8551205800900391e+01], 
                    "evaluate_basis_derivatives_0_1": [-1.3544507628697829e+02, -1.4037012724361657e+02], 
                    "evaluate_basis_derivatives_0_2": [1.2652211080646576e+02, 2.5760268858387951e+02, 2.5760269214295801e+02, 8.4246761854312254e+01], 
                    "evaluate_basis_derivatives_1_0": [6.9105991079957477e+01], 
                    "evaluate_basis_derivatives_1_1": [-1.3789495541248448e+02, -1.3764209599212455e+02], 
                    "evaluate_basis_derivatives_1_2": [1.2652211080646576e+02, 2.5760268858387951e+02, 2.5760269214295801e+02, 8.4246761854312254e+01], 
                    "evaluate_basis_derivatives_2_0": [6.4580764818245228e+01], 
                    "evaluate_basis_derivatives_2_1": [-1.3325195306253920e+02, -1.3626203304223736e+02], 
                    "evaluate_basis_derivatives_2_2": [1.2652211080646576e+02, 2.5760268858387951e+02, 2.5760269214295801e+02, 8.4246761854312254e+01], 
                    "evaluate_basis_derivatives_3_0": [-2.0123796306119272e+02], 
                    "evaluate_basis_derivatives_3_1": [4.0659198793036455e+02, 4.1427425927847219e+02], 
                    "evaluate_basis_derivatives_3_2": [-3.7956633644984214e+02, -7.7280807139902345e+02, -7.7280808207625887e+02, -2.5274028816657929e+02], 
                    "evaluate_basis_derivatives_all_0": [6.8551205800900391e+01, 6.9105991079957477e+01, 6.4580764818245228e+01, -2.0123796306119272e+02], 
                    "evaluate_basis_derivatives_all_1": [-1.3544507628697829e+02, -1.4037012724361657e+02, -1.3789495541248448e+02, -1.3764209599212455e+02, -1.3325195306253920e+02, -1.3626203304223736e+02, 4.0659198793036455e+02, 4.1427425927847219e+02], 
                    "evaluate_basis_derivatives_all_2": [1.2652211080646576e+02, 2.5760268858387951e+02, 2.5760269214295801e+02, 8.4246761854312254e+01, 1.2652211080646576e+02, 2.5760268858387951e+02, 2.5760269214295801e+02, 8.4246761854312254e+01, 1.2652211080646576e+02, 2.5760268858387951e+02, 2.5760269214295801e+02, 8.4246761854312254e+01, -3.7956633644984214e+02, -7.7280807139902345e+02, -7.7280808207625887e+02, -2.5274028816657929e+02], 
                    "evaluate_dof_0": 3.0792300000000006e-01, 
                    "evaluate_dof_1": 4.3028700000000003e-01, 
                    "evaluate_dof_2": 7.7282099999999998e-01, 
                    "evaluate_dof_3": 5.1498232303368663e-01, 
                    "evaluate_dofs": [3.0792300000000006e-01, 4.3028700000000003e-01, 7.7282099999999998e-01, 5.1498232303368663e-01], 
                    "interpolate_vertex_values": [3.0792300000000006e-01, 4.3028700000000003e-01, 7.7282099999999998e-01], 
                    "tabulate_dof_coordinates": [9.0300000000000002e-01, 3.4100000000000003e-01, 5.6100000000000005e-01, 7.6700000000000002e-01, 9.8699999999999999e-01, 7.8300000000000003e-01, 8.1699999182999994e-01, 6.3033332703000000e-01], 
                    "num_sub_elements": 0, 
                },
                "finite_element_1": {
                    "cell_shape": 1, 
                    "space_dimension": 4, 
                    "value_rank": 0, 
                    "evaluate_basis:_0": [6.8551205800900391e+01], 
                    "evaluate_basis:_1": [6.9105991079957477e+01], 
                    "evaluate_basis:_2": [6.4580764818245228e+01], 
                    "evaluate_basis:_3": [-2.0123796306119272e+02], 
                    "evaluate_basis_all": [6.8551205800900391e+01, 6.9105991079957477e+01, 6.4580764818245228e+01, -2.0123796306119272e+02, 0.0, 0.0, 0.0, 0.0, 0.0, 0.0, 0.0, 0.0, 0.0, 0.0, 0.0, 0.0], 
                    "evaluate_basis_derivatives_0_0": [6.8551205800900391e+01], 
                    "evaluate_basis_derivatives_0_1": [-1.3544507628697829e+02, -1.4037012724361657e+02], 
                    "evaluate_basis_derivatives_0_2": [1.2652211080646576e+02, 2.5760268858387951e+02, 2.5760269214295801e+02, 8.4246761854312254e+01], 
                    "evaluate_basis_derivatives_1_0": [6.9105991079957477e+01], 
                    "evaluate_basis_derivatives_1_1": [-1.3789495541248448e+02, -1.3764209599212455e+02], 
                    "evaluate_basis_derivatives_1_2": [1.2652211080646576e+02, 2.5760268858387951e+02, 2.5760269214295801e+02, 8.4246761854312254e+01], 
                    "evaluate_basis_derivatives_2_0": [6.4580764818245228e+01], 
                    "evaluate_basis_derivatives_2_1": [-1.3325195306253920e+02, -1.3626203304223736e+02], 
                    "evaluate_basis_derivatives_2_2": [1.2652211080646576e+02, 2.5760268858387951e+02, 2.5760269214295801e+02, 8.4246761854312254e+01], 
                    "evaluate_basis_derivatives_3_0": [-2.0123796306119272e+02], 
                    "evaluate_basis_derivatives_3_1": [4.0659198793036455e+02, 4.1427425927847219e+02], 
                    "evaluate_basis_derivatives_3_2": [-3.7956633644984214e+02, -7.7280807139902345e+02, -7.7280808207625887e+02, -2.5274028816657929e+02], 
                    "evaluate_basis_derivatives_all_0": [6.8551205800900391e+01, 6.9105991079957477e+01, 6.4580764818245228e+01, -2.0123796306119272e+02], 
                    "evaluate_basis_derivatives_all_1": [-1.3544507628697829e+02, -1.4037012724361657e+02, -1.3789495541248448e+02, -1.3764209599212455e+02, -1.3325195306253920e+02, -1.3626203304223736e+02, 4.0659198793036455e+02, 4.1427425927847219e+02], 
                    "evaluate_basis_derivatives_all_2": [1.2652211080646576e+02, 2.5760268858387951e+02, 2.5760269214295801e+02, 8.4246761854312254e+01, 1.2652211080646576e+02, 2.5760268858387951e+02, 2.5760269214295801e+02, 8.4246761854312254e+01, 1.2652211080646576e+02, 2.5760268858387951e+02, 2.5760269214295801e+02, 8.4246761854312254e+01, -3.7956633644984214e+02, -7.7280807139902345e+02, -7.7280808207625887e+02, -2.5274028816657929e+02], 
                    "evaluate_dof_0": 3.0792300000000006e-01, 
                    "evaluate_dof_1": 4.3028700000000003e-01, 
                    "evaluate_dof_2": 7.7282099999999998e-01, 
                    "evaluate_dof_3": 5.1498232303368663e-01, 
                    "evaluate_dofs": [3.0792300000000006e-01, 4.3028700000000003e-01, 7.7282099999999998e-01, 5.1498232303368663e-01], 
                    "interpolate_vertex_values": [3.0792300000000006e-01, 4.3028700000000003e-01, 7.7282099999999998e-01], 
                    "tabulate_dof_coordinates": [9.0300000000000002e-01, 3.4100000000000003e-01, 5.6100000000000005e-01, 7.6700000000000002e-01, 9.8699999999999999e-01, 7.8300000000000003e-01, 8.1699999182999994e-01, 6.3033332703000000e-01], 
                    "num_sub_elements": 0, 
                },
            },
            "finite_element_1": {
                "cell_shape": 1, 
                "space_dimension": 3, 
                "value_rank": 0, 
                "evaluate_basis:_0": [1.4718852622922434e+00], 
                "evaluate_basis:_1": [2.0266705413493233e+00], 
                "evaluate_basis:_2": [-2.4985557203629258e+00], 
                "evaluate_basis_all": [1.4718852622922434e+00, 2.0266705413493233e+00, -2.4985557203629258e+00, 0.0, 0.0, 0.0, 0.0, 0.0, 0.0, 0.0, 0.0, 0.0], 
                "evaluate_basis_derivatives_0_0": [1.4718852622922434e+00], 
                "evaluate_basis_derivatives_0_1": [8.5585277568607676e-02, -2.2787085025842555e+00], 
                "evaluate_basis_derivatives_0_2": [0.0, 0.0, 0.0, 0.0], 
                "evaluate_basis_derivatives_1_0": [2.0266705413493233e+00], 
                "evaluate_basis_derivatives_1_1": [-2.3642938479375970e+00, 4.4932274890774304e-01], 
                "evaluate_basis_derivatives_1_2": [0.0, 0.0, 0.0, 0.0], 
                "evaluate_basis_derivatives_2_0": [-2.4985557203629258e+00], 
                "evaluate_basis_derivatives_2_1": [2.2787085020077340e+00, 1.8293856987949413e+00], 
                "evaluate_basis_derivatives_2_2": [0.0, 0.0, 0.0, 0.0], 
                "evaluate_basis_derivatives_all_0": [1.4718852622922434e+00, 2.0266705413493233e+00, -2.4985557203629258e+00], 
                "evaluate_basis_derivatives_all_1": [8.5585277568607676e-02, -2.2787085025842555e+00, -2.3642938479375970e+00, 4.4932274890774304e-01, 2.2787085020077340e+00, 1.8293856987949413e+00], 
                "evaluate_basis_derivatives_all_2": [0.0, 0.0, 0.0, 0.0, 0.0, 0.0, 0.0, 0.0, 0.0, 0.0, 0.0, 0.0], 
                "evaluate_dof_0": 3.0792300000000006e-01, 
                "evaluate_dof_1": 4.3028700000000003e-01, 
                "evaluate_dof_2": 7.7282099999999998e-01, 
                "evaluate_dofs": [3.0792300000000006e-01, 4.3028700000000003e-01, 7.7282099999999998e-01], 
                "interpolate_vertex_values": [3.0792300000000006e-01, 4.3028700000000003e-01, 7.7282099999999998e-01], 
                "tabulate_dof_coordinates": [9.0300000000000002e-01, 3.4100000000000003e-01, 5.6100000000000005e-01, 7.6700000000000002e-01, 9.8699999999999999e-01, 7.8300000000000003e-01], 
                "num_sub_elements": 0, 
            },
        },
        "finite_element_1": {
            "cell_shape": 1, 
            "space_dimension": 11, 
            "value_rank": 1, 
            "value_dimension_0": 3, 
            "evaluate_basis:_0": [6.8551205800900391e+01, 0.0, 0.0], 
            "evaluate_basis:_1": [6.9105991079957477e+01, 0.0, 0.0], 
            "evaluate_basis:_2": [6.4580764818245228e+01, 0.0, 0.0], 
            "evaluate_basis:_3": [-2.0123796306119272e+02, 0.0, 0.0], 
            "evaluate_basis:_4": [0.0, 6.8551205800900391e+01, 0.0], 
            "evaluate_basis:_5": [0.0, 6.9105991079957477e+01, 0.0], 
            "evaluate_basis:_6": [0.0, 6.4580764818245228e+01, 0.0], 
            "evaluate_basis:_7": [0.0, -2.0123796306119272e+02, 0.0], 
            "evaluate_basis:_8": [0.0, 0.0, 1.4718852622922434e+00], 
            "evaluate_basis:_9": [0.0, 0.0, 2.0266705413493233e+00], 
            "evaluate_basis:_10": [0.0, 0.0, -2.4985557203629258e+00], 
            "evaluate_basis_all": [6.8551205800900391e+01, 0.0, 0.0, 6.9105991079957477e+01, 0.0, 0.0, 6.4580764818245228e+01, 0.0, 0.0, -2.0123796306119272e+02, 0.0, 0.0, 0.0, 6.8551205800900391e+01, 0.0, 0.0, 6.9105991079957477e+01, 0.0, 0.0, 6.4580764818245228e+01, 0.0, 0.0, -2.0123796306119272e+02, 0.0, 0.0, 0.0, 1.4718852622922434e+00, 0.0, 0.0, 2.0266705413493233e+00, 0.0, 0.0, -2.4985557203629258e+00, 0.0, 0.0, 0.0, 0.0, 0.0, 0.0, 0.0, 0.0, 0.0, 0.0, 0.0, 0.0, 0.0, 0.0, 0.0, 0.0, 0.0, 0.0, 0.0, 0.0, 0.0, 0.0, 0.0, 0.0, 0.0, 0.0, 0.0, 0.0, 0.0, 0.0, 0.0, 0.0, 0.0, 0.0, 0.0, 0.0, 0.0, 0.0, 0.0, 0.0, 0.0, 0.0, 0.0, 0.0, 0.0, 0.0, 0.0, 0.0, 0.0, 0.0, 0.0, 0.0, 0.0, 0.0, 0.0, 0.0, 0.0, 0.0, 0.0, 0.0, 0.0, 0.0, 0.0, 0.0, 0.0, 0.0, 0.0, 0.0, 0.0, 0.0, 0.0, 0.0, 0.0, 0.0, 0.0, 0.0, 0.0, 0.0, 0.0, 0.0, 0.0, 0.0, 0.0, 0.0, 0.0, 0.0, 0.0, 0.0, 0.0, 0.0, 0.0, 0.0, 0.0, 0.0, 0.0, 0.0, 0.0, 0.0, 0.0], 
            "evaluate_basis_derivatives_0_0": [6.8551205800900391e+01, 0.0, 0.0], 
            "evaluate_basis_derivatives_0_1": [-1.3544507628697829e+02, -1.4037012724361657e+02, 0.0, 0.0, 0.0, 0.0], 
            "evaluate_basis_derivatives_0_2": [1.2652211080646576e+02, 2.5760268858387951e+02, 2.5760269214295801e+02, 8.4246761854312254e+01, 0.0, 0.0, 0.0, 0.0, 0.0, 0.0, 0.0, 0.0], 
            "evaluate_basis_derivatives_1_0": [6.9105991079957477e+01, 0.0, 0.0], 
            "evaluate_basis_derivatives_1_1": [-1.3789495541248448e+02, -1.3764209599212455e+02, 0.0, 0.0, 0.0, 0.0], 
            "evaluate_basis_derivatives_1_2": [1.2652211080646576e+02, 2.5760268858387951e+02, 2.5760269214295801e+02, 8.4246761854312254e+01, 0.0, 0.0, 0.0, 0.0, 0.0, 0.0, 0.0, 0.0], 
            "evaluate_basis_derivatives_2_0": [6.4580764818245228e+01, 0.0, 0.0], 
            "evaluate_basis_derivatives_2_1": [-1.3325195306253920e+02, -1.3626203304223736e+02, 0.0, 0.0, 0.0, 0.0], 
            "evaluate_basis_derivatives_2_2": [1.2652211080646576e+02, 2.5760268858387951e+02, 2.5760269214295801e+02, 8.4246761854312254e+01, 0.0, 0.0, 0.0, 0.0, 0.0, 0.0, 0.0, 0.0], 
            "evaluate_basis_derivatives_3_0": [-2.0123796306119272e+02, 0.0, 0.0], 
            "evaluate_basis_derivatives_3_1": [4.0659198793036455e+02, 4.1427425927847219e+02, 0.0, 0.0, 0.0, 0.0], 
            "evaluate_basis_derivatives_3_2": [-3.7956633644984214e+02, -7.7280807139902345e+02, -7.7280808207625887e+02, -2.5274028816657929e+02, 0.0, 0.0, 0.0, 0.0, 0.0, 0.0, 0.0, 0.0], 
            "evaluate_basis_derivatives_4_0": [0.0, 6.8551205800900391e+01, 0.0], 
            "evaluate_basis_derivatives_4_1": [0.0, 0.0, -1.3544507628697829e+02, -1.4037012724361657e+02, 0.0, 0.0], 
            "evaluate_basis_derivatives_4_2": [0.0, 0.0, 0.0, 0.0, 1.2652211080646576e+02, 2.5760268858387951e+02, 2.5760269214295801e+02, 8.4246761854312254e+01, 0.0, 0.0, 0.0, 0.0], 
            "evaluate_basis_derivatives_5_0": [0.0, 6.9105991079957477e+01, 0.0], 
            "evaluate_basis_derivatives_5_1": [0.0, 0.0, -1.3789495541248448e+02, -1.3764209599212455e+02, 0.0, 0.0], 
            "evaluate_basis_derivatives_5_2": [0.0, 0.0, 0.0, 0.0, 1.2652211080646576e+02, 2.5760268858387951e+02, 2.5760269214295801e+02, 8.4246761854312254e+01, 0.0, 0.0, 0.0, 0.0], 
            "evaluate_basis_derivatives_6_0": [0.0, 6.4580764818245228e+01, 0.0], 
            "evaluate_basis_derivatives_6_1": [0.0, 0.0, -1.3325195306253920e+02, -1.3626203304223736e+02, 0.0, 0.0], 
            "evaluate_basis_derivatives_6_2": [0.0, 0.0, 0.0, 0.0, 1.2652211080646576e+02, 2.5760268858387951e+02, 2.5760269214295801e+02, 8.4246761854312254e+01, 0.0, 0.0, 0.0, 0.0], 
            "evaluate_basis_derivatives_7_0": [0.0, -2.0123796306119272e+02, 0.0], 
            "evaluate_basis_derivatives_7_1": [0.0, 0.0, 4.0659198793036455e+02, 4.1427425927847219e+02, 0.0, 0.0], 
            "evaluate_basis_derivatives_7_2": [0.0, 0.0, 0.0, 0.0, -3.7956633644984214e+02, -7.7280807139902345e+02, -7.7280808207625887e+02, -2.5274028816657929e+02, 0.0, 0.0, 0.0, 0.0], 
            "evaluate_basis_derivatives_8_0": [0.0, 0.0, 1.4718852622922434e+00], 
            "evaluate_basis_derivatives_8_1": [0.0, 0.0, 0.0, 0.0, 8.5585277568607676e-02, -2.2787085025842555e+00], 
            "evaluate_basis_derivatives_8_2": [0.0, 0.0, 0.0, 0.0, 0.0, 0.0, 0.0, 0.0, 0.0, 0.0, 0.0, 0.0], 
            "evaluate_basis_derivatives_9_0": [0.0, 0.0, 2.0266705413493233e+00], 
            "evaluate_basis_derivatives_9_1": [0.0, 0.0, 0.0, 0.0, -2.3642938479375970e+00, 4.4932274890774304e-01], 
            "evaluate_basis_derivatives_9_2": [0.0, 0.0, 0.0, 0.0, 0.0, 0.0, 0.0, 0.0, 0.0, 0.0, 0.0, 0.0], 
            "evaluate_basis_derivatives_10_0": [0.0, 0.0, -2.4985557203629258e+00], 
            "evaluate_basis_derivatives_10_1": [0.0, 0.0, 0.0, 0.0, 2.2787085020077340e+00, 1.8293856987949413e+00], 
            "evaluate_basis_derivatives_10_2": [0.0, 0.0, 0.0, 0.0, 0.0, 0.0, 0.0, 0.0, 0.0, 0.0, 0.0, 0.0], 
            "evaluate_basis_derivatives_all_0": [6.8551205800900391e+01, 0.0, 0.0, 6.9105991079957477e+01, 0.0, 0.0, 6.4580764818245228e+01, 0.0, 0.0, -2.0123796306119272e+02, 0.0, 0.0, 0.0, 6.8551205800900391e+01, 0.0, 0.0, 6.9105991079957477e+01, 0.0, 0.0, 6.4580764818245228e+01, 0.0, 0.0, -2.0123796306119272e+02, 0.0, 0.0, 0.0, 1.4718852622922434e+00, 0.0, 0.0, 2.0266705413493233e+00, 0.0, 0.0, -2.4985557203629258e+00], 
            "evaluate_basis_derivatives_all_1": [-1.3544507628697829e+02, -1.4037012724361657e+02, 0.0, 0.0, 0.0, 0.0, -1.3789495541248448e+02, -1.3764209599212455e+02, 0.0, 0.0, 0.0, 0.0, -1.3325195306253920e+02, -1.3626203304223736e+02, 0.0, 0.0, 0.0, 0.0, 4.0659198793036455e+02, 4.1427425927847219e+02, 0.0, 0.0, 0.0, 0.0, 0.0, 0.0, -1.3544507628697829e+02, -1.4037012724361657e+02, 0.0, 0.0, 0.0, 0.0, -1.3789495541248448e+02, -1.3764209599212455e+02, 0.0, 0.0, 0.0, 0.0, -1.3325195306253920e+02, -1.3626203304223736e+02, 0.0, 0.0, 0.0, 0.0, 4.0659198793036455e+02, 4.1427425927847219e+02, 0.0, 0.0, 0.0, 0.0, 0.0, 0.0, 8.5585277568607676e-02, -2.2787085025842555e+00, 0.0, 0.0, 0.0, 0.0, -2.3642938479375970e+00, 4.4932274890774304e-01, 0.0, 0.0, 0.0, 0.0, 2.2787085020077340e+00, 1.8293856987949413e+00], 
            "evaluate_basis_derivatives_all_2": [1.2652211080646576e+02, 2.5760268858387951e+02, 2.5760269214295801e+02, 8.4246761854312254e+01, 0.0, 0.0, 0.0, 0.0, 0.0, 0.0, 0.0, 0.0, 1.2652211080646576e+02, 2.5760268858387951e+02, 2.5760269214295801e+02, 8.4246761854312254e+01, 0.0, 0.0, 0.0, 0.0, 0.0, 0.0, 0.0, 0.0, 1.2652211080646576e+02, 2.5760268858387951e+02, 2.5760269214295801e+02, 8.4246761854312254e+01, 0.0, 0.0, 0.0, 0.0, 0.0, 0.0, 0.0, 0.0, -3.7956633644984214e+02, -7.7280807139902345e+02, -7.7280808207625887e+02, -2.5274028816657929e+02, 0.0, 0.0, 0.0, 0.0, 0.0, 0.0, 0.0, 0.0, 0.0, 0.0, 0.0, 0.0, 1.2652211080646576e+02, 2.5760268858387951e+02, 2.5760269214295801e+02, 8.4246761854312254e+01, 0.0, 0.0, 0.0, 0.0, 0.0, 0.0, 0.0, 0.0, 1.2652211080646576e+02, 2.5760268858387951e+02, 2.5760269214295801e+02, 8.4246761854312254e+01, 0.0, 0.0, 0.0, 0.0, 0.0, 0.0, 0.0, 0.0, 1.2652211080646576e+02, 2.5760268858387951e+02, 2.5760269214295801e+02, 8.4246761854312254e+01, 0.0, 0.0, 0.0, 0.0, 0.0, 0.0, 0.0, 0.0, -3.7956633644984214e+02, -7.7280807139902345e+02, -7.7280808207625887e+02, -2.5274028816657929e+02, 0.0, 0.0, 0.0, 0.0, 0.0, 0.0, 0.0, 0.0, 0.0, 0.0, 0.0, 0.0, 0.0, 0.0, 0.0, 0.0, 0.0, 0.0, 0.0, 0.0, 0.0, 0.0, 0.0, 0.0, 0.0, 0.0, 0.0, 0.0, 0.0, 0.0, 0.0, 0.0, 0.0, 0.0, 0.0, 0.0, 0.0, 0.0, 0.0, 0.0], 
            "evaluate_dof_0": 3.0792300000000006e-01, 
            "evaluate_dof_1": 4.3028700000000003e-01, 
            "evaluate_dof_2": 7.7282099999999998e-01, 
            "evaluate_dof_3": 5.1498232303368663e-01, 
            "evaluate_dof_4": 1.2316920000000002e+00, 
            "evaluate_dof_5": 1.7211480000000001e+00, 
            "evaluate_dof_6": 3.0912839999999999e+00, 
            "evaluate_dof_7": 2.0599292921347465e+00, 
            "evaluate_dof_8": 2.7713070000000006e+00, 
            "evaluate_dof_9": 3.8725830000000010e+00, 
            "evaluate_dof_10": 6.9553890000000003e+00, 
            "evaluate_dofs": [3.0792300000000006e-01, 4.3028700000000003e-01, 7.7282099999999998e-01, 5.1498232303368663e-01, 1.2316920000000002e+00, 1.7211480000000001e+00, 3.0912839999999999e+00, 2.0599292921347465e+00, 2.7713070000000006e+00, 3.8725830000000010e+00, 6.9553890000000003e+00], 
            "interpolate_vertex_values": [3.0792300000000006e-01, 1.2316920000000002e+00, 2.7713070000000006e+00, 4.3028700000000003e-01, 1.7211480000000001e+00, 3.8725830000000010e+00, 7.7282099999999998e-01, 3.0912839999999999e+00, 6.9553890000000003e+00], 
            "tabulate_dof_coordinates": [9.0300000000000002e-01, 3.4100000000000003e-01, 5.6100000000000005e-01, 7.6700000000000002e-01, 9.8699999999999999e-01, 7.8300000000000003e-01, 8.1699999182999994e-01, 6.3033332703000000e-01, 9.0300000000000002e-01, 3.4100000000000003e-01, 5.6100000000000005e-01, 7.6700000000000002e-01, 9.8699999999999999e-01, 7.8300000000000003e-01, 8.1699999182999994e-01, 6.3033332703000000e-01, 9.0300000000000002e-01, 3.4100000000000003e-01, 5.6100000000000005e-01, 7.6700000000000002e-01, 9.8699999999999999e-01, 7.8300000000000003e-01], 
            "num_sub_elements": 2, 
            "finite_element_0": {
                "cell_shape": 1, 
                "space_dimension": 8, 
                "value_rank": 1, 
                "value_dimension_0": 2, 
                "evaluate_basis:_0": [6.8551205800900391e+01, 0.0], 
                "evaluate_basis:_1": [6.9105991079957477e+01, 0.0], 
                "evaluate_basis:_2": [6.4580764818245228e+01, 0.0], 
                "evaluate_basis:_3": [-2.0123796306119272e+02, 0.0], 
                "evaluate_basis:_4": [0.0, 6.8551205800900391e+01], 
                "evaluate_basis:_5": [0.0, 6.9105991079957477e+01], 
                "evaluate_basis:_6": [0.0, 6.4580764818245228e+01], 
                "evaluate_basis:_7": [0.0, -2.0123796306119272e+02], 
                "evaluate_basis_all": [6.8551205800900391e+01, 0.0, 6.9105991079957477e+01, 0.0, 6.4580764818245228e+01, 0.0, -2.0123796306119272e+02, 0.0, 0.0, 6.8551205800900391e+01, 0.0, 6.9105991079957477e+01, 0.0, 6.4580764818245228e+01, 0.0, -2.0123796306119272e+02, 0.0, 0.0, 0.0, 0.0, 0.0, 0.0, 0.0, 0.0, 0.0, 0.0, 0.0, 0.0, 0.0, 0.0, 0.0, 0.0, 0.0, 0.0, 0.0, 0.0, 0.0, 0.0, 0.0, 0.0, 0.0, 0.0, 0.0, 0.0, 0.0, 0.0, 0.0, 0.0, 0.0, 0.0, 0.0, 0.0, 0.0, 0.0, 0.0, 0.0, 0.0, 0.0, 0.0, 0.0, 0.0, 0.0, 0.0, 0.0], 
                "evaluate_basis_derivatives_0_0": [6.8551205800900391e+01, 0.0], 
                "evaluate_basis_derivatives_0_1": [-1.3544507628697829e+02, -1.4037012724361657e+02, 0.0, 0.0], 
                "evaluate_basis_derivatives_0_2": [1.2652211080646576e+02, 2.5760268858387951e+02, 2.5760269214295801e+02, 8.4246761854312254e+01, 0.0, 0.0, 0.0, 0.0], 
                "evaluate_basis_derivatives_1_0": [6.9105991079957477e+01, 0.0], 
                "evaluate_basis_derivatives_1_1": [-1.3789495541248448e+02, -1.3764209599212455e+02, 0.0, 0.0], 
                "evaluate_basis_derivatives_1_2": [1.2652211080646576e+02, 2.5760268858387951e+02, 2.5760269214295801e+02, 8.4246761854312254e+01, 0.0, 0.0, 0.0, 0.0], 
                "evaluate_basis_derivatives_2_0": [6.4580764818245228e+01, 0.0], 
                "evaluate_basis_derivatives_2_1": [-1.3325195306253920e+02, -1.3626203304223736e+02, 0.0, 0.0], 
                "evaluate_basis_derivatives_2_2": [1.2652211080646576e+02, 2.5760268858387951e+02, 2.5760269214295801e+02, 8.4246761854312254e+01, 0.0, 0.0, 0.0, 0.0], 
                "evaluate_basis_derivatives_3_0": [-2.0123796306119272e+02, 0.0], 
                "evaluate_basis_derivatives_3_1": [4.0659198793036455e+02, 4.1427425927847219e+02, 0.0, 0.0], 
                "evaluate_basis_derivatives_3_2": [-3.7956633644984214e+02, -7.7280807139902345e+02, -7.7280808207625887e+02, -2.5274028816657929e+02, 0.0, 0.0, 0.0, 0.0], 
                "evaluate_basis_derivatives_4_0": [0.0, 6.8551205800900391e+01], 
                "evaluate_basis_derivatives_4_1": [0.0, 0.0, -1.3544507628697829e+02, -1.4037012724361657e+02], 
                "evaluate_basis_derivatives_4_2": [0.0, 0.0, 0.0, 0.0, 1.2652211080646576e+02, 2.5760268858387951e+02, 2.5760269214295801e+02, 8.4246761854312254e+01], 
                "evaluate_basis_derivatives_5_0": [0.0, 6.9105991079957477e+01], 
                "evaluate_basis_derivatives_5_1": [0.0, 0.0, -1.3789495541248448e+02, -1.3764209599212455e+02], 
                "evaluate_basis_derivatives_5_2": [0.0, 0.0, 0.0, 0.0, 1.2652211080646576e+02, 2.5760268858387951e+02, 2.5760269214295801e+02, 8.4246761854312254e+01], 
                "evaluate_basis_derivatives_6_0": [0.0, 6.4580764818245228e+01], 
                "evaluate_basis_derivatives_6_1": [0.0, 0.0, -1.3325195306253920e+02, -1.3626203304223736e+02], 
                "evaluate_basis_derivatives_6_2": [0.0, 0.0, 0.0, 0.0, 1.2652211080646576e+02, 2.5760268858387951e+02, 2.5760269214295801e+02, 8.4246761854312254e+01], 
                "evaluate_basis_derivatives_7_0": [0.0, -2.0123796306119272e+02], 
                "evaluate_basis_derivatives_7_1": [0.0, 0.0, 4.0659198793036455e+02, 4.1427425927847219e+02], 
                "evaluate_basis_derivatives_7_2": [0.0, 0.0, 0.0, 0.0, -3.7956633644984214e+02, -7.7280807139902345e+02, -7.7280808207625887e+02, -2.5274028816657929e+02], 
                "evaluate_basis_derivatives_all_0": [6.8551205800900391e+01, 0.0, 6.9105991079957477e+01, 0.0, 6.4580764818245228e+01, 0.0, -2.0123796306119272e+02, 0.0, 0.0, 6.8551205800900391e+01, 0.0, 6.9105991079957477e+01, 0.0, 6.4580764818245228e+01, 0.0, -2.0123796306119272e+02], 
                "evaluate_basis_derivatives_all_1": [-1.3544507628697829e+02, -1.4037012724361657e+02, 0.0, 0.0, -1.3789495541248448e+02, -1.3764209599212455e+02, 0.0, 0.0, -1.3325195306253920e+02, -1.3626203304223736e+02, 0.0, 0.0, 4.0659198793036455e+02, 4.1427425927847219e+02, 0.0, 0.0, 0.0, 0.0, -1.3544507628697829e+02, -1.4037012724361657e+02, 0.0, 0.0, -1.3789495541248448e+02, -1.3764209599212455e+02, 0.0, 0.0, -1.3325195306253920e+02, -1.3626203304223736e+02, 0.0, 0.0, 4.0659198793036455e+02, 4.1427425927847219e+02], 
                "evaluate_basis_derivatives_all_2": [1.2652211080646576e+02, 2.5760268858387951e+02, 2.5760269214295801e+02, 8.4246761854312254e+01, 0.0, 0.0, 0.0, 0.0, 1.2652211080646576e+02, 2.5760268858387951e+02, 2.5760269214295801e+02, 8.4246761854312254e+01, 0.0, 0.0, 0.0, 0.0, 1.2652211080646576e+02, 2.5760268858387951e+02, 2.5760269214295801e+02, 8.4246761854312254e+01, 0.0, 0.0, 0.0, 0.0, -3.7956633644984214e+02, -7.7280807139902345e+02, -7.7280808207625887e+02, -2.5274028816657929e+02, 0.0, 0.0, 0.0, 0.0, 0.0, 0.0, 0.0, 0.0, 1.2652211080646576e+02, 2.5760268858387951e+02, 2.5760269214295801e+02, 8.4246761854312254e+01, 0.0, 0.0, 0.0, 0.0, 1.2652211080646576e+02, 2.5760268858387951e+02, 2.5760269214295801e+02, 8.4246761854312254e+01, 0.0, 0.0, 0.0, 0.0, 1.2652211080646576e+02, 2.5760268858387951e+02, 2.5760269214295801e+02, 8.4246761854312254e+01, 0.0, 0.0, 0.0, 0.0, -3.7956633644984214e+02, -7.7280807139902345e+02, -7.7280808207625887e+02, -2.5274028816657929e+02], 
                "evaluate_dof_0": 3.0792300000000006e-01, 
                "evaluate_dof_1": 4.3028700000000003e-01, 
                "evaluate_dof_2": 7.7282099999999998e-01, 
                "evaluate_dof_3": 5.1498232303368663e-01, 
                "evaluate_dof_4": 1.2316920000000002e+00, 
                "evaluate_dof_5": 1.7211480000000001e+00, 
                "evaluate_dof_6": 3.0912839999999999e+00, 
                "evaluate_dof_7": 2.0599292921347465e+00, 
                "evaluate_dofs": [3.0792300000000006e-01, 4.3028700000000003e-01, 7.7282099999999998e-01, 5.1498232303368663e-01, 1.2316920000000002e+00, 1.7211480000000001e+00, 3.0912839999999999e+00, 2.0599292921347465e+00], 
                "interpolate_vertex_values": [3.0792300000000006e-01, 1.2316920000000002e+00, 4.3028700000000003e-01, 1.7211480000000001e+00, 7.7282099999999998e-01, 3.0912839999999999e+00], 
                "tabulate_dof_coordinates": [9.0300000000000002e-01, 3.4100000000000003e-01, 5.6100000000000005e-01, 7.6700000000000002e-01, 9.8699999999999999e-01, 7.8300000000000003e-01, 8.1699999182999994e-01, 6.3033332703000000e-01, 9.0300000000000002e-01, 3.4100000000000003e-01, 5.6100000000000005e-01, 7.6700000000000002e-01, 9.8699999999999999e-01, 7.8300000000000003e-01, 8.1699999182999994e-01, 6.3033332703000000e-01], 
                "num_sub_elements": 2, 
                "finite_element_0": {
                    "cell_shape": 1, 
                    "space_dimension": 4, 
                    "value_rank": 0, 
                    "evaluate_basis:_0": [6.8551205800900391e+01], 
                    "evaluate_basis:_1": [6.9105991079957477e+01], 
                    "evaluate_basis:_2": [6.4580764818245228e+01], 
                    "evaluate_basis:_3": [-2.0123796306119272e+02], 
                    "evaluate_basis_all": [6.8551205800900391e+01, 6.9105991079957477e+01, 6.4580764818245228e+01, -2.0123796306119272e+02, 0.0, 0.0, 0.0, 0.0, 0.0, 0.0, 0.0, 0.0, 0.0, 0.0, 0.0, 0.0], 
                    "evaluate_basis_derivatives_0_0": [6.8551205800900391e+01], 
                    "evaluate_basis_derivatives_0_1": [-1.3544507628697829e+02, -1.4037012724361657e+02], 
                    "evaluate_basis_derivatives_0_2": [1.2652211080646576e+02, 2.5760268858387951e+02, 2.5760269214295801e+02, 8.4246761854312254e+01], 
                    "evaluate_basis_derivatives_1_0": [6.9105991079957477e+01], 
                    "evaluate_basis_derivatives_1_1": [-1.3789495541248448e+02, -1.3764209599212455e+02], 
                    "evaluate_basis_derivatives_1_2": [1.2652211080646576e+02, 2.5760268858387951e+02, 2.5760269214295801e+02, 8.4246761854312254e+01], 
                    "evaluate_basis_derivatives_2_0": [6.4580764818245228e+01], 
                    "evaluate_basis_derivatives_2_1": [-1.3325195306253920e+02, -1.3626203304223736e+02], 
                    "evaluate_basis_derivatives_2_2": [1.2652211080646576e+02, 2.5760268858387951e+02, 2.5760269214295801e+02, 8.4246761854312254e+01], 
                    "evaluate_basis_derivatives_3_0": [-2.0123796306119272e+02], 
                    "evaluate_basis_derivatives_3_1": [4.0659198793036455e+02, 4.1427425927847219e+02], 
                    "evaluate_basis_derivatives_3_2": [-3.7956633644984214e+02, -7.7280807139902345e+02, -7.7280808207625887e+02, -2.5274028816657929e+02], 
                    "evaluate_basis_derivatives_all_0": [6.8551205800900391e+01, 6.9105991079957477e+01, 6.4580764818245228e+01, -2.0123796306119272e+02], 
                    "evaluate_basis_derivatives_all_1": [-1.3544507628697829e+02, -1.4037012724361657e+02, -1.3789495541248448e+02, -1.3764209599212455e+02, -1.3325195306253920e+02, -1.3626203304223736e+02, 4.0659198793036455e+02, 4.1427425927847219e+02], 
                    "evaluate_basis_derivatives_all_2": [1.2652211080646576e+02, 2.5760268858387951e+02, 2.5760269214295801e+02, 8.4246761854312254e+01, 1.2652211080646576e+02, 2.5760268858387951e+02, 2.5760269214295801e+02, 8.4246761854312254e+01, 1.2652211080646576e+02, 2.5760268858387951e+02, 2.5760269214295801e+02, 8.4246761854312254e+01, -3.7956633644984214e+02, -7.7280807139902345e+02, -7.7280808207625887e+02, -2.5274028816657929e+02], 
                    "evaluate_dof_0": 3.0792300000000006e-01, 
                    "evaluate_dof_1": 4.3028700000000003e-01, 
                    "evaluate_dof_2": 7.7282099999999998e-01, 
                    "evaluate_dof_3": 5.1498232303368663e-01, 
                    "evaluate_dofs": [3.0792300000000006e-01, 4.3028700000000003e-01, 7.7282099999999998e-01, 5.1498232303368663e-01], 
                    "interpolate_vertex_values": [3.0792300000000006e-01, 4.3028700000000003e-01, 7.7282099999999998e-01], 
                    "tabulate_dof_coordinates": [9.0300000000000002e-01, 3.4100000000000003e-01, 5.6100000000000005e-01, 7.6700000000000002e-01, 9.8699999999999999e-01, 7.8300000000000003e-01, 8.1699999182999994e-01, 6.3033332703000000e-01], 
                    "num_sub_elements": 0, 
                },
                "finite_element_1": {
                    "cell_shape": 1, 
                    "space_dimension": 4, 
                    "value_rank": 0, 
                    "evaluate_basis:_0": [6.8551205800900391e+01], 
                    "evaluate_basis:_1": [6.9105991079957477e+01], 
                    "evaluate_basis:_2": [6.4580764818245228e+01], 
                    "evaluate_basis:_3": [-2.0123796306119272e+02], 
                    "evaluate_basis_all": [6.8551205800900391e+01, 6.9105991079957477e+01, 6.4580764818245228e+01, -2.0123796306119272e+02, 0.0, 0.0, 0.0, 0.0, 0.0, 0.0, 0.0, 0.0, 0.0, 0.0, 0.0, 0.0], 
                    "evaluate_basis_derivatives_0_0": [6.8551205800900391e+01], 
                    "evaluate_basis_derivatives_0_1": [-1.3544507628697829e+02, -1.4037012724361657e+02], 
                    "evaluate_basis_derivatives_0_2": [1.2652211080646576e+02, 2.5760268858387951e+02, 2.5760269214295801e+02, 8.4246761854312254e+01], 
                    "evaluate_basis_derivatives_1_0": [6.9105991079957477e+01], 
                    "evaluate_basis_derivatives_1_1": [-1.3789495541248448e+02, -1.3764209599212455e+02], 
                    "evaluate_basis_derivatives_1_2": [1.2652211080646576e+02, 2.5760268858387951e+02, 2.5760269214295801e+02, 8.4246761854312254e+01], 
                    "evaluate_basis_derivatives_2_0": [6.4580764818245228e+01], 
                    "evaluate_basis_derivatives_2_1": [-1.3325195306253920e+02, -1.3626203304223736e+02], 
                    "evaluate_basis_derivatives_2_2": [1.2652211080646576e+02, 2.5760268858387951e+02, 2.5760269214295801e+02, 8.4246761854312254e+01], 
                    "evaluate_basis_derivatives_3_0": [-2.0123796306119272e+02], 
                    "evaluate_basis_derivatives_3_1": [4.0659198793036455e+02, 4.1427425927847219e+02], 
                    "evaluate_basis_derivatives_3_2": [-3.7956633644984214e+02, -7.7280807139902345e+02, -7.7280808207625887e+02, -2.5274028816657929e+02], 
                    "evaluate_basis_derivatives_all_0": [6.8551205800900391e+01, 6.9105991079957477e+01, 6.4580764818245228e+01, -2.0123796306119272e+02], 
                    "evaluate_basis_derivatives_all_1": [-1.3544507628697829e+02, -1.4037012724361657e+02, -1.3789495541248448e+02, -1.3764209599212455e+02, -1.3325195306253920e+02, -1.3626203304223736e+02, 4.0659198793036455e+02, 4.1427425927847219e+02], 
                    "evaluate_basis_derivatives_all_2": [1.2652211080646576e+02, 2.5760268858387951e+02, 2.5760269214295801e+02, 8.4246761854312254e+01, 1.2652211080646576e+02, 2.5760268858387951e+02, 2.5760269214295801e+02, 8.4246761854312254e+01, 1.2652211080646576e+02, 2.5760268858387951e+02, 2.5760269214295801e+02, 8.4246761854312254e+01, -3.7956633644984214e+02, -7.7280807139902345e+02, -7.7280808207625887e+02, -2.5274028816657929e+02], 
                    "evaluate_dof_0": 3.0792300000000006e-01, 
                    "evaluate_dof_1": 4.3028700000000003e-01, 
                    "evaluate_dof_2": 7.7282099999999998e-01, 
                    "evaluate_dof_3": 5.1498232303368663e-01, 
                    "evaluate_dofs": [3.0792300000000006e-01, 4.3028700000000003e-01, 7.7282099999999998e-01, 5.1498232303368663e-01], 
                    "interpolate_vertex_values": [3.0792300000000006e-01, 4.3028700000000003e-01, 7.7282099999999998e-01], 
                    "tabulate_dof_coordinates": [9.0300000000000002e-01, 3.4100000000000003e-01, 5.6100000000000005e-01, 7.6700000000000002e-01, 9.8699999999999999e-01, 7.8300000000000003e-01, 8.1699999182999994e-01, 6.3033332703000000e-01], 
                    "num_sub_elements": 0, 
                },
            },
            "finite_element_1": {
                "cell_shape": 1, 
                "space_dimension": 3, 
                "value_rank": 0, 
                "evaluate_basis:_0": [1.4718852622922434e+00], 
                "evaluate_basis:_1": [2.0266705413493233e+00], 
                "evaluate_basis:_2": [-2.4985557203629258e+00], 
                "evaluate_basis_all": [1.4718852622922434e+00, 2.0266705413493233e+00, -2.4985557203629258e+00, 0.0, 0.0, 0.0, 0.0, 0.0, 0.0, 0.0, 0.0, 0.0], 
                "evaluate_basis_derivatives_0_0": [1.4718852622922434e+00], 
                "evaluate_basis_derivatives_0_1": [8.5585277568607676e-02, -2.2787085025842555e+00], 
                "evaluate_basis_derivatives_0_2": [0.0, 0.0, 0.0, 0.0], 
                "evaluate_basis_derivatives_1_0": [2.0266705413493233e+00], 
                "evaluate_basis_derivatives_1_1": [-2.3642938479375970e+00, 4.4932274890774304e-01], 
                "evaluate_basis_derivatives_1_2": [0.0, 0.0, 0.0, 0.0], 
                "evaluate_basis_derivatives_2_0": [-2.4985557203629258e+00], 
                "evaluate_basis_derivatives_2_1": [2.2787085020077340e+00, 1.8293856987949413e+00], 
                "evaluate_basis_derivatives_2_2": [0.0, 0.0, 0.0, 0.0], 
                "evaluate_basis_derivatives_all_0": [1.4718852622922434e+00, 2.0266705413493233e+00, -2.4985557203629258e+00], 
                "evaluate_basis_derivatives_all_1": [8.5585277568607676e-02, -2.2787085025842555e+00, -2.3642938479375970e+00, 4.4932274890774304e-01, 2.2787085020077340e+00, 1.8293856987949413e+00], 
                "evaluate_basis_derivatives_all_2": [0.0, 0.0, 0.0, 0.0, 0.0, 0.0, 0.0, 0.0, 0.0, 0.0, 0.0, 0.0], 
                "evaluate_dof_0": 3.0792300000000006e-01, 
                "evaluate_dof_1": 4.3028700000000003e-01, 
                "evaluate_dof_2": 7.7282099999999998e-01, 
                "evaluate_dofs": [3.0792300000000006e-01, 4.3028700000000003e-01, 7.7282099999999998e-01], 
                "interpolate_vertex_values": [3.0792300000000006e-01, 4.3028700000000003e-01, 7.7282099999999998e-01], 
                "tabulate_dof_coordinates": [9.0300000000000002e-01, 3.4100000000000003e-01, 5.6100000000000005e-01, 7.6700000000000002e-01, 9.8699999999999999e-01, 7.8300000000000003e-01], 
                "num_sub_elements": 0, 
            },
        },
        "dofmap_0": {
            "needs_mesh_entities_0": 1, 
            "needs_mesh_entities_1": 0, 
            "needs_mesh_entities_2": 1, 
            "global_dimension": 50009, 
            "num_element_dofs": 11, 
            "num_facet_dofs": 6, 
            "num_entity_dofs_0": 3, 
            "num_entity_dofs_1": 0, 
            "num_entity_dofs_2": 2, 
            "tabulate_dofs": [0, 0, 0, 10001, 20004, 20004, 20004, 30005, 40008, 40008, 40008], 
            "tabulate_facet_dofs_0": [1, 2, 5, 6, 9, 10], 
            "tabulate_facet_dofs_1": [0, 2, 4, 6, 8, 10], 
            "tabulate_facet_dofs_2": [0, 1, 4, 5, 8, 9], 
            "tabulate_entity_dofs_0_0": [0, 4, 8], 
            "tabulate_entity_dofs_0_1": [1, 5, 9], 
            "tabulate_entity_dofs_0_2": [2, 6, 10], 
            "tabulate_entity_dofs_1_0": [], 
            "tabulate_entity_dofs_1_1": [], 
            "tabulate_entity_dofs_1_2": [], 
            "tabulate_entity_dofs_2_0": [3, 7], 
            "num_sub_dofmaps": 2, 
            "dofmap_0": {
                "needs_mesh_entities_0": 1, 
                "needs_mesh_entities_1": 0, 
                "needs_mesh_entities_2": 1, 
                "global_dimension": 40008, 
                "num_element_dofs": 8, 
                "num_facet_dofs": 4, 
                "num_entity_dofs_0": 2, 
                "num_entity_dofs_1": 0, 
                "num_entity_dofs_2": 2, 
                "tabulate_dofs": [0, 0, 0, 10001, 20004, 20004, 20004, 30005], 
                "tabulate_facet_dofs_0": [1, 2, 5, 6], 
                "tabulate_facet_dofs_1": [0, 2, 4, 6], 
                "tabulate_facet_dofs_2": [0, 1, 4, 5], 
                "tabulate_entity_dofs_0_0": [0, 4], 
                "tabulate_entity_dofs_0_1": [1, 5], 
                "tabulate_entity_dofs_0_2": [2, 6], 
                "tabulate_entity_dofs_1_0": [], 
                "tabulate_entity_dofs_1_1": [], 
                "tabulate_entity_dofs_1_2": [], 
                "tabulate_entity_dofs_2_0": [3, 7], 
                "num_sub_dofmaps": 2, 
                "dofmap_0": {
                    "needs_mesh_entities_0": 1, 
                    "needs_mesh_entities_1": 0, 
                    "needs_mesh_entities_2": 1, 
                    "global_dimension": 20004, 
                    "num_element_dofs": 4, 
                    "num_facet_dofs": 2, 
                    "num_entity_dofs_0": 1, 
                    "num_entity_dofs_1": 0, 
                    "num_entity_dofs_2": 1, 
                    "tabulate_dofs": [0, 0, 0, 10001], 
                    "tabulate_facet_dofs_0": [1, 2], 
                    "tabulate_facet_dofs_1": [0, 2], 
                    "tabulate_facet_dofs_2": [0, 1], 
                    "tabulate_entity_dofs_0_0": [0], 
                    "tabulate_entity_dofs_0_1": [1], 
                    "tabulate_entity_dofs_0_2": [2], 
                    "tabulate_entity_dofs_1_0": [], 
                    "tabulate_entity_dofs_1_1": [], 
                    "tabulate_entity_dofs_1_2": [], 
                    "tabulate_entity_dofs_2_0": [3], 
                    "num_sub_dofmaps": 0, 
                },
                "dofmap_1": {
                    "needs_mesh_entities_0": 1, 
                    "needs_mesh_entities_1": 0, 
                    "needs_mesh_entities_2": 1, 
                    "global_dimension": 20004, 
                    "num_element_dofs": 4, 
                    "num_facet_dofs": 2, 
                    "num_entity_dofs_0": 1, 
                    "num_entity_dofs_1": 0, 
                    "num_entity_dofs_2": 1, 
                    "tabulate_dofs": [0, 0, 0, 10001], 
                    "tabulate_facet_dofs_0": [1, 2], 
                    "tabulate_facet_dofs_1": [0, 2], 
                    "tabulate_facet_dofs_2": [0, 1], 
                    "tabulate_entity_dofs_0_0": [0], 
                    "tabulate_entity_dofs_0_1": [1], 
                    "tabulate_entity_dofs_0_2": [2], 
                    "tabulate_entity_dofs_1_0": [], 
                    "tabulate_entity_dofs_1_1": [], 
                    "tabulate_entity_dofs_1_2": [], 
                    "tabulate_entity_dofs_2_0": [3], 
                    "num_sub_dofmaps": 0, 
                },
            },
            "dofmap_1": {
                "needs_mesh_entities_0": 1, 
                "needs_mesh_entities_1": 0, 
                "needs_mesh_entities_2": 0, 
                "global_dimension": 10001, 
                "num_element_dofs": 3, 
                "num_facet_dofs": 2, 
                "num_entity_dofs_0": 1, 
                "num_entity_dofs_1": 0, 
                "num_entity_dofs_2": 0, 
                "tabulate_dofs": [0, 0, 0], 
                "tabulate_facet_dofs_0": [1, 2], 
                "tabulate_facet_dofs_1": [0, 2], 
                "tabulate_facet_dofs_2": [0, 1], 
                "tabulate_entity_dofs_0_0": [0], 
                "tabulate_entity_dofs_0_1": [1], 
                "tabulate_entity_dofs_0_2": [2], 
                "tabulate_entity_dofs_1_0": [], 
                "tabulate_entity_dofs_1_1": [], 
                "tabulate_entity_dofs_1_2": [], 
                "tabulate_entity_dofs_2_0": [], 
                "num_sub_dofmaps": 0, 
            },
        },
        "dofmap_1": {
            "needs_mesh_entities_0": 1, 
            "needs_mesh_entities_1": 0, 
            "needs_mesh_entities_2": 1, 
            "global_dimension": 50009, 
            "num_element_dofs": 11, 
            "num_facet_dofs": 6, 
            "num_entity_dofs_0": 3, 
            "num_entity_dofs_1": 0, 
            "num_entity_dofs_2": 2, 
            "tabulate_dofs": [0, 0, 0, 10001, 20004, 20004, 20004, 30005, 40008, 40008, 40008], 
            "tabulate_facet_dofs_0": [1, 2, 5, 6, 9, 10], 
            "tabulate_facet_dofs_1": [0, 2, 4, 6, 8, 10], 
            "tabulate_facet_dofs_2": [0, 1, 4, 5, 8, 9], 
            "tabulate_entity_dofs_0_0": [0, 4, 8], 
            "tabulate_entity_dofs_0_1": [1, 5, 9], 
            "tabulate_entity_dofs_0_2": [2, 6, 10], 
            "tabulate_entity_dofs_1_0": [], 
            "tabulate_entity_dofs_1_1": [], 
            "tabulate_entity_dofs_1_2": [], 
            "tabulate_entity_dofs_2_0": [3, 7], 
            "num_sub_dofmaps": 2, 
            "dofmap_0": {
                "needs_mesh_entities_0": 1, 
                "needs_mesh_entities_1": 0, 
                "needs_mesh_entities_2": 1, 
                "global_dimension": 40008, 
                "num_element_dofs": 8, 
                "num_facet_dofs": 4, 
                "num_entity_dofs_0": 2, 
                "num_entity_dofs_1": 0, 
                "num_entity_dofs_2": 2, 
                "tabulate_dofs": [0, 0, 0, 10001, 20004, 20004, 20004, 30005], 
                "tabulate_facet_dofs_0": [1, 2, 5, 6], 
                "tabulate_facet_dofs_1": [0, 2, 4, 6], 
                "tabulate_facet_dofs_2": [0, 1, 4, 5], 
                "tabulate_entity_dofs_0_0": [0, 4], 
                "tabulate_entity_dofs_0_1": [1, 5], 
                "tabulate_entity_dofs_0_2": [2, 6], 
                "tabulate_entity_dofs_1_0": [], 
                "tabulate_entity_dofs_1_1": [], 
                "tabulate_entity_dofs_1_2": [], 
                "tabulate_entity_dofs_2_0": [3, 7], 
                "num_sub_dofmaps": 2, 
                "dofmap_0": {
                    "needs_mesh_entities_0": 1, 
                    "needs_mesh_entities_1": 0, 
                    "needs_mesh_entities_2": 1, 
                    "global_dimension": 20004, 
                    "num_element_dofs": 4, 
                    "num_facet_dofs": 2, 
                    "num_entity_dofs_0": 1, 
                    "num_entity_dofs_1": 0, 
                    "num_entity_dofs_2": 1, 
                    "tabulate_dofs": [0, 0, 0, 10001], 
                    "tabulate_facet_dofs_0": [1, 2], 
                    "tabulate_facet_dofs_1": [0, 2], 
                    "tabulate_facet_dofs_2": [0, 1], 
                    "tabulate_entity_dofs_0_0": [0], 
                    "tabulate_entity_dofs_0_1": [1], 
                    "tabulate_entity_dofs_0_2": [2], 
                    "tabulate_entity_dofs_1_0": [], 
                    "tabulate_entity_dofs_1_1": [], 
                    "tabulate_entity_dofs_1_2": [], 
                    "tabulate_entity_dofs_2_0": [3], 
                    "num_sub_dofmaps": 0, 
                },
                "dofmap_1": {
                    "needs_mesh_entities_0": 1, 
                    "needs_mesh_entities_1": 0, 
                    "needs_mesh_entities_2": 1, 
                    "global_dimension": 20004, 
                    "num_element_dofs": 4, 
                    "num_facet_dofs": 2, 
                    "num_entity_dofs_0": 1, 
                    "num_entity_dofs_1": 0, 
                    "num_entity_dofs_2": 1, 
                    "tabulate_dofs": [0, 0, 0, 10001], 
                    "tabulate_facet_dofs_0": [1, 2], 
                    "tabulate_facet_dofs_1": [0, 2], 
                    "tabulate_facet_dofs_2": [0, 1], 
                    "tabulate_entity_dofs_0_0": [0], 
                    "tabulate_entity_dofs_0_1": [1], 
                    "tabulate_entity_dofs_0_2": [2], 
                    "tabulate_entity_dofs_1_0": [], 
                    "tabulate_entity_dofs_1_1": [], 
                    "tabulate_entity_dofs_1_2": [], 
                    "tabulate_entity_dofs_2_0": [3], 
                    "num_sub_dofmaps": 0, 
                },
            },
            "dofmap_1": {
                "needs_mesh_entities_0": 1, 
                "needs_mesh_entities_1": 0, 
                "needs_mesh_entities_2": 0, 
                "global_dimension": 10001, 
                "num_element_dofs": 3, 
                "num_facet_dofs": 2, 
                "num_entity_dofs_0": 1, 
                "num_entity_dofs_1": 0, 
                "num_entity_dofs_2": 0, 
                "tabulate_dofs": [0, 0, 0], 
                "tabulate_facet_dofs_0": [1, 2], 
                "tabulate_facet_dofs_1": [0, 2], 
                "tabulate_facet_dofs_2": [0, 1], 
                "tabulate_entity_dofs_0_0": [0], 
                "tabulate_entity_dofs_0_1": [1], 
                "tabulate_entity_dofs_0_2": [2], 
                "tabulate_entity_dofs_1_0": [], 
                "tabulate_entity_dofs_1_1": [], 
                "tabulate_entity_dofs_1_2": [], 
                "tabulate_entity_dofs_2_0": [], 
                "num_sub_dofmaps": 0, 
            },
        },
        "default_cell_integral": 1, 
        "cell_integral": {
            "tabulate_tensor": [1.3075785967771365e+00, 7.0690889152147462e-01, 4.5009950781437114e-01, -2.4645869780437621e+00, 0.0, 0.0, 0.0, 0.0, -3.8666666300642000e-03, 3.0483333533018606e-02, -3.4616666870417277e-02, 7.0690889152147462e-01, 1.3629094892573557e+00, 3.9476861289526510e-01, -2.4645869756048748e+00, 0.0, 0.0, 0.0, 0.0, 7.2466666818100475e-02, 1.0681666565552328e-01, 4.1716666627537431e-02, 4.5009950781437114e-01, 3.9476861289526510e-01, 1.6197188616447584e+00, -2.4645869642851750e+00, 0.0, 0.0, 0.0, 0.0, -7.2200000160556027e-02, -3.7849999947683177e-02, -1.0294999902545908e-01, -2.4645869780437621e+00, -2.4645869756048748e+00, -2.4645869642851750e+00, 7.3937608637261532e+00, 0.0, 0.0, 0.0, 0.0, 3.5999999648119937e-03, -9.9449999027930933e-02, 9.5849999063118946e-02, 0.0, 0.0, 0.0, 0.0, 1.3075785967771365e+00, 7.0690889152147462e-01, 4.5009950781437114e-01, -2.4645869780437621e+00, 1.0294999902545907e-01, 6.4700000114077255e-02, 4.5349999994161977e-02, 0.0, 0.0, 0.0, 0.0, 7.0690889152147462e-01, 1.3629094892573557e+00, 3.9476861289526510e-01, -2.4645869756048748e+00, 1.7950000167807081e-02, -2.0299999807836994e-02, -3.9650000189150020e-02, 0.0, 0.0, 0.0, 0.0, 4.5009950781437114e-01, 3.9476861289526510e-01, 1.6197188616447584e+00, -2.4645869642851750e+00, -2.5049999924927232e-02, -6.3300000161969044e-02, -8.2649999217622089e-02, 0.0, 0.0, 0.0, 0.0, -2.4645869780437621e+00, -2.4645869756048748e+00, -2.4645869642851750e+00, 7.3937608637261532e+00, -9.5849999063118918e-02, 1.8899999815262893e-02, 7.6949999247856060e-02, -3.8666666300642000e-03, 7.2466666818100475e-02, -7.2200000160556027e-02, 3.5999999648119937e-03, 1.0294999902545907e-01, 1.7950000167807081e-02, -2.5049999924927232e-02, -9.5849999063118918e-02, 0.0, 0.0, 0.0, 3.0483333533018606e-02, 1.0681666565552328e-01, -3.7849999947683177e-02, -9.9449999027930933e-02, 6.4700000114077255e-02, -2.0299999807836994e-02, -6.3300000161969044e-02, 1.8899999815262893e-02, 0.0, 0.0, 0.0, -3.4616666870417277e-02, 4.1716666627537431e-02, -1.0294999902545908e-01, 9.5849999063118946e-02, 4.5349999994161977e-02, -3.9650000189150020e-02, -8.2649999217622089e-02, 7.6949999247856060e-02, 0.0, 0.0, 0.0], 
        },
        "default_exterior_facet_integral": 0, 
        "default_interior_facet_integral": 0, 
        "default_vertex_integral": 0, 
    },
}
